time	0	1	2	3	4	5	6	7	8	9	10	11	12	13	14	15	16	17	18	19	20	21	22	23	24	25	26	27	28	29	30	31	32	33	34	35	36	37	38	39	40	41	42	43	44	45	46	47	48	49	50	51	52	53	54	55	56	57	58	59	60	61	62	63	64	65	66	67	68	69	70	71	72	73	74	75	76	77	78	79	80	81	82	83	84	85	86	87	88	89	90	91	92	93	94	95	96	97	98	99	100	
0	4.000000e+00	4.000000e+00	4.000000e+00	4.000000e+00	4.000000e+00	4.000000e+00	4.000000e+00	4.000000e+00	4.000000e+00	4.000000e+00	4.000000e+00	4.000000e+00	4.000000e+00	4.000000e+00	4.000000e+00	4.000000e+00	4.000000e+00	4.000000e+00	4.000000e+00	4.000000e+00	4.000000e+00	4.000000e+00	4.000000e+00	4.000000e+00	4.000000e+00	4.000000e+00	4.000000e+00	4.000000e+00	4.000000e+00	4.000000e+00	4.000000e+00	4.000000e+00	4.000000e+00	4.000000e+00	4.000000e+00	4.000000e+00	4.000000e+00	4.000000e+00	4.000000e+00	4.000000e+00	4.000000e+00	4.000000e+00	4.000000e+00	4.000000e+00	4.000000e+00	4.000000e+00	4.000000e+00	4.000000e+00	4.000000e+00	4.000000e+00	1.000000e+00	1.000000e+00	1.000000e+00	1.000000e+00	1.000000e+00	1.000000e+00	1.000000e+00	1.000000e+00	1.000000e+00	1.000000e+00	1.000000e+00	1.000000e+00	1.000000e+00	1.000000e+00	1.000000e+00	1.000000e+00	1.000000e+00	1.000000e+00	1.000000e+00	1.000000e+00	1.000000e+00	1.000000e+00	1.000000e+00	1.000000e+00	1.000000e+00	1.000000e+00	1.000000e+00	1.000000e+00	1.000000e+00	1.000000e+00	1.000000e+00	1.000000e+00	1.000000e+00	1.000000e+00	1.000000e+00	1.000000e+00	1.000000e+00	1.000000e+00	1.000000e+00	1.000000e+00	1.000000e+00	1.000000e+00	1.000000e+00	1.000000e+00	1.000000e+00	1.000000e+00	1.000000e+00	1.000000e+00	1.000000e+00	1.000000e+00	1.000000e+00	
5.079474e-01	4.000000e+00	4.000000e+00	4.000000e+00	4.000000e+00	4.000000e+00	4.000000e+00	4.000000e+00	4.000000e+00	4.000000e+00	4.000000e+00	4.000000e+00	4.000000e+00	4.000000e+00	4.000000e+00	4.000000e+00	4.000000e+00	4.000000e+00	4.000000e+00	4.000000e+00	4.000000e+00	4.000000e+00	4.000000e+00	4.000000e+00	4.000000e+00	4.000000e+00	4.000000e+00	4.000000e+00	4.000000e+00	4.000000e+00	4.000000e+00	4.000000e+00	4.000000e+00	4.000000e+00	4.000000e+00	4.000000e+00	4.000000e+00	4.000000e+00	4.000000e+00	4.000000e+00	4.000000e+00	4.000000e+00	4.000000e+00	4.000000e+00	4.000000e+00	3.999968e+00	3.995270e+00	3.911062e+00	3.589614e+00	3.080725e+00	2.529747e+00	2.179289e+00	2.188798e+00	2.175054e+00	1.451272e+00	1.000918e+00	1.000000e+00	1.000000e+00	1.000000e+00	1.000000e+00	1.000000e+00	1.000000e+00	1.000000e+00	1.000000e+00	1.000000e+00	1.000000e+00	1.000000e+00	1.000000e+00	1.000000e+00	1.000000e+00	1.000000e+00	1.000000e+00	1.000000e+00	1.000000e+00	1.000000e+00	1.000000e+00	1.000000e+00	1.000000e+00	1.000000e+00	1.000000e+00	1.000000e+00	1.000000e+00	1.000000e+00	1.000000e+00	1.000000e+00	1.000000e+00	1.000000e+00	1.000000e+00	1.000000e+00	1.000000e+00	1.000000e+00	1.000000e+00	1.000000e+00	1.000000e+00	1.000000e+00	1.000000e+00	1.000000e+00	1.000000e+00	1.000000e+00	1.000000e+00	1.000000e+00	1.000000e+00	
7.620683e-01	4.000000e+00	4.000000e+00	4.000000e+00	4.000000e+00	4.000000e+00	4.000000e+00	4.000000e+00	4.000000e+00	4.000000e+00	4.000000e+00	4.000000e+00	4.000000e+00	4.000000e+00	4.000000e+00	4.000000e+00	4.000000e+00	4.000000e+00	4.000000e+00	4.000000e+00	4.000000e+00	4.000000e+00	4.000000e+00	4.000000e+00	4.000000e+00	4.000000e+00	4.000000e+00	4.000000e+00	4.000000e+00	4.000000e+00	4.000000e+00	4.000000e+00	4.000000e+00	4.000000e+00	4.000000e+00	4.000000e+00	4.000000e+00	4.000000e+00	4.000000e+00	4.000000e+00	4.000000e+00	4.000000e+00	4.000000e+00	3.999910e+00	3.995911e+00	3.949722e+00	3.776176e+00	3.466889e+00	3.088301e+00	2.695045e+00	2.336724e+00	2.185544e+00	2.194537e+00	2.196585e+00	2.193903e+00	2.029657e+00	1.036480e+00	1.000035e+00	1.000000e+00	1.000000e+00	1.000000e+00	1.000000e+00	1.000000e+00	1.000000e+00	1.000000e+00	1.000000e+00	1.000000e+00	1.000000e+00	1.000000e+00	1.000000e+00	1.000000e+00	1.000000e+00	1.000000e+00	1.000000e+00	1.000000e+00	1.000000e+00	1.000000e+00	1.000000e+00	1.000000e+00	1.000000e+00	1.000000e+00	1.000000e+00	1.000000e+00	1.000000e+00	1.000000e+00	1.000000e+00	1.000000e+00	1.000000e+00	1.000000e+00	1.000000e+00	1.000000e+00	1.000000e+00	1.000000e+00	1.000000e+00	1.000000e+00	1.000000e+00	1.000000e+00	1.000000e+00	1.000000e+00	1.000000e+00	1.000000e+00	1.000000e+00	
1.000000e+00	4.000000e+00	4.000000e+00	4.000000e+00	4.000000e+00	4.000000e+00	4.000000e+00	4.000000e+00	4.000000e+00	4.000000e+00	4.000000e+00	4.000000e+00	4.000000e+00	4.000000e+00	4.000000e+00	4.000000e+00	4.000000e+00	4.000000e+00	4.000000e+00	4.000000e+00	4.000000e+00	4.000000e+00	4.000000e+00	4.000000e+00	4.000000e+00	4.000000e+00	4.000000e+00	4.000000e+00	4.000000e+00	4.000000e+00	4.000000e+00	4.000000e+00	4.000000e+00	4.000000e+00	4.000000e+00	4.000000e+00	4.000000e+00	4.000000e+00	4.000000e+00	4.000000e+00	3.999999e+00	3.999929e+00	3.997815e+00	3.975354e+00	3.881078e+00	3.684640e+00	3.414419e+00	3.110545e+00	2.799349e+00	2.499882e+00	2.255348e+00	2.190645e+00	2.197502e+00	2.199437e+00	2.199616e+00	2.198291e+00	2.163066e+00	1.312780e+00	1.000672e+00	1.000001e+00	1.000000e+00	1.000000e+00	1.000000e+00	1.000000e+00	1.000000e+00	1.000000e+00	1.000000e+00	1.000000e+00	1.000000e+00	1.000000e+00	1.000000e+00	1.000000e+00	1.000000e+00	1.000000e+00	1.000000e+00	1.000000e+00	1.000000e+00	1.000000e+00	1.000000e+00	1.000000e+00	1.000000e+00	1.000000e+00	1.000000e+00	1.000000e+00	1.000000e+00	1.000000e+00	1.000000e+00	1.000000e+00	1.000000e+00	1.000000e+00	1.000000e+00	1.000000e+00	1.000000e+00	1.000000e+00	1.000000e+00	1.000000e+00	1.000000e+00	1.000000e+00	1.000000e+00	1.000000e+00	1.000000e+00	1.000000e+00	
1.254021e+00	4.000000e+00	4.000000e+00	4.000000e+00	4.000000e+00	4.000000e+00	4.000000e+00	4.000000e+00	4.000000e+00	4.000000e+00	4.000000e+00	4.000000e+00	4.000000e+00	4.000000e+00	4.000000e+00	4.000000e+00	4.000000e+00	4.000000e+00	4.000000e+00	4.000000e+00	4.000000e+00	4.000000e+00	4.000000e+00	4.000000e+00	4.000000e+00	4.000000e+00	4.000000e+00	4.000000e+00	4.000000e+00	4.000000e+00	4.000000e+00	4.000000e+00	4.000000e+00	4.000000e+00	4.000000e+00	4.000000e+00	4.000000e+00	4.000000e+00	3.999998e+00	3.999924e+00	3.998383e+00	3.984399e+00	3.925615e+00	3.793192e+00	3.595582e+00	3.359872e+00	3.107909e+00	2.852979e+00	2.604255e+00	2.375443e+00	2.216123e+00	2.194674e+00	2.199610e+00	2.201200e+00	2.201598e+00	2.201343e+00	2.200476e+00	2.194833e+00	1.943767e+00	1.018946e+00	1.000022e+00	1.000000e+00	1.000000e+00	1.000000e+00	1.000000e+00	1.000000e+00	1.000000e+00	1.000000e+00	1.000000e+00	1.000000e+00	1.000000e+00	1.000000e+00	1.000000e+00	1.000000e+00	1.000000e+00	1.000000e+00	1.000000e+00	1.000000e+00	1.000000e+00	1.000000e+00	1.000000e+00	1.000000e+00	1.000000e+00	1.000000e+00	1.000000e+00	1.000000e+00	1.000000e+00	1.000000e+00	1.000000e+00	1.000000e+00	1.000000e+00	1.000000e+00	1.000000e+00	1.000000e+00	1.000000e+00	1.000000e+00	1.000000e+00	1.000000e+00	1.000000e+00	1.000000e+00	1.000000e+00	1.000000e+00	
1.508025e+00	4.000000e+00	4.000000e+00	4.000000e+00	4.000000e+00	4.000000e+00	4.000000e+00	4.000000e+00	4.000000e+00	4.000000e+00	4.000000e+00	4.000000e+00	4.000000e+00	4.000000e+00	4.000000e+00	4.000000e+00	4.000000e+00	4.000000e+00	4.000000e+00	4.000000e+00	4.000000e+00	4.000000e+00	4.000000e+00	4.000000e+00	4.000000e+00	4.000000e+00	4.000000e+00	4.000000e+00	4.000000e+00	4.000000e+00	4.000000e+00	4.000000e+00	4.000000e+00	4.000000e+00	4.000000e+00	4.000000e+00	3.999998e+00	3.999931e+00	3.998840e+00	3.989906e+00	3.952033e+00	3.860612e+00	3.713393e+00	3.527396e+00	3.320714e+00	3.105582e+00	2.889398e+00	2.677245e+00	2.475098e+00	2.298893e+00	2.201107e+00	2.197538e+00	2.201106e+00	2.202377e+00	2.202782e+00	2.202729e+00	2.202345e+00	2.201719e+00	2.200155e+00	2.161392e+00	1.294065e+00	1.000638e+00	1.000001e+00	1.000000e+00	1.000000e+00	1.000000e+00	1.000000e+00	1.000000e+00	1.000000e+00	1.000000e+00	1.000000e+00	1.000000e+00	1.000000e+00	1.000000e+00	1.000000e+00	1.000000e+00	1.000000e+00	1.000000e+00	1.000000e+00	1.000000e+00	1.000000e+00	1.000000e+00	1.000000e+00	1.000000e+00	1.000000e+00	1.000000e+00	1.000000e+00	1.000000e+00	1.000000e+00	1.000000e+00	1.000000e+00	1.000000e+00	1.000000e+00	1.000000e+00	1.000000e+00	1.000000e+00	1.000000e+00	1.000000e+00	1.000000e+00	1.000000e+00	1.000000e+00	1.000000e+00	
1.762023e+00	4.000000e+00	4.000000e+00	4.000000e+00	4.000000e+00	4.000000e+00	4.000000e+00	4.000000e+00	4.000000e+00	4.000000e+00	4.000000e+00	4.000000e+00	4.000000e+00	4.000000e+00	4.000000e+00	4.000000e+00	4.000000e+00	4.000000e+00	4.000000e+00	4.000000e+00	4.000000e+00	4.000000e+00	4.000000e+00	4.000000e+00	4.000000e+00	4.000000e+00	4.000000e+00	4.000000e+00	4.000000e+00	4.000000e+00	4.000000e+00	4.000000e+00	4.000000e+00	4.000000e+00	3.999998e+00	3.999942e+00	3.999180e+00	3.993370e+00	3.968458e+00	3.904483e+00	3.793769e+00	3.645588e+00	3.474301e+00	3.291215e+00	3.103543e+00	2.915727e+00	2.730849e+00	2.552072e+00	2.385689e+00	2.251797e+00	2.197109e+00	2.199596e+00	2.202219e+00	2.203227e+00	2.203585e+00	2.203594e+00	2.203394e+00	2.203055e+00	2.202510e+00	2.201674e+00	2.195772e+00	1.929749e+00	1.017151e+00	1.000021e+00	1.000000e+00	1.000000e+00	1.000000e+00	1.000000e+00	1.000000e+00	1.000000e+00	1.000000e+00	1.000000e+00	1.000000e+00	1.000000e+00	1.000000e+00	1.000000e+00	1.000000e+00	1.000000e+00	1.000000e+00	1.000000e+00	1.000000e+00	1.000000e+00	1.000000e+00	1.000000e+00	1.000000e+00	1.000000e+00	1.000000e+00	1.000000e+00	1.000000e+00	1.000000e+00	1.000000e+00	1.000000e+00	1.000000e+00	1.000000e+00	1.000000e+00	1.000000e+00	1.000000e+00	1.000000e+00	1.000000e+00	1.000000e+00	1.000000e+00	1.000000e+00	
2.000000e+00	4.000000e+00	4.000000e+00	4.000000e+00	4.000000e+00	4.000000e+00	4.000000e+00	4.000000e+00	4.000000e+00	4.000000e+00	4.000000e+00	4.000000e+00	4.000000e+00	4.000000e+00	4.000000e+00	4.000000e+00	4.000000e+00	4.000000e+00	4.000000e+00	4.000000e+00	4.000000e+00	4.000000e+00	4.000000e+00	4.000000e+00	4.000000e+00	4.000000e+00	4.000000e+00	4.000000e+00	4.000000e+00	4.000000e+00	4.000000e+00	4.000000e+00	3.999999e+00	3.999967e+00	3.999561e+00	3.996411e+00	3.981857e+00	3.940227e+00	3.860122e+00	3.743784e+00	3.601788e+00	3.444691e+00	3.279994e+00	3.112445e+00	2.945027e+00	2.779819e+00	2.618743e+00	2.464806e+00	2.325768e+00	2.225453e+00	2.197303e+00	2.201027e+00	2.203024e+00	2.203835e+00	2.204137e+00	2.204162e+00	2.204051e+00	2.203824e+00	2.203473e+00	2.203009e+00	2.202381e+00	2.200641e+00	2.140758e+00	1.179769e+00	1.000305e+00	1.000000e+00	1.000000e+00	1.000000e+00	1.000000e+00	1.000000e+00	1.000000e+00	1.000000e+00	1.000000e+00	1.000000e+00	1.000000e+00	1.000000e+00	1.000000e+00	1.000000e+00	1.000000e+00	1.000000e+00	1.000000e+00	1.000000e+00	1.000000e+00	1.000000e+00	1.000000e+00	1.000000e+00	1.000000e+00	1.000000e+00	1.000000e+00	1.000000e+00	1.000000e+00	1.000000e+00	1.000000e+00	1.000000e+00	1.000000e+00	1.000000e+00	1.000000e+00	1.000000e+00	1.000000e+00	1.000000e+00	1.000000e+00	1.000000e+00	
2.253995e+00	4.000000e+00	4.000000e+00	4.000000e+00	4.000000e+00	4.000000e+00	4.000000e+00	4.000000e+00	4.000000e+00	4.000000e+00	4.000000e+00	4.000000e+00	4.000000e+00	4.000000e+00	4.000000e+00	4.000000e+00	4.000000e+00	4.000000e+00	4.000000e+00	4.000000e+00	4.000000e+00	4.000000e+00	4.000000e+00	4.000000e+00	4.000000e+00	4.000000e+00	4.000000e+00	4.000000e+00	4.000000e+00	4.000000e+00	3.999999e+00	3.999974e+00	3.999690e+00	3.997592e+00	3.987834e+00	3.958590e+00	3.898588e+00	3.806091e+00	3.687989e+00	3.553243e+00	3.409031e+00	3.260177e+00	3.109751e+00	2.959734e+00	2.811530e+00	2.666387e+00	2.525977e+00	2.393827e+00	2.279902e+00	2.210044e+00	2.198757e+00	2.202185e+00	2.203702e+00	2.204344e+00	2.204588e+00	2.204619e+00	2.204554e+00	2.204388e+00	2.204144e+00	2.203834e+00	2.203447e+00	2.202956e+00	2.202194e+00	2.193672e+00	1.815297e+00	1.008345e+00	1.000010e+00	1.000000e+00	1.000000e+00	1.000000e+00	1.000000e+00	1.000000e+00	1.000000e+00	1.000000e+00	1.000000e+00	1.000000e+00	1.000000e+00	1.000000e+00	1.000000e+00	1.000000e+00	1.000000e+00	1.000000e+00	1.000000e+00	1.000000e+00	1.000000e+00	1.000000e+00	1.000000e+00	1.000000e+00	1.000000e+00	1.000000e+00	1.000000e+00	1.000000e+00	1.000000e+00	1.000000e+00	1.000000e+00	1.000000e+00	1.000000e+00	1.000000e+00	1.000000e+00	1.000000e+00	1.000000e+00	1.000000e+00	
2.507990e+00	4.000000e+00	4.000000e+00	4.000000e+00	4.000000e+00	4.000000e+00	4.000000e+00	4.000000e+00	4.000000e+00	4.000000e+00	4.000000e+00	4.000000e+00	4.000000e+00	4.000000e+00	4.000000e+00	4.000000e+00	4.000000e+00	4.000000e+00	4.000000e+00	4.000000e+00	4.000000e+00	4.000000e+00	4.000000e+00	4.000000e+00	4.000000e+00	4.000000e+00	4.000000e+00	4.000000e+00	3.999999e+00	3.999980e+00	3.999782e+00	3.998374e+00	3.991783e+00	3.971183e+00	3.926309e+00	3.852937e+00	3.754770e+00	3.639009e+00	3.512327e+00	3.379563e+00	3.243913e+00	3.107441e+00	2.971515e+00	2.837119e+00	2.705109e+00	2.576512e+00	2.453164e+00	2.339539e+00	2.248040e+00	2.202957e+00	2.200325e+00	2.203074e+00	2.204240e+00	2.204748e+00	2.204940e+00	2.204976e+00	2.204929e+00	2.204798e+00	2.204615e+00	2.204389e+00	2.204116e+00	2.203786e+00	2.203375e+00	2.202885e+00	2.201265e+00	2.138070e+00	1.167119e+00	1.000275e+00	1.000000e+00	1.000000e+00	1.000000e+00	1.000000e+00	1.000000e+00	1.000000e+00	1.000000e+00	1.000000e+00	1.000000e+00	1.000000e+00	1.000000e+00	1.000000e+00	1.000000e+00	1.000000e+00	1.000000e+00	1.000000e+00	1.000000e+00	1.000000e+00	1.000000e+00	1.000000e+00	1.000000e+00	1.000000e+00	1.000000e+00	1.000000e+00	1.000000e+00	1.000000e+00	1.000000e+00	1.000000e+00	1.000000e+00	1.000000e+00	1.000000e+00	1.000000e+00	1.000000e+00	1.000000e+00	
2.761986e+00	4.000000e+00	4.000000e+00	4.000000e+00	4.000000e+00	4.000000e+00	4.000000e+00	4.000000e+00	4.000000e+00	4.000000e+00	4.000000e+00	4.000000e+00	4.000000e+00	4.000000e+00	4.000000e+00	4.000000e+00	4.000000e+00	4.000000e+00	4.000000e+00	4.000000e+00	4.000000e+00	4.000000e+00	4.000000e+00	4.000000e+00	4.000000e+00	4.000000e+00	3.999999e+00	3.999985e+00	3.999847e+00	3.998897e+00	3.994419e+00	3.979888e+00	3.946425e+00	3.888467e+00	3.807098e+00	3.707703e+00	3.596264e+00	3.477539e+00	3.354830e+00	3.230317e+00	3.105434e+00	2.981156e+00	2.858197e+00	2.737166e+00	2.618743e+00	2.503990e+00	2.395147e+00	2.297941e+00	2.226881e+00	2.200563e+00	2.201656e+00	2.203768e+00	2.204673e+00	2.205073e+00	2.205224e+00	2.205260e+00	2.205217e+00	2.205110e+00	2.204965e+00	2.204790e+00	2.204583e+00	2.204337e+00	2.204058e+00	2.203739e+00	2.203333e+00	2.202706e+00	2.193889e+00	1.799029e+00	1.007577e+00	1.000009e+00	1.000000e+00	1.000000e+00	1.000000e+00	1.000000e+00	1.000000e+00	1.000000e+00	1.000000e+00	1.000000e+00	1.000000e+00	1.000000e+00	1.000000e+00	1.000000e+00	1.000000e+00	1.000000e+00	1.000000e+00	1.000000e+00	1.000000e+00	1.000000e+00	1.000000e+00	1.000000e+00	1.000000e+00	1.000000e+00	1.000000e+00	1.000000e+00	1.000000e+00	1.000000e+00	1.000000e+00	1.000000e+00	1.000000e+00	1.000000e+00	1.000000e+00	1.000000e+00	
3.000000e+00	4.000000e+00	4.000000e+00	4.000000e+00	4.000000e+00	4.000000e+00	4.000000e+00	4.000000e+00	4.000000e+00	4.000000e+00	4.000000e+00	4.000000e+00	4.000000e+00	4.000000e+00	4.000000e+00	4.000000e+00	4.000000e+00	4.000000e+00	4.000000e+00	4.000000e+00	4.000000e+00	4.000000e+00	4.000000e+00	4.000000e+00	3.999999e+00	3.999992e+00	3.999917e+00	3.999387e+00	3.996763e+00	3.987591e+00	3.964538e+00	3.921094e+00	3.855721e+00	3.771722e+00	3.674256e+00	3.568034e+00	3.456569e+00	3.342268e+00	3.226735e+00	3.111041e+00	2.995931e+00	2.881953e+00	2.769566e+00	2.659249e+00	2.551667e+00	2.448043e+00	2.351168e+00	2.268136e+00	2.214447e+00	2.200415e+00	2.202649e+00	2.204286e+00	2.205005e+00	2.205323e+00	2.205446e+00	2.205476e+00	2.205434e+00	2.205342e+00	2.205221e+00	2.205077e+00	2.204909e+00	2.204713e+00	2.204509e+00	2.204268e+00	2.203980e+00	2.203638e+00	2.203199e+00	2.201145e+00	2.104853e+00	1.094087e+00	1.000132e+00	1.000000e+00	1.000000e+00	1.000000e+00	1.000000e+00	1.000000e+00	1.000000e+00	1.000000e+00	1.000000e+00	1.000000e+00	1.000000e+00	1.000000e+00	1.000000e+00	1.000000e+00	1.000000e+00	1.000000e+00	1.000000e+00	1.000000e+00	1.000000e+00	1.000000e+00	1.000000e+00	1.000000e+00	1.000000e+00	1.000000e+00	1.000000e+00	1.000000e+00	1.000000e+00	1.000000e+00	1.000000e+00	1.000000e+00	1.000000e+00	1.000000e+00	
3.253999e+00	4.000000e+00	4.000000e+00	4.000000e+00	4.000000e+00	4.000000e+00	4.000000e+00	4.000000e+00	4.000000e+00	4.000000e+00	4.000000e+00	4.000000e+00	4.000000e+00	4.000000e+00	4.000000e+00	4.000000e+00	4.000000e+00	4.000000e+00	4.000000e+00	4.000000e+00	4.000000e+00	4.000000e+00	4.000000e+00	3.999994e+00	3.999941e+00	3.999581e+00	3.997788e+00	3.991346e+00	3.974394e+00	3.940684e+00	3.887334e+00	3.815946e+00	3.730621e+00	3.635696e+00	3.534664e+00	3.430025e+00	3.323484e+00	3.216191e+00	3.108931e+00	3.002259e+00	2.896592e+00	2.792276e+00	2.689659e+00	2.589188e+00	2.491598e+00	2.398394e+00	2.313121e+00	2.244361e+00	2.206905e+00	2.201148e+00	2.203481e+00	2.204733e+00	2.205296e+00	2.205545e+00	2.205645e+00	2.205666e+00	2.205622e+00	2.205542e+00	2.205439e+00	2.205318e+00	2.205178e+00	2.205023e+00	2.204866e+00	2.204678e+00	2.204462e+00	2.204216e+00	2.203929e+00	2.203585e+00	2.202962e+00	2.189683e+00	1.658041e+00	1.003695e+00	1.000004e+00	1.000000e+00	1.000000e+00	1.000000e+00	1.000000e+00	1.000000e+00	1.000000e+00	1.000000e+00	1.000000e+00	1.000000e+00	1.000000e+00	1.000000e+00	1.000000e+00	1.000000e+00	1.000000e+00	1.000000e+00	1.000000e+00	1.000000e+00	1.000000e+00	1.000000e+00	1.000000e+00	1.000000e+00	1.000000e+00	1.000000e+00	1.000000e+00	1.000000e+00	1.000000e+00	1.000000e+00	1.000000e+00	1.000000e+00	
3.507999e+00	4.000000e+00	4.000000e+00	4.000000e+00	4.000000e+00	4.000000e+00	4.000000e+00	4.000000e+00	4.000000e+00	4.000000e+00	4.000000e+00	4.000000e+00	4.000000e+00	4.000000e+00	4.000000e+00	4.000000e+00	4.000000e+00	4.000000e+00	4.000000e+00	4.000000e+00	4.000000e+00	3.999996e+00	3.999959e+00	3.999712e+00	3.998484e+00	3.993958e+00	3.981538e+00	3.955545e+00	3.912300e+00	3.851948e+00	3.777488e+00	3.692762e+00	3.601166e+00	3.505261e+00	3.406847e+00	3.307155e+00	3.207031e+00	3.107061e+00	3.007667e+00	2.909173e+00	2.811844e+00	2.715944e+00	2.621785e+00	2.529841e+00	2.440990e+00	2.357116e+00	2.282668e+00	2.227455e+00	2.203333e+00	2.202112e+00	2.204129e+00	2.205095e+00	2.205536e+00	2.205732e+00	2.205813e+00	2.205822e+00	2.205778e+00	2.205706e+00	2.205616e+00	2.205512e+00	2.205392e+00	2.205268e+00	2.205140e+00	2.204987e+00	2.204818e+00	2.204629e+00	2.204416e+00	2.204168e+00	2.203875e+00	2.203525e+00	2.201488e+00	2.100457e+00	1.087372e+00	1.000121e+00	1.000000e+00	1.000000e+00	1.000000e+00	1.000000e+00	1.000000e+00	1.000000e+00	1.000000e+00	1.000000e+00	1.000000e+00	1.000000e+00	1.000000e+00	1.000000e+00	1.000000e+00	1.000000e+00	1.000000e+00	1.000000e+00	1.000000e+00	1.000000e+00	1.000000e+00	1.000000e+00	1.000000e+00	1.000000e+00	1.000000e+00	1.000000e+00	1.000000e+00	1.000000e+00	1.000000e+00	1.000000e+00	
3.762000e+00	4.000000e+00	4.000000e+00	4.000000e+00	4.000000e+00	4.000000e+00	4.000000e+00	4.000000e+00	4.000000e+00	4.000000e+00	4.000000e+00	4.000000e+00	4.000000e+00	4.000000e+00	4.000000e+00	4.000000e+00	4.000000e+00	4.000000e+00	4.000000e+00	3.999997e+00	3.999971e+00	3.999802e+00	3.998958e+00	3.995778e+00	3.986710e+00	3.966798e+00	3.931997e+00	3.881293e+00	3.816592e+00	3.741145e+00	3.658164e+00	3.570228e+00	3.479219e+00	3.386451e+00	3.292833e+00	3.198996e+00	3.105389e+00	3.012339e+00	2.920099e+00	2.828879e+00	2.738880e+00	2.650332e+00	2.563558e+00	2.479101e+00	2.398038e+00	2.322741e+00	2.258648e+00	2.216126e+00	2.202127e+00	2.203016e+00	2.204639e+00	2.205389e+00	2.205735e+00	2.205891e+00	2.205954e+00	2.205952e+00	2.205908e+00	2.205843e+00	2.205763e+00	2.205670e+00	2.205567e+00	2.205467e+00	2.205356e+00	2.205229e+00	2.205091e+00	2.204941e+00	2.204774e+00	2.204581e+00	2.204373e+00	2.204138e+00	2.203847e+00	2.203301e+00	2.189434e+00	1.640695e+00	1.003389e+00	1.000004e+00	1.000000e+00	1.000000e+00	1.000000e+00	1.000000e+00	1.000000e+00	1.000000e+00	1.000000e+00	1.000000e+00	1.000000e+00	1.000000e+00	1.000000e+00	1.000000e+00	1.000000e+00	1.000000e+00	1.000000e+00	1.000000e+00	1.000000e+00	1.000000e+00	1.000000e+00	1.000000e+00	1.000000e+00	1.000000e+00	1.000000e+00	1.000000e+00	1.000000e+00	1.000000e+00	
4.000000e+00	4.000000e+00	4.000000e+00	4.000000e+00	4.000000e+00	4.000000e+00	4.000000e+00	4.000000e+00	4.000000e+00	4.000000e+00	4.000000e+00	4.000000e+00	4.000000e+00	4.000000e+00	4.000000e+00	4.000000e+00	4.000000e+00	3.999998e+00	3.999984e+00	3.999889e+00	3.999396e+00	3.997439e+00	3.991480e+00	3.977402e+00	3.950976e+00	3.910017e+00	3.855163e+00	3.788910e+00	3.714236e+00	3.633765e+00	3.549510e+00	3.462923e+00	3.375019e+00	3.286508e+00	3.197891e+00	3.109528e+00	3.021684e+00	2.934567e+00	2.848349e+00	2.763190e+00	2.679265e+00	2.596800e+00	2.516152e+00	2.437966e+00	2.363560e+00	2.295853e+00	2.241188e+00	2.209474e+00	2.202126e+00	2.203731e+00	2.205022e+00	2.205617e+00	2.205894e+00	2.206020e+00	2.206066e+00	2.206056e+00	2.206012e+00	2.205951e+00	2.205878e+00	2.205793e+00	2.205705e+00	2.205619e+00	2.205521e+00	2.205412e+00	2.205296e+00	2.205171e+00	2.205032e+00	2.204876e+00	2.204719e+00	2.204534e+00	2.204318e+00	2.204069e+00	2.203738e+00	2.200861e+00	2.049293e+00	1.046377e+00	1.000059e+00	1.000000e+00	1.000000e+00	1.000000e+00	1.000000e+00	1.000000e+00	1.000000e+00	1.000000e+00	1.000000e+00	1.000000e+00	1.000000e+00	1.000000e+00	1.000000e+00	1.000000e+00	1.000000e+00	1.000000e+00	1.000000e+00	1.000000e+00	1.000000e+00	1.000000e+00	1.000000e+00	1.000000e+00	1.000000e+00	1.000000e+00	1.000000e+00	1.000000e+00	
4.254005e+00	4.000000e+00	4.000000e+00	4.000000e+00	4.000000e+00	4.000000e+00	4.000000e+00	4.000000e+00	4.000000e+00	4.000000e+00	4.000000e+00	4.000000e+00	4.000000e+00	4.000000e+00	4.000000e+00	3.999999e+00	3.999989e+00	3.999923e+00	3.999583e+00	3.998213e+00	3.993910e+00	3.983315e+00	3.962484e+00	3.928728e+00	3.881779e+00	3.823388e+00	3.756148e+00	3.682576e+00	3.604711e+00	3.524070e+00	3.441739e+00	3.358481e+00	3.274839e+00	3.191198e+00	3.107842e+00	3.024982e+00	2.942786e+00	2.861391e+00	2.780928e+00	2.701530e+00	2.623366e+00	2.546680e+00	2.471887e+00	2.399775e+00	2.331984e+00	2.272096e+00	2.227218e+00	2.205478e+00	2.202649e+00	2.204349e+00	2.205353e+00	2.205819e+00	2.206038e+00	2.206138e+00	2.206169e+00	2.206151e+00	2.206108e+00	2.206051e+00	2.205983e+00	2.205906e+00	2.205831e+00	2.205756e+00	2.205668e+00	2.205574e+00	2.205475e+00	2.205369e+00	2.205252e+00	2.205128e+00	2.205003e+00	2.204854e+00	2.204687e+00	2.204500e+00	2.204286e+00	2.204033e+00	2.203406e+00	2.182192e+00	1.487370e+00	1.001658e+00	1.000002e+00	1.000000e+00	1.000000e+00	1.000000e+00	1.000000e+00	1.000000e+00	1.000000e+00	1.000000e+00	1.000000e+00	1.000000e+00	1.000000e+00	1.000000e+00	1.000000e+00	1.000000e+00	1.000000e+00	1.000000e+00	1.000000e+00	1.000000e+00	1.000000e+00	1.000000e+00	1.000000e+00	1.000000e+00	1.000000e+00	1.000000e+00	
4.508010e+00	4.000000e+00	4.000000e+00	4.000000e+00	4.000000e+00	4.000000e+00	4.000000e+00	4.000000e+00	4.000000e+00	4.000000e+00	4.000000e+00	4.000000e+00	4.000000e+00	3.999999e+00	3.999992e+00	3.999947e+00	3.999712e+00	3.998752e+00	3.995653e+00	3.987723e+00	3.971425e+00	3.943824e+00	3.903919e+00	3.852723e+00	3.792384e+00	3.725246e+00	3.653338e+00	3.578230e+00	3.501071e+00	3.422682e+00	3.343647e+00	3.264385e+00	3.185198e+00	3.106313e+00	3.027899e+00	2.950094e+00	2.873011e+00	2.796753e+00	2.721428e+00	2.647164e+00	2.574135e+00	2.502620e+00	2.433115e+00	2.366589e+00	2.305075e+00	2.252856e+00	2.217349e+00	2.203645e+00	2.203328e+00	2.204841e+00	2.205622e+00	2.205987e+00	2.206161e+00	2.206239e+00	2.206256e+00	2.206233e+00	2.206191e+00	2.206136e+00	2.206072e+00	2.206004e+00	2.205939e+00	2.205870e+00	2.205792e+00	2.205710e+00	2.205624e+00	2.205532e+00	2.205431e+00	2.205332e+00	2.205227e+00	2.205104e+00	2.204971e+00	2.204823e+00	2.204658e+00	2.204468e+00	2.204249e+00	2.203977e+00	2.201032e+00	2.042847e+00	1.043084e+00	1.000054e+00	1.000000e+00	1.000000e+00	1.000000e+00	1.000000e+00	1.000000e+00	1.000000e+00	1.000000e+00	1.000000e+00	1.000000e+00	1.000000e+00	1.000000e+00	1.000000e+00	1.000000e+00	1.000000e+00	1.000000e+00	1.000000e+00	1.000000e+00	1.000000e+00	1.000000e+00	1.000000e+00	1.000000e+00	1.000000e+00	
4.762018e+00	4.000000e+00	4.000000e+00	4.000000e+00	4.000000e+00	4.000000e+00	4.000000e+00	4.000000e+00	4.000000e+00	4.000000e+00	4.000000e+00	3.999999e+00	3.999994e+00	3.999963e+00	3.999801e+00	3.999128e+00	3.996901e+00	3.990996e+00	3.978336e+00	3.955950e+00	3.922283e+00	3.877661e+00	3.823738e+00	3.762629e+00	3.696310e+00	3.626384e+00	3.554057e+00	3.480206e+00	3.405459e+00	3.330270e+00	3.254965e+00	3.179788e+00	3.104919e+00	3.030497e+00	2.956635e+00	2.883427e+00	2.810958e+00	2.739314e+00	2.668594e+00	2.598928e+00	2.530512e+00	2.463671e+00	2.399006e+00	2.337713e+00	2.282281e+00	2.237646e+00	2.210832e+00	2.203113e+00	2.203983e+00	2.205232e+00	2.205840e+00	2.206129e+00	2.206267e+00	2.206325e+00	2.206330e+00	2.206304e+00	2.206262e+00	2.206210e+00	2.206150e+00	2.206090e+00	2.206032e+00	2.205968e+00	2.205897e+00	2.205824e+00	2.205748e+00	2.205667e+00	2.205581e+00	2.205499e+00	2.205408e+00	2.205305e+00	2.205195e+00	2.205075e+00	2.204943e+00	2.204788e+00	2.204633e+00	2.204453e+00	2.204233e+00	2.203652e+00	2.181470e+00	1.470954e+00	1.001531e+00	1.000002e+00	1.000000e+00	1.000000e+00	1.000000e+00	1.000000e+00	1.000000e+00	1.000000e+00	1.000000e+00	1.000000e+00	1.000000e+00	1.000000e+00	1.000000e+00	1.000000e+00	1.000000e+00	1.000000e+00	1.000000e+00	1.000000e+00	1.000000e+00	1.000000e+00	1.000000e+00	1.000000e+00	
5.000000e+00	4.000000e+00	4.000000e+00	4.000000e+00	4.000000e+00	4.000000e+00	4.000000e+00	4.000000e+00	4.000000e+00	4.000000e+00	3.999997e+00	3.999979e+00	3.999885e+00	3.999478e+00	3.998062e+00	3.994087e+00	3.985014e+00	3.967937e+00	3.940770e+00	3.903053e+00	3.855814e+00	3.800859e+00	3.740096e+00	3.675178e+00	3.607400e+00	3.537726e+00	3.466856e+00	3.395297e+00	3.323416e+00	3.251484e+00	3.179700e+00	3.108217e+00	3.037152e+00	2.966601e+00	2.896644e+00	2.827354e+00	2.758800e+00	2.691062e+00	2.624240e+00	2.558471e+00	2.493980e+00	2.431150e+00	2.370705e+00	2.314096e+00	2.264281e+00	2.226656e+00	2.207091e+00	2.203244e+00	2.204514e+00	2.205527e+00	2.206010e+00	2.206242e+00	2.206353e+00	2.206395e+00	2.206391e+00	2.206363e+00	2.206321e+00	2.206270e+00	2.206214e+00	2.206161e+00	2.206107e+00	2.206047e+00	2.205983e+00	2.205917e+00	2.205848e+00	2.205775e+00	2.205701e+00	2.205630e+00	2.205549e+00	2.205461e+00	2.205367e+00	2.205266e+00	2.205153e+00	2.205027e+00	2.204907e+00	2.204761e+00	2.204594e+00	2.204403e+00	2.204124e+00	2.199746e+00	1.967865e+00	1.022057e+00	1.000026e+00	1.000000e+00	1.000000e+00	1.000000e+00	1.000000e+00	1.000000e+00	1.000000e+00	1.000000e+00	1.000000e+00	1.000000e+00	1.000000e+00	1.000000e+00	1.000000e+00	1.000000e+00	1.000000e+00	1.000000e+00	1.000000e+00	1.000000e+00	1.000000e+00	1.000000e+00	
5.254010e+00	4.000000e+00	4.000000e+00	4.000000e+00	4.000000e+00	4.000000e+00	4.000000e+00	4.000000e+00	3.999998e+00	3.999986e+00	3.999920e+00	3.999635e+00	3.998625e+00	3.995703e+00	3.988783e+00	3.975216e+00	3.952751e+00	3.920435e+00	3.878772e+00	3.829210e+00	3.773502e+00	3.713269e+00	3.649838e+00	3.584220e+00	3.517163e+00	3.449211e+00	3.380763e+00	3.312109e+00	3.243467e+00	3.174998e+00	3.106828e+00	3.039054e+00	2.971757e+00	2.905004e+00	2.838856e+00	2.773370e+00	2.708612e+00	2.644657e+00	2.581610e+00	2.519630e+00	2.458975e+00	2.400110e+00	2.343918e+00	2.292169e+00	2.248334e+00	2.217977e+00	2.204925e+00	2.203679e+00	2.204984e+00	2.205782e+00	2.206162e+00	2.206346e+00	2.206432e+00	2.206458e+00	2.206448e+00	2.206418e+00	2.206376e+00	2.206327e+00	2.206276e+00	2.206228e+00	2.206177e+00	2.206121e+00	2.206063e+00	2.206003e+00	2.205940e+00	2.205875e+00	2.205813e+00	2.205749e+00	2.205677e+00	2.205601e+00	2.205520e+00	2.205434e+00	2.205336e+00	2.205237e+00	2.205139e+00	2.205019e+00	2.204886e+00	2.204738e+00	2.204572e+00	2.204374e+00	2.203620e+00	2.169598e+00	1.327022e+00	1.000751e+00	1.000001e+00	1.000000e+00	1.000000e+00	1.000000e+00	1.000000e+00	1.000000e+00	1.000000e+00	1.000000e+00	1.000000e+00	1.000000e+00	1.000000e+00	1.000000e+00	1.000000e+00	1.000000e+00	1.000000e+00	1.000000e+00	1.000000e+00	1.000000e+00	
5.508020e+00	4.000000e+00	4.000000e+00	4.000000e+00	4.000000e+00	4.000000e+00	3.999998e+00	3.999990e+00	3.999944e+00	3.999745e+00	3.999025e+00	3.996885e+00	3.991638e+00	3.980941e+00	3.962516e+00	3.935036e+00	3.898516e+00	3.854026e+00	3.803113e+00	3.747338e+00	3.688037e+00	3.626263e+00	3.562808e+00	3.498257e+00	3.433038e+00	3.367466e+00	3.301776e+00	3.236142e+00	3.170698e+00	3.105548e+00	3.040774e+00	2.976443e+00	2.912611e+00	2.849332e+00	2.786653e+00	2.724626e+00	2.663314e+00	2.602795e+00	2.543187e+00	2.484669e+00	2.427550e+00	2.372391e+00	2.320272e+00	2.273321e+00	2.235471e+00	2.211968e+00	2.204015e+00	2.204199e+00	2.205363e+00	2.205988e+00	2.206289e+00	2.206435e+00	2.206500e+00	2.206514e+00	2.206498e+00	2.206466e+00	2.206425e+00	2.206378e+00	2.206331e+00	2.206287e+00	2.206238e+00	2.206186e+00	2.206133e+00	2.206078e+00	2.206020e+00	2.205962e+00	2.205909e+00	2.205851e+00	2.205787e+00	2.205720e+00	2.205649e+00	2.205573e+00	2.205489e+00	2.205410e+00	2.205325e+00	2.205225e+00	2.205116e+00	2.204997e+00	2.204866e+00	2.204712e+00	2.204545e+00	2.204307e+00	2.199773e+00	1.959012e+00	1.020518e+00	1.000024e+00	1.000000e+00	1.000000e+00	1.000000e+00	1.000000e+00	1.000000e+00	1.000000e+00	1.000000e+00	1.000000e+00	1.000000e+00	1.000000e+00	1.000000e+00	1.000000e+00	1.000000e+00	1.000000e+00	1.000000e+00	1.000000e+00	
5.762032e+00	4.000000e+00	4.000000e+00	4.000000e+00	3.999999e+00	3.999993e+00	3.999961e+00	3.999822e+00	3.999310e+00	3.997747e+00	3.993791e+00	3.985418e+00	3.970427e+00	3.947241e+00	3.915443e+00	3.875713e+00	3.829356e+00	3.777835e+00	3.722477e+00	3.664364e+00	3.604330e+00	3.542998e+00	3.480830e+00	3.418165e+00	3.355257e+00	3.292295e+00	3.229423e+00	3.166750e+00	3.104364e+00	3.042334e+00	2.980718e+00	2.919562e+00	2.858913e+00	2.798810e+00	2.739297e+00	2.680425e+00	2.622255e+00	2.564874e+00	2.508413e+00	2.453085e+00	2.399257e+00	2.347611e+00	2.299454e+00	2.257304e+00	2.225411e+00	2.208109e+00	2.203852e+00	2.204696e+00	2.205667e+00	2.206158e+00	2.206395e+00	2.206511e+00	2.206557e+00	2.206561e+00	2.206541e+00	2.206508e+00	2.206467e+00	2.206423e+00	2.206381e+00	2.206339e+00	2.206293e+00	2.206244e+00	2.206194e+00	2.206143e+00	2.206090e+00	2.206040e+00	2.205992e+00	2.205939e+00	2.205881e+00	2.205822e+00	2.205759e+00	2.205691e+00	2.205620e+00	2.205555e+00	2.205480e+00	2.205395e+00	2.205304e+00	2.205205e+00	2.205096e+00	2.204968e+00	2.204851e+00	2.204708e+00	2.204533e+00	2.203803e+00	2.168282e+00	1.313531e+00	1.000697e+00	1.000001e+00	1.000000e+00	1.000000e+00	1.000000e+00	1.000000e+00	1.000000e+00	1.000000e+00	1.000000e+00	1.000000e+00	1.000000e+00	1.000000e+00	1.000000e+00	1.000000e+00	1.000000e+00	1.000000e+00	
6.000000e+00	4.000000e+00	3.999999e+00	3.999996e+00	3.999978e+00	3.999894e+00	3.999576e+00	3.998561e+00	3.995855e+00	3.989808e+00	3.978364e+00	3.959726e+00	3.933004e+00	3.898392e+00	3.856876e+00	3.809782e+00	3.758422e+00	3.703923e+00	3.647182e+00	3.588881e+00	3.529532e+00	3.469513e+00	3.409107e+00	3.348524e+00	3.287924e+00	3.227429e+00	3.167134e+00	3.107114e+00	3.047429e+00	2.988128e+00	2.929255e+00	2.870847e+00	2.812940e+00	2.755572e+00	2.698781e+00	2.642620e+00	2.587153e+00	2.532477e+00	2.478741e+00	2.426193e+00	2.375271e+00	2.326789e+00	2.282302e+00	2.244685e+00	2.218261e+00	2.205977e+00	2.204055e+00	2.205102e+00	2.205898e+00	2.206289e+00	2.206481e+00	2.206572e+00	2.206604e+00	2.206600e+00	2.206577e+00	2.206544e+00	2.206503e+00	2.206462e+00	2.206423e+00	2.206382e+00	2.206338e+00	2.206292e+00	2.206246e+00	2.206198e+00	2.206150e+00	2.206105e+00	2.206060e+00	2.206011e+00	2.205959e+00	2.205905e+00	2.205848e+00	2.205786e+00	2.205727e+00	2.205670e+00	2.205602e+00	2.205528e+00	2.205450e+00	2.205366e+00	2.205271e+00	2.205166e+00	2.205074e+00	2.204954e+00	2.204820e+00	2.204669e+00	2.204400e+00	2.197510e+00	1.855785e+00	1.010304e+00	1.000012e+00	1.000000e+00	1.000000e+00	1.000000e+00	1.000000e+00	1.000000e+00	1.000000e+00	1.000000e+00	1.000000e+00	1.000000e+00	1.000000e+00	1.000000e+00	1.000000e+00	1.000000e+00	
6.254014e+00	3.999997e+00	3.999984e+00	3.999926e+00	3.999700e+00	3.998965e+00	3.996953e+00	3.992301e+00	3.983174e+00	3.967758e+00	3.944904e+00	3.914445e+00	3.877066e+00	3.833913e+00	3.786227e+00	3.735135e+00	3.681558e+00	3.626215e+00	3.569651e+00	3.512273e+00	3.454385e+00	3.396214e+00	3.337934e+00	3.279675e+00	3.221539e+00	3.163606e+00	3.105940e+00	3.048591e+00	2.991602e+00	2.935011e+00	2.878850e+00	2.823150e+00	2.767942e+00	2.713260e+00	2.659145e+00	2.605647e+00	2.552841e+00	2.500836e+00	2.449804e+00	2.400042e+00	2.352077e+00	2.306888e+00	2.266321e+00	2.233587e+00	2.212736e+00	2.204821e+00	2.204433e+00	2.205465e+00	2.206098e+00	2.206407e+00	2.206559e+00	2.206628e+00	2.206647e+00	2.206637e+00	2.206612e+00	2.206577e+00	2.206538e+00	2.206500e+00	2.206463e+00	2.206424e+00	2.206381e+00	2.206338e+00	2.206295e+00	2.206250e+00	2.206207e+00	2.206167e+00	2.206125e+00	2.206079e+00	2.206032e+00	2.205983e+00	2.205931e+00	2.205876e+00	2.205826e+00	2.205774e+00	2.205714e+00	2.205650e+00	2.205582e+00	2.205509e+00	2.205425e+00	2.205345e+00	2.205266e+00	2.205166e+00	2.205057e+00	2.204937e+00	2.204804e+00	2.204640e+00	2.203614e+00	2.149316e+00	1.198259e+00	1.000343e+00	1.000000e+00	1.000000e+00	1.000000e+00	1.000000e+00	1.000000e+00	1.000000e+00	1.000000e+00	1.000000e+00	1.000000e+00	1.000000e+00	1.000000e+00	1.000000e+00	
6.508029e+00	3.999948e+00	3.999788e+00	3.999258e+00	3.997766e+00	3.994210e+00	3.986983e+00	3.974333e+00	3.954937e+00	3.928313e+00	3.894839e+00	3.855456e+00	3.811308e+00	3.763499e+00	3.712968e+00	3.660464e+00	3.606565e+00	3.551706e+00	3.496214e+00	3.440336e+00	3.384258e+00	3.328121e+00	3.272034e+00	3.216083e+00	3.160335e+00	3.104845e+00	3.049656e+00	2.994806e+00	2.940326e+00	2.886245e+00	2.832590e+00	2.779387e+00	2.726664e+00	2.674456e+00	2.622803e+00	2.571762e+00	2.521415e+00	2.471887e+00	2.423382e+00	2.376253e+00	2.331133e+00	2.289198e+00	2.252595e+00	2.224751e+00	2.209019e+00	2.204417e+00	2.204848e+00	2.205761e+00	2.206261e+00	2.206505e+00	2.206625e+00	2.206675e+00	2.206684e+00	2.206670e+00	2.206642e+00	2.206607e+00	2.206570e+00	2.206535e+00	2.206499e+00	2.206461e+00	2.206420e+00	2.206380e+00	2.206339e+00	2.206297e+00	2.206258e+00	2.206222e+00	2.206182e+00	2.206140e+00	2.206096e+00	2.206051e+00	2.206003e+00	2.205956e+00	2.205913e+00	2.205865e+00	2.205811e+00	2.205754e+00	2.205695e+00	2.205629e+00	2.205557e+00	2.205494e+00	2.205423e+00	2.205339e+00	2.205248e+00	2.205150e+00	2.205042e+00	2.204912e+00	2.204785e+00	2.204543e+00	2.197384e+00	1.844430e+00	1.009603e+00	1.000011e+00	1.000000e+00	1.000000e+00	1.000000e+00	1.000000e+00	1.000000e+00	1.000000e+00	1.000000e+00	1.000000e+00	1.000000e+00	1.000000e+00	
6.762045e+00	3.999468e+00	3.998367e+00	3.995662e+00	3.989981e+00	3.979682e+00	3.963347e+00	3.940238e+00	3.910436e+00	3.874656e+00	3.833918e+00	3.789281e+00	3.741692e+00	3.691923e+00	3.640584e+00	3.588137e+00	3.534936e+00	3.481243e+00	3.427261e+00	3.373141e+00	3.319003e+00	3.264937e+00	3.211015e+00	3.157294e+00	3.103822e+00	3.050636e+00	2.997769e+00	2.945248e+00	2.893098e+00	2.841342e+00	2.790004e+00	2.739108e+00	2.688680e+00	2.638756e+00	2.589379e+00	2.540612e+00	2.492548e+00	2.445332e+00	2.399207e+00	2.354592e+00	2.312247e+00	2.273567e+00	2.240993e+00	2.217967e+00	2.206722e+00	2.204449e+00	2.205236e+00	2.206000e+00	2.206394e+00	2.206588e+00	2.206681e+00	2.206716e+00	2.206716e+00	2.206698e+00	2.206669e+00	2.206635e+00	2.206599e+00	2.206566e+00	2.206531e+00	2.206494e+00	2.206456e+00	2.206417e+00	2.206378e+00	2.206340e+00	2.206305e+00	2.206271e+00	2.206233e+00	2.206194e+00	2.206154e+00	2.206112e+00	2.206068e+00	2.206027e+00	2.205989e+00	2.205944e+00	2.205895e+00	2.205845e+00	2.205792e+00	2.205732e+00	2.205672e+00	2.205620e+00	2.205556e+00	2.205483e+00	2.205407e+00	2.205324e+00	2.205232e+00	2.205122e+00	2.205034e+00	2.204917e+00	2.204769e+00	2.203744e+00	2.147178e+00	1.188720e+00	1.000319e+00	1.000000e+00	1.000000e+00	1.000000e+00	1.000000e+00	1.000000e+00	1.000000e+00	1.000000e+00	1.000000e+00	1.000000e+00	
7.000000e+00	3.997071e+00	3.992948e+00	3.985094e+00	3.972031e+00	3.952748e+00	3.926972e+00	3.895126e+00	3.858059e+00	3.816768e+00	3.772203e+00	3.725177e+00	3.676342e+00	3.626206e+00	3.575156e+00	3.523486e+00	3.471418e+00	3.419122e+00	3.366729e+00	3.314341e+00	3.262035e+00	3.209875e+00	3.157911e+00	3.106185e+00	3.054729e+00	3.003574e+00	2.952742e+00	2.902257e+00	2.852139e+00	2.802408e+00	2.753086e+00	2.704194e+00	2.655762e+00	2.607824e+00	2.560430e+00	2.513647e+00	2.467583e+00	2.422406e+00	2.378400e+00	2.336060e+00	2.296283e+00	2.260687e+00	2.231939e+00	2.213253e+00	2.205522e+00	2.204679e+00	2.205553e+00	2.206182e+00	2.206498e+00	2.206654e+00	2.206726e+00	2.206749e+00	2.206743e+00	2.206722e+00	2.206692e+00	2.206658e+00	2.206625e+00	2.206593e+00	2.206559e+00	2.206522e+00	2.206486e+00	2.206449e+00	2.206412e+00	2.206377e+00	2.206345e+00	2.206312e+00	2.206276e+00	2.206240e+00	2.206202e+00	2.206163e+00	2.206123e+00	2.206088e+00	2.206052e+00	2.206010e+00	2.205966e+00	2.205920e+00	2.205871e+00	2.205816e+00	2.205768e+00	2.205721e+00	2.205662e+00	2.205599e+00	2.205532e+00	2.205461e+00	2.205378e+00	2.205291e+00	2.205218e+00	2.205118e+00	2.205008e+00	2.204884e+00	2.204587e+00	2.193609e+00	1.713612e+00	1.004779e+00	1.000005e+00	1.000000e+00	1.000000e+00	1.000000e+00	1.000000e+00	1.000000e+00	1.000000e+00	1.000000e+00	
7.254017e+00	3.988363e+00	3.977573e+00	3.961133e+00	3.938539e+00	3.909966e+00	3.876089e+00	3.837808e+00	3.796043e+00	3.751613e+00	3.705193e+00	3.657317e+00	3.608398e+00	3.558751e+00	3.508614e+00	3.458172e+00	3.407564e+00	3.356901e+00	3.306266e+00	3.255726e+00	3.205337e+00	3.155140e+00	3.105171e+00	3.055460e+00	3.006033e+00	2.956909e+00	2.908111e+00	2.859654e+00	2.811557e+00	2.763838e+00	2.716517e+00	2.669617e+00	2.623167e+00	2.577204e+00	2.531783e+00	2.486983e+00	2.442926e+00	2.399811e+00	2.357973e+00	2.318005e+00	2.280969e+00	2.248725e+00	2.224086e+00	2.209710e+00	2.204941e+00	2.205008e+00	2.205838e+00	2.206341e+00	2.206591e+00	2.206713e+00	2.206767e+00	2.206779e+00	2.206768e+00	2.206744e+00	2.206713e+00	2.206681e+00	2.206650e+00	2.206618e+00	2.206585e+00	2.206550e+00	2.206515e+00	2.206480e+00	2.206445e+00	2.206414e+00	2.206384e+00	2.206352e+00	2.206318e+00	2.206284e+00	2.206249e+00	2.206212e+00	2.206177e+00	2.206146e+00	2.206111e+00	2.206072e+00	2.206032e+00	2.205990e+00	2.205945e+00	2.205897e+00	2.205857e+00	2.205814e+00	2.205761e+00	2.205706e+00	2.205647e+00	2.205584e+00	2.205510e+00	2.205445e+00	2.205380e+00	2.205295e+00	2.205204e+00	2.205105e+00	2.204996e+00	2.204850e+00	2.203344e+00	2.117540e+00	1.109698e+00	1.000157e+00	1.000000e+00	1.000000e+00	1.000000e+00	1.000000e+00	1.000000e+00	1.000000e+00	
7.508036e+00	3.968207e+00	3.948538e+00	3.923053e+00	3.892234e+00	3.856869e+00	3.817827e+00	3.775922e+00	3.731848e+00	3.686162e+00	3.639300e+00	3.591600e+00	3.543319e+00	3.494653e+00	3.445754e+00	3.396740e+00	3.347701e+00	3.298710e+00	3.249825e+00	3.201090e+00	3.152544e+00	3.104218e+00	3.056137e+00	3.008324e+00	2.960798e+00	2.913576e+00	2.866674e+00	2.820108e+00	2.773892e+00	2.728045e+00	2.682586e+00	2.637538e+00	2.592933e+00	2.548812e+00	2.505235e+00	2.462294e+00	2.420131e+00	2.378979e+00	2.339238e+00	2.301610e+00	2.267344e+00	2.238523e+00	2.217950e+00	2.207413e+00	2.204815e+00	2.205346e+00	2.206071e+00	2.206470e+00	2.206668e+00	2.206764e+00	2.206801e+00	2.206805e+00	2.206789e+00	2.206764e+00	2.206733e+00	2.206702e+00	2.206672e+00	2.206642e+00	2.206609e+00	2.206575e+00	2.206542e+00	2.206508e+00	2.206476e+00	2.206447e+00	2.206419e+00	2.206388e+00	2.206356e+00	2.206324e+00	2.206290e+00	2.206256e+00	2.206226e+00	2.206197e+00	2.206164e+00	2.206128e+00	2.206091e+00	2.206053e+00	2.206010e+00	2.205970e+00	2.205936e+00	2.205894e+00	2.205847e+00	2.205798e+00	2.205746e+00	2.205688e+00	2.205625e+00	2.205576e+00	2.205515e+00	2.205442e+00	2.205365e+00	2.205282e+00	2.205192e+00	2.205079e+00	2.204983e+00	2.204701e+00	2.193289e+00	1.700277e+00	1.004463e+00	1.000005e+00	1.000000e+00	1.000000e+00	1.000000e+00	1.000000e+00	
7.762055e+00	3.934546e+00	3.906651e+00	3.874106e+00	3.837715e+00	3.798274e+00	3.756484e+00	3.712926e+00	3.668058e+00	3.622239e+00	3.575744e+00	3.528785e+00	3.481526e+00	3.434092e+00	3.386582e+00	3.339073e+00	3.291626e+00	3.244291e+00	3.197108e+00	3.150108e+00	3.103320e+00	3.056766e+00	3.010466e+00	2.964435e+00	2.918691e+00	2.873247e+00	2.828116e+00	2.783313e+00	2.738852e+00	2.694750e+00	2.651026e+00	2.607706e+00	2.564824e+00	2.522425e+00	2.480579e+00	2.439390e+00	2.399024e+00	2.359757e+00	2.322063e+00	2.286773e+00	2.255329e+00	2.229994e+00	2.213348e+00	2.206064e+00	2.204944e+00	2.205655e+00	2.206260e+00	2.206577e+00	2.206733e+00	2.206806e+00	2.206830e+00	2.206827e+00	2.206808e+00	2.206781e+00	2.206751e+00	2.206722e+00	2.206693e+00	2.206663e+00	2.206631e+00	2.206598e+00	2.206566e+00	2.206534e+00	2.206505e+00	2.206478e+00	2.206450e+00	2.206421e+00	2.206391e+00	2.206360e+00	2.206328e+00	2.206298e+00	2.206271e+00	2.206243e+00	2.206212e+00	2.206179e+00	2.206145e+00	2.206108e+00	2.206070e+00	2.206037e+00	2.206005e+00	2.205966e+00	2.205923e+00	2.205879e+00	2.205832e+00	2.205779e+00	2.205728e+00	2.205686e+00	2.205630e+00	2.205567e+00	2.205501e+00	2.205430e+00	2.205351e+00	2.205256e+00	2.205189e+00	2.205090e+00	2.204959e+00	2.203422e+00	2.114244e+00	1.103837e+00	1.000147e+00	1.000000e+00	1.000000e+00	1.000000e+00	
8.000000e+00	3.892756e+00	3.859245e+00	3.822425e+00	3.783010e+00	3.741609e+00	3.698716e+00	3.654722e+00	3.609929e+00	3.564572e+00	3.518829e+00	3.472841e+00	3.426717e+00	3.380542e+00	3.334382e+00	3.288293e+00	3.242317e+00	3.196490e+00	3.150841e+00	3.105394e+00	3.060170e+00	3.015185e+00	2.970457e+00	2.925998e+00	2.881821e+00	2.837938e+00	2.794362e+00	2.751106e+00	2.708183e+00	2.665610e+00	2.623409e+00	2.581606e+00	2.540238e+00	2.499357e+00	2.459040e+00	2.419408e+00	2.380653e+00	2.343098e+00	2.307297e+00	2.274215e+00	2.245478e+00	2.223436e+00	2.210237e+00	2.205417e+00	2.205175e+00	2.205905e+00	2.206405e+00	2.206659e+00	2.206784e+00	2.206839e+00	2.206854e+00	2.206845e+00	2.206824e+00	2.206797e+00	2.206767e+00	2.206739e+00	2.206711e+00	2.206681e+00	2.206649e+00	2.206618e+00	2.206587e+00	2.206557e+00	2.206530e+00	2.206504e+00	2.206477e+00	2.206449e+00	2.206420e+00	2.206391e+00	2.206361e+00	2.206334e+00	2.206309e+00	2.206282e+00	2.206252e+00	2.206221e+00	2.206189e+00	2.206155e+00	2.206121e+00	2.206092e+00	2.206062e+00	2.206025e+00	2.205986e+00	2.205946e+00	2.205903e+00	2.205854e+00	2.205814e+00	2.205775e+00	2.205723e+00	2.205668e+00	2.205610e+00	2.205548e+00	2.205474e+00	2.205403e+00	2.205343e+00	2.205258e+00	2.205166e+00	2.205062e+00	2.204688e+00	2.187145e+00	1.551381e+00	1.002213e+00	1.000003e+00	1.000000e+00	
8.254020e+00	3.841100e+00	3.803893e+00	3.764540e+00	3.723555e+00	3.681350e+00	3.638245e+00	3.594490e+00	3.550280e+00	3.505764e+00	3.461059e+00	3.416256e+00	3.371429e+00	3.326634e+00	3.281918e+00	3.237319e+00	3.192867e+00	3.148589e+00	3.104504e+00	3.060633e+00	3.016989e+00	2.973587e+00	2.930440e+00	2.887559e+00	2.844954e+00	2.802636e+00	2.760617e+00	2.718909e+00	2.677527e+00	2.636487e+00	2.595811e+00	2.555530e+00	2.515683e+00	2.476331e+00	2.437561e+00	2.399515e+00	2.362417e+00	2.326648e+00	2.292861e+00	2.262179e+00	2.236402e+00	2.217850e+00	2.207976e+00	2.205165e+00	2.205458e+00	2.206130e+00	2.206531e+00	2.206733e+00	2.206830e+00	2.206869e+00	2.206875e+00	2.206862e+00	2.206839e+00	2.206811e+00	2.206783e+00	2.206756e+00	2.206728e+00	2.206698e+00	2.206668e+00	2.206638e+00	2.206608e+00	2.206580e+00	2.206555e+00	2.206530e+00	2.206504e+00	2.206477e+00	2.206449e+00	2.206421e+00	2.206394e+00	2.206369e+00	2.206346e+00	2.206320e+00	2.206292e+00	2.206263e+00	2.206232e+00	2.206200e+00	2.206171e+00	2.206146e+00	2.206116e+00	2.206082e+00	2.206047e+00	2.206010e+00	2.205969e+00	2.205928e+00	2.205895e+00	2.205857e+00	2.205810e+00	2.205762e+00	2.205711e+00	2.205655e+00	2.205589e+00	2.205537e+00	2.205481e+00	2.205408e+00	2.205330e+00	2.205247e+00	2.205155e+00	2.205015e+00	2.202710e+00	2.069126e+00	1.056540e+00	1.000072e+00	
8.508041e+00	3.785821e+00	3.746702e+00	3.706240e+00	3.664776e+00	3.622576e+00	3.579848e+00	3.536751e+00	3.493413e+00	3.449932e+00	3.406384e+00	3.362833e+00	3.319328e+00	3.275908e+00	3.232607e+00	3.189451e+00	3.146463e+00	3.103662e+00	3.061065e+00	3.018684e+00	2.976533e+00	2.934622e+00	2.892962e+00	2.851562e+00	2.810432e+00	2.769583e+00	2.729024e+00	2.688768e+00	2.648830e+00	2.609227e+00	2.569984e+00	2.531133e+00	2.492721e+00	2.454814e+00	2.417515e+00	2.380987e+00	2.345496e+00	2.311488e+00	2.279731e+00	2.251507e+00	2.228751e+00	2.213585e+00	2.206575e+00	2.205189e+00	2.205735e+00	2.206315e+00	2.206635e+00	2.206794e+00	2.206868e+00	2.206895e+00	2.206893e+00	2.206877e+00	2.206852e+00	2.206825e+00	2.206798e+00	2.206771e+00	2.206743e+00	2.206714e+00	2.206685e+00	2.206655e+00	2.206627e+00	2.206601e+00	2.206578e+00	2.206554e+00	2.206528e+00	2.206502e+00	2.206476e+00	2.206449e+00	2.206424e+00	2.206402e+00	2.206380e+00	2.206355e+00	2.206328e+00	2.206301e+00	2.206272e+00	2.206242e+00	2.206218e+00	2.206194e+00	2.206165e+00	2.206134e+00	2.206101e+00	2.206067e+00	2.206029e+00	2.205995e+00	2.205966e+00	2.205929e+00	2.205888e+00	2.205844e+00	2.205799e+00	2.205746e+00	2.205691e+00	2.205652e+00	2.205598e+00	2.205535e+00	2.205468e+00	2.205398e+00	2.205320e+00	2.205220e+00	2.205148e+00	2.204778e+00	2.186553e+00	1.537414e+00	
8.762063e+00	3.729518e+00	3.689653e+00	3.648964e+00	3.607672e+00	3.565950e+00	3.523931e+00	3.481723e+00	3.439409e+00	3.397054e+00	3.354713e+00	3.312427e+00	3.270232e+00	3.228156e+00	3.186224e+00	3.144454e+00	3.102864e+00	3.061468e+00	3.020280e+00	2.979308e+00	2.938565e+00	2.898059e+00	2.857798e+00	2.817791e+00	2.778048e+00	2.738577e+00	2.699389e+00	2.660497e+00	2.621916e+00	2.583665e+00	2.545771e+00	2.508269e+00	2.471212e+00	2.434678e+00	2.398784e+00	2.363720e+00	2.329799e+00	2.297545e+00	2.267850e+00	2.242156e+00	2.222453e+00	2.210472e+00	2.205809e+00	2.205359e+00	2.205983e+00	2.206466e+00	2.206720e+00	2.206845e+00	2.206900e+00	2.206916e+00	2.206909e+00	2.206889e+00	2.206864e+00	2.206837e+00	2.206811e+00	2.206785e+00	2.206757e+00	2.206729e+00	2.206700e+00	2.206672e+00	2.206645e+00	2.206621e+00	2.206599e+00	2.206575e+00	2.206551e+00	2.206526e+00	2.206500e+00	2.206475e+00	2.206453e+00	2.206432e+00	2.206410e+00	2.206386e+00	2.206361e+00	2.206335e+00	2.206307e+00	2.206282e+00	2.206260e+00	2.206237e+00	2.206209e+00	2.206180e+00	2.206150e+00	2.206117e+00	2.206083e+00	2.206056e+00	2.206029e+00	2.205994e+00	2.205956e+00	2.205917e+00	2.205875e+00	2.205826e+00	2.205784e+00	2.205749e+00	2.205698e+00	2.205644e+00	2.205586e+00	2.205525e+00	2.205454e+00	2.205373e+00	2.205322e+00	2.205236e+00	2.205110e+00	2.202728e+00	
9.000000e+00	3.677269e+00	3.637360e+00	3.596940e+00	3.556156e+00	3.515126e+00	3.473941e+00	3.432674e+00	3.391383e+00	3.350115e+00	3.308909e+00	3.267795e+00	3.226798e+00	3.185941e+00	3.145241e+00	3.104713e+00	3.064372e+00	3.024227e+00	2.984289e+00	2.944567e+00	2.905071e+00	2.865806e+00	2.826782e+00	2.788006e+00	2.749487e+00	2.711233e+00	2.673256e+00	2.635569e+00	2.598186e+00	2.561131e+00	2.524431e+00	2.488126e+00	2.452276e+00	2.416969e+00	2.382340e+00	2.348609e+00	2.316138e+00	2.285536e+00	2.257818e+00	2.234556e+00	2.217697e+00	2.208435e+00	2.205491e+00	2.205575e+00	2.206183e+00	2.206582e+00	2.206786e+00	2.206885e+00	2.206925e+00	2.206932e+00	2.206921e+00	2.206900e+00	2.206874e+00	2.206848e+00	2.206823e+00	2.206797e+00	2.206769e+00	2.206741e+00	2.206714e+00	2.206687e+00	2.206662e+00	2.206639e+00	2.206617e+00	2.206594e+00	2.206570e+00	2.206546e+00	2.206522e+00	2.206498e+00	2.206478e+00	2.206458e+00	2.206437e+00	2.206414e+00	2.206389e+00	2.206364e+00	2.206339e+00	2.206316e+00	2.206296e+00	2.206273e+00	2.206247e+00	2.206220e+00	2.206191e+00	2.206160e+00	2.206131e+00	2.206107e+00	2.206081e+00	2.206048e+00	2.206013e+00	2.205978e+00	2.205938e+00	2.205894e+00	2.205862e+00	2.205827e+00	2.205781e+00	2.205732e+00	2.205682e+00	2.205627e+00	2.205560e+00	2.205502e+00	2.205453e+00	2.205379e+00	2.205300e+00	2.205209e+00	
9.254023e+00	3.622871e+00	3.583335e+00	3.543504e+00	3.503476e+00	3.463329e+00	3.423126e+00	3.382916e+00	3.342742e+00	3.302634e+00	3.262622e+00	3.222727e+00	3.182968e+00	3.143362e+00	3.103922e+00	3.064660e+00	3.025585e+00	2.986708e+00	2.948037e+00	2.909578e+00	2.871340e+00	2.833328e+00	2.795551e+00	2.758016e+00	2.720730e+00	2.683703e+00	2.646947e+00	2.610473e+00	2.574301e+00	2.538453e+00	2.502962e+00	2.467872e+00	2.433250e+00	2.399199e+00	2.365876e+00	2.333537e+00	2.302606e+00	2.273792e+00	2.248245e+00	2.227636e+00	2.213734e+00	2.207013e+00	2.205426e+00	2.205817e+00	2.206363e+00	2.206683e+00	2.206844e+00	2.206920e+00	2.206947e+00	2.206948e+00	2.206933e+00	2.206910e+00	2.206885e+00	2.206859e+00	2.206834e+00	2.206808e+00	2.206781e+00	2.206754e+00	2.206727e+00	2.206701e+00	2.206678e+00	2.206657e+00	2.206635e+00	2.206612e+00	2.206589e+00	2.206566e+00	2.206543e+00	2.206522e+00	2.206503e+00	2.206484e+00	2.206463e+00	2.206440e+00	2.206417e+00	2.206393e+00	2.206370e+00	2.206350e+00	2.206331e+00	2.206309e+00	2.206284e+00	2.206259e+00	2.206231e+00	2.206202e+00	2.206178e+00	2.206157e+00	2.206131e+00	2.206100e+00	2.206069e+00	2.206035e+00	2.205997e+00	2.205962e+00	2.205935e+00	2.205901e+00	2.205859e+00	2.205816e+00	2.205771e+00	2.205720e+00	2.205661e+00	2.205621e+00	2.205571e+00	2.205507e+00	2.205440e+00	2.205369e+00	
9.508046e+00	3.570372e+00	3.531464e+00	3.492401e+00	3.453249e+00	3.414061e+00	3.374882e+00	3.335746e+00	3.296683e+00	3.257716e+00	3.218865e+00	3.180148e+00	3.141579e+00	3.103169e+00	3.064930e+00	3.026871e+00	2.988999e+00	2.951323e+00	2.913849e+00	2.876585e+00	2.839535e+00	2.802707e+00	2.766106e+00	2.729741e+00	2.693620e+00	2.657751e+00	2.622146e+00	2.586820e+00	2.551792e+00	2.517087e+00	2.482742e+00	2.448808e+00	2.415361e+00	2.382517e+00	2.350463e+00	2.319496e+00	2.290111e+00	2.263125e+00	2.239816e+00	2.221891e+00	2.210786e+00	2.206184e+00	2.205525e+00	2.206044e+00	2.206510e+00	2.206766e+00	2.206893e+00	2.206949e+00	2.206966e+00	2.206960e+00	2.206943e+00	2.206919e+00	2.206894e+00	2.206869e+00	2.206844e+00	2.206819e+00	2.206792e+00	2.206765e+00	2.206740e+00	2.206715e+00	2.206693e+00	2.206673e+00	2.206652e+00	2.206630e+00	2.206607e+00	2.206585e+00	2.206563e+00	2.206544e+00	2.206526e+00	2.206507e+00	2.206487e+00	2.206465e+00	2.206443e+00	2.206420e+00	2.206399e+00	2.206382e+00	2.206363e+00	2.206342e+00	2.206318e+00	2.206294e+00	2.206268e+00	2.206242e+00	2.206222e+00	2.206201e+00	2.206176e+00	2.206147e+00	2.206118e+00	2.206087e+00	2.206052e+00	2.206023e+00	2.205999e+00	2.205966e+00	2.205928e+00	2.205890e+00	2.205849e+00	2.205801e+00	2.205753e+00	2.205721e+00	2.205673e+00	2.205618e+00	2.205560e+00	2.205499e+00	
9.762069e+00	3.519998e+00	3.481863e+00	3.443663e+00	3.405445e+00	3.367247e+00	3.329100e+00	3.291029e+00	3.253056e+00	3.215197e+00	3.177469e+00	3.139883e+00	3.102452e+00	3.065184e+00	3.028088e+00	2.991171e+00	2.954441e+00	2.917903e+00	2.881563e+00	2.845427e+00	2.809501e+00	2.773791e+00	2.738303e+00	2.703044e+00	2.668022e+00	2.633248e+00	2.598732e+00	2.564492e+00	2.530548e+00	2.496928e+00	2.463674e+00	2.430843e+00	2.398523e+00	2.366849e+00	2.336035e+00	2.306431e+00	2.278611e+00	2.253505e+00	2.232501e+00	2.217248e+00	2.208701e+00	2.205777e+00	2.205706e+00	2.206245e+00	2.206631e+00	2.206834e+00	2.206932e+00	2.206973e+00	2.206981e+00	2.206971e+00	2.206951e+00	2.206927e+00	2.206903e+00	2.206879e+00	2.206854e+00	2.206828e+00	2.206802e+00	2.206776e+00	2.206751e+00	2.206729e+00	2.206708e+00	2.206688e+00	2.206667e+00	2.206645e+00	2.206624e+00	2.206602e+00	2.206582e+00	2.206564e+00	2.206547e+00	2.206529e+00	2.206509e+00	2.206488e+00	2.206467e+00	2.206445e+00	2.206427e+00	2.206411e+00	2.206393e+00	2.206372e+00	2.206349e+00	2.206326e+00	2.206301e+00	2.206279e+00	2.206262e+00	2.206241e+00	2.206217e+00	2.206190e+00	2.206163e+00	2.206133e+00	2.206102e+00	2.206080e+00	2.206056e+00	2.206024e+00	2.205990e+00	2.205955e+00	2.205917e+00	2.205872e+00	2.205838e+00	2.205807e+00	2.205762e+00	2.205713e+00	2.205663e+00	2.205609e+00	
1.000000e+01	3.474812e+00	3.437469e+00	3.400120e+00	3.362797e+00	3.325529e+00	3.288339e+00	3.251244e+00	3.214263e+00	3.177408e+00	3.140691e+00	3.104122e+00	3.067709e+00	3.031462e+00	2.995385e+00	2.959487e+00	2.923772e+00	2.888246e+00	2.852914e+00	2.817782e+00	2.782854e+00	2.748136e+00	2.713635e+00	2.679358e+00	2.645313e+00	2.611511e+00	2.577964e+00	2.544690e+00	2.511711e+00	2.479060e+00	2.446781e+00	2.414941e+00	2.383640e+00	2.353032e+00	2.323365e+00	2.295040e+00	2.268714e+00	2.245425e+00	2.226628e+00	2.213817e+00	2.207388e+00	2.205653e+00	2.205900e+00	2.206406e+00	2.206724e+00	2.206887e+00	2.206963e+00	2.206992e+00	2.206993e+00	2.206979e+00	2.206958e+00	2.206934e+00	2.206910e+00	2.206886e+00	2.206862e+00	2.206836e+00	2.206811e+00	2.206786e+00	2.206762e+00	2.206740e+00	2.206720e+00	2.206701e+00	2.206680e+00	2.206659e+00	2.206638e+00	2.206618e+00	2.206599e+00	2.206582e+00	2.206566e+00	2.206548e+00	2.206528e+00	2.206508e+00	2.206487e+00	2.206468e+00	2.206452e+00	2.206436e+00	2.206418e+00	2.206398e+00	2.206376e+00	2.206354e+00	2.206331e+00	2.206312e+00	2.206296e+00	2.206275e+00	2.206252e+00	2.206227e+00	2.206201e+00	2.206172e+00	2.206147e+00	2.206128e+00	2.206103e+00	2.206074e+00	2.206043e+00	2.206010e+00	2.205973e+00	2.205934e+00	2.205908e+00	2.205877e+00	2.205836e+00	2.205792e+00	2.205747e+00	2.205698e+00	
