time	0	1	2	3	4	5	6	7	8	9	10	11	12	13	14	15	16	17	18	19	20	21	22	23	24	25	26	27	28	29	30	31	32	33	34	35	36	37	38	39	40	41	42	43	44	45	46	47	48	49	50	51	52	53	54	55	56	57	58	59	60	61	62	63	64	65	66	67	68	69	70	71	72	73	74	75	76	77	78	79	80	81	82	83	84	85	86	87	88	89	90	91	92	93	94	95	96	97	98	99	100	
0	0.000000e+00	0.000000e+00	0.000000e+00	0.000000e+00	0.000000e+00	0.000000e+00	0.000000e+00	0.000000e+00	0.000000e+00	0.000000e+00	0.000000e+00	0.000000e+00	0.000000e+00	0.000000e+00	0.000000e+00	0.000000e+00	0.000000e+00	0.000000e+00	0.000000e+00	0.000000e+00	0.000000e+00	0.000000e+00	0.000000e+00	0.000000e+00	0.000000e+00	0.000000e+00	0.000000e+00	0.000000e+00	0.000000e+00	0.000000e+00	0.000000e+00	0.000000e+00	0.000000e+00	0.000000e+00	0.000000e+00	0.000000e+00	0.000000e+00	0.000000e+00	0.000000e+00	0.000000e+00	0.000000e+00	0.000000e+00	0.000000e+00	0.000000e+00	0.000000e+00	0.000000e+00	0.000000e+00	0.000000e+00	0.000000e+00	0.000000e+00	0.000000e+00	0.000000e+00	0.000000e+00	0.000000e+00	0.000000e+00	0.000000e+00	0.000000e+00	0.000000e+00	0.000000e+00	0.000000e+00	0.000000e+00	0.000000e+00	0.000000e+00	0.000000e+00	0.000000e+00	0.000000e+00	0.000000e+00	0.000000e+00	0.000000e+00	0.000000e+00	0.000000e+00	0.000000e+00	0.000000e+00	0.000000e+00	0.000000e+00	0.000000e+00	0.000000e+00	0.000000e+00	0.000000e+00	0.000000e+00	0.000000e+00	0.000000e+00	0.000000e+00	0.000000e+00	0.000000e+00	0.000000e+00	0.000000e+00	0.000000e+00	0.000000e+00	0.000000e+00	0.000000e+00	0.000000e+00	0.000000e+00	0.000000e+00	0.000000e+00	0.000000e+00	0.000000e+00	0.000000e+00	0.000000e+00	0.000000e+00	0.000000e+00	
5.079474e-01	0.000000e+00	0.000000e+00	0.000000e+00	0.000000e+00	0.000000e+00	0.000000e+00	0.000000e+00	0.000000e+00	0.000000e+00	0.000000e+00	0.000000e+00	0.000000e+00	0.000000e+00	0.000000e+00	0.000000e+00	0.000000e+00	0.000000e+00	0.000000e+00	0.000000e+00	0.000000e+00	0.000000e+00	0.000000e+00	0.000000e+00	0.000000e+00	0.000000e+00	0.000000e+00	0.000000e+00	0.000000e+00	0.000000e+00	0.000000e+00	0.000000e+00	0.000000e+00	0.000000e+00	0.000000e+00	0.000000e+00	0.000000e+00	0.000000e+00	0.000000e+00	0.000000e+00	0.000000e+00	0.000000e+00	0.000000e+00	0.000000e+00	7.466145e-08	1.981093e-04	2.958881e-02	5.463247e-01	2.354994e+00	4.683650e+00	6.424731e+00	7.076917e+00	7.041948e+00	6.890660e+00	2.039417e+00	2.880482e-03	7.790968e-07	3.265459e-11	0.000000e+00	0.000000e+00	0.000000e+00	0.000000e+00	0.000000e+00	0.000000e+00	0.000000e+00	0.000000e+00	0.000000e+00	0.000000e+00	0.000000e+00	0.000000e+00	0.000000e+00	0.000000e+00	0.000000e+00	0.000000e+00	0.000000e+00	0.000000e+00	0.000000e+00	0.000000e+00	0.000000e+00	0.000000e+00	0.000000e+00	0.000000e+00	0.000000e+00	0.000000e+00	0.000000e+00	0.000000e+00	0.000000e+00	0.000000e+00	0.000000e+00	0.000000e+00	0.000000e+00	0.000000e+00	0.000000e+00	0.000000e+00	0.000000e+00	0.000000e+00	0.000000e+00	0.000000e+00	0.000000e+00	0.000000e+00	0.000000e+00	0.000000e+00	
7.620683e-01	0.000000e+00	0.000000e+00	0.000000e+00	0.000000e+00	0.000000e+00	0.000000e+00	0.000000e+00	0.000000e+00	0.000000e+00	0.000000e+00	0.000000e+00	0.000000e+00	0.000000e+00	0.000000e+00	0.000000e+00	0.000000e+00	0.000000e+00	0.000000e+00	0.000000e+00	0.000000e+00	0.000000e+00	0.000000e+00	0.000000e+00	0.000000e+00	0.000000e+00	0.000000e+00	0.000000e+00	0.000000e+00	0.000000e+00	0.000000e+00	0.000000e+00	0.000000e+00	0.000000e+00	0.000000e+00	0.000000e+00	0.000000e+00	0.000000e+00	0.000000e+00	0.000000e+00	0.000000e+00	2.038529e-09	2.698663e-06	5.617311e-04	2.558447e-02	3.115390e-01	1.338346e+00	2.983356e+00	4.665913e+00	6.008739e+00	6.851334e+00	7.089131e+00	7.067733e+00	7.051453e+00	7.016392e+00	5.762163e+00	1.205482e-01	1.080918e-04	5.170836e-08	8.127711e-12	0.000000e+00	0.000000e+00	0.000000e+00	0.000000e+00	0.000000e+00	0.000000e+00	0.000000e+00	0.000000e+00	0.000000e+00	0.000000e+00	0.000000e+00	0.000000e+00	0.000000e+00	0.000000e+00	0.000000e+00	0.000000e+00	0.000000e+00	0.000000e+00	0.000000e+00	0.000000e+00	0.000000e+00	0.000000e+00	0.000000e+00	0.000000e+00	0.000000e+00	0.000000e+00	0.000000e+00	0.000000e+00	0.000000e+00	0.000000e+00	0.000000e+00	0.000000e+00	0.000000e+00	0.000000e+00	0.000000e+00	0.000000e+00	0.000000e+00	0.000000e+00	0.000000e+00	0.000000e+00	0.000000e+00	0.000000e+00	
1.000000e+00	0.000000e+00	0.000000e+00	0.000000e+00	0.000000e+00	0.000000e+00	0.000000e+00	0.000000e+00	0.000000e+00	0.000000e+00	0.000000e+00	0.000000e+00	0.000000e+00	0.000000e+00	0.000000e+00	0.000000e+00	0.000000e+00	0.000000e+00	0.000000e+00	0.000000e+00	0.000000e+00	0.000000e+00	0.000000e+00	0.000000e+00	0.000000e+00	0.000000e+00	0.000000e+00	0.000000e+00	0.000000e+00	0.000000e+00	0.000000e+00	0.000000e+00	0.000000e+00	0.000000e+00	0.000000e+00	0.000000e+00	0.000000e+00	0.000000e+00	1.106872e-11	1.545195e-08	4.838889e-06	4.454975e-04	1.368027e-02	1.535570e-01	7.268856e-01	1.851375e+00	3.241932e+00	4.583089e+00	5.702074e+00	6.523754e+00	6.999743e+00	7.092536e+00	7.077794e+00	7.068286e+00	7.058483e+00	7.042435e+00	6.764941e+00	1.306686e+00	2.107181e-03	1.918466e-06	1.115537e-09	0.000000e+00	0.000000e+00	0.000000e+00	0.000000e+00	0.000000e+00	0.000000e+00	0.000000e+00	0.000000e+00	0.000000e+00	0.000000e+00	0.000000e+00	0.000000e+00	0.000000e+00	0.000000e+00	0.000000e+00	0.000000e+00	0.000000e+00	0.000000e+00	0.000000e+00	0.000000e+00	0.000000e+00	0.000000e+00	0.000000e+00	0.000000e+00	0.000000e+00	0.000000e+00	0.000000e+00	0.000000e+00	0.000000e+00	0.000000e+00	0.000000e+00	0.000000e+00	0.000000e+00	0.000000e+00	0.000000e+00	0.000000e+00	0.000000e+00	0.000000e+00	0.000000e+00	0.000000e+00	0.000000e+00	
1.254021e+00	0.000000e+00	0.000000e+00	0.000000e+00	0.000000e+00	0.000000e+00	0.000000e+00	0.000000e+00	0.000000e+00	0.000000e+00	0.000000e+00	0.000000e+00	0.000000e+00	0.000000e+00	0.000000e+00	0.000000e+00	0.000000e+00	0.000000e+00	0.000000e+00	0.000000e+00	0.000000e+00	0.000000e+00	0.000000e+00	0.000000e+00	0.000000e+00	0.000000e+00	0.000000e+00	0.000000e+00	0.000000e+00	0.000000e+00	0.000000e+00	0.000000e+00	0.000000e+00	0.000000e+00	0.000000e+00	0.000000e+00	2.312212e-10	7.715400e-08	9.503110e-06	4.735638e-04	1.012199e-02	9.739131e-02	4.588766e-01	1.242189e+00	2.331185e+00	3.502780e+00	4.597468e+00	5.533170e+00	6.272655e+00	6.795149e+00	7.065858e+00	7.094029e+00	7.083780e+00	7.077462e+00	7.071718e+00	7.065173e+00	7.056162e+00	7.010487e+00	5.135502e+00	6.106756e-02	6.903681e-05	6.701034e-08	4.622042e-11	0.000000e+00	0.000000e+00	0.000000e+00	0.000000e+00	0.000000e+00	0.000000e+00	0.000000e+00	0.000000e+00	0.000000e+00	0.000000e+00	0.000000e+00	0.000000e+00	0.000000e+00	0.000000e+00	0.000000e+00	0.000000e+00	0.000000e+00	0.000000e+00	0.000000e+00	0.000000e+00	0.000000e+00	0.000000e+00	0.000000e+00	0.000000e+00	0.000000e+00	0.000000e+00	0.000000e+00	0.000000e+00	0.000000e+00	0.000000e+00	0.000000e+00	0.000000e+00	0.000000e+00	0.000000e+00	0.000000e+00	0.000000e+00	0.000000e+00	0.000000e+00	0.000000e+00	
1.508025e+00	0.000000e+00	0.000000e+00	0.000000e+00	0.000000e+00	0.000000e+00	0.000000e+00	0.000000e+00	0.000000e+00	0.000000e+00	0.000000e+00	0.000000e+00	0.000000e+00	0.000000e+00	0.000000e+00	0.000000e+00	0.000000e+00	0.000000e+00	0.000000e+00	0.000000e+00	0.000000e+00	0.000000e+00	0.000000e+00	0.000000e+00	0.000000e+00	0.000000e+00	0.000000e+00	0.000000e+00	0.000000e+00	0.000000e+00	0.000000e+00	0.000000e+00	0.000000e+00	2.386297e-12	1.226468e-09	1.842115e-07	1.279725e-05	4.309022e-04	7.263760e-03	6.308551e-02	2.975109e-01	8.489162e-01	1.694069e+00	2.685619e+00	3.685572e+00	4.609394e+00	5.413657e+00	6.077779e+00	6.590995e+00	6.939674e+00	7.091811e+00	7.094917e+00	7.087560e+00	7.083020e+00	7.079139e+00	7.075115e+00	7.070406e+00	7.064181e+00	7.051475e+00	6.749229e+00	1.213718e+00	1.998779e-03	2.254103e-06	2.286661e-09	0.000000e+00	0.000000e+00	0.000000e+00	0.000000e+00	0.000000e+00	0.000000e+00	0.000000e+00	0.000000e+00	0.000000e+00	0.000000e+00	0.000000e+00	0.000000e+00	0.000000e+00	0.000000e+00	0.000000e+00	0.000000e+00	0.000000e+00	0.000000e+00	0.000000e+00	0.000000e+00	0.000000e+00	0.000000e+00	0.000000e+00	0.000000e+00	0.000000e+00	0.000000e+00	0.000000e+00	0.000000e+00	0.000000e+00	0.000000e+00	0.000000e+00	0.000000e+00	0.000000e+00	0.000000e+00	0.000000e+00	0.000000e+00	0.000000e+00	0.000000e+00	
1.762023e+00	0.000000e+00	0.000000e+00	0.000000e+00	0.000000e+00	0.000000e+00	0.000000e+00	0.000000e+00	0.000000e+00	0.000000e+00	0.000000e+00	0.000000e+00	0.000000e+00	0.000000e+00	0.000000e+00	0.000000e+00	0.000000e+00	0.000000e+00	0.000000e+00	0.000000e+00	0.000000e+00	0.000000e+00	0.000000e+00	0.000000e+00	0.000000e+00	0.000000e+00	0.000000e+00	0.000000e+00	0.000000e+00	0.000000e+00	0.000000e+00	1.842099e-11	3.383993e-09	2.996037e-07	1.407109e-05	3.604011e-04	5.135659e-03	4.146767e-02	1.962939e-01	5.869185e-01	1.239445e+00	2.066014e+00	2.953790e+00	3.820802e+00	4.619457e+00	5.324843e+00	5.924682e+00	6.412694e+00	6.782931e+00	7.020255e+00	7.100636e+00	7.095626e+00	7.090189e+00	7.086776e+00	7.083955e+00	7.081196e+00	7.078149e+00	7.074485e+00	7.069912e+00	7.063276e+00	7.017036e+00	5.036299e+00	5.513682e-02	6.469597e-05	7.343980e-08	7.563060e-11	0.000000e+00	0.000000e+00	0.000000e+00	0.000000e+00	0.000000e+00	0.000000e+00	0.000000e+00	0.000000e+00	0.000000e+00	0.000000e+00	0.000000e+00	0.000000e+00	0.000000e+00	0.000000e+00	0.000000e+00	0.000000e+00	0.000000e+00	0.000000e+00	0.000000e+00	0.000000e+00	0.000000e+00	0.000000e+00	0.000000e+00	0.000000e+00	0.000000e+00	0.000000e+00	0.000000e+00	0.000000e+00	0.000000e+00	0.000000e+00	0.000000e+00	0.000000e+00	0.000000e+00	0.000000e+00	0.000000e+00	0.000000e+00	
2.000000e+00	0.000000e+00	0.000000e+00	0.000000e+00	0.000000e+00	0.000000e+00	0.000000e+00	0.000000e+00	0.000000e+00	0.000000e+00	0.000000e+00	0.000000e+00	0.000000e+00	0.000000e+00	0.000000e+00	0.000000e+00	0.000000e+00	0.000000e+00	0.000000e+00	0.000000e+00	0.000000e+00	0.000000e+00	0.000000e+00	0.000000e+00	0.000000e+00	0.000000e+00	0.000000e+00	0.000000e+00	0.000000e+00	2.884853e-11	3.548785e-09	2.354430e-07	9.027616e-06	2.039193e-04	2.751911e-03	2.246131e-02	1.132145e-01	3.699210e-01	8.520456e-01	1.524522e+00	2.300449e+00	3.100536e+00	3.872176e+00	4.585012e+00	5.222729e+00	5.776997e+00	6.243601e+00	6.619450e+00	6.898356e+00	7.062862e+00	7.102691e+00	7.096227e+00	7.092037e+00	7.089354e+00	7.087176e+00	7.085120e+00	7.082907e+00	7.080401e+00	7.077450e+00	7.073786e+00	7.068942e+00	7.055410e+00	6.590600e+00	6.854222e-01	9.559588e-04	1.109101e-06	1.258152e-09	0.000000e+00	0.000000e+00	0.000000e+00	0.000000e+00	0.000000e+00	0.000000e+00	0.000000e+00	0.000000e+00	0.000000e+00	0.000000e+00	0.000000e+00	0.000000e+00	0.000000e+00	0.000000e+00	0.000000e+00	0.000000e+00	0.000000e+00	0.000000e+00	0.000000e+00	0.000000e+00	0.000000e+00	0.000000e+00	0.000000e+00	0.000000e+00	0.000000e+00	0.000000e+00	0.000000e+00	0.000000e+00	0.000000e+00	0.000000e+00	0.000000e+00	0.000000e+00	0.000000e+00	0.000000e+00	0.000000e+00	
2.253995e+00	0.000000e+00	0.000000e+00	0.000000e+00	0.000000e+00	0.000000e+00	0.000000e+00	0.000000e+00	0.000000e+00	0.000000e+00	0.000000e+00	0.000000e+00	0.000000e+00	0.000000e+00	0.000000e+00	0.000000e+00	0.000000e+00	0.000000e+00	0.000000e+00	0.000000e+00	0.000000e+00	0.000000e+00	0.000000e+00	0.000000e+00	0.000000e+00	0.000000e+00	0.000000e+00	6.817401e-11	5.590972e-09	2.745074e-07	8.358260e-06	1.599034e-04	1.940957e-03	1.507662e-02	7.600606e-02	2.572216e-01	6.225204e-01	1.168596e+00	1.835604e+00	2.554747e+00	3.274173e+00	3.961229e+00	4.597011e+00	5.171111e+00	5.678053e+00	6.115049e+00	6.480327e+00	6.771130e+00	6.979540e+00	7.087378e+00	7.102652e+00	7.096824e+00	7.093589e+00	7.091472e+00	7.089774e+00	7.088199e+00	7.086538e+00	7.084746e+00	7.082708e+00	7.080298e+00	7.077366e+00	7.073668e+00	7.067984e+00	7.001137e+00	4.250353e+00	2.647750e-02	3.093841e-05	3.589739e-08	3.938133e-11	0.000000e+00	0.000000e+00	0.000000e+00	0.000000e+00	0.000000e+00	0.000000e+00	0.000000e+00	0.000000e+00	0.000000e+00	0.000000e+00	0.000000e+00	0.000000e+00	0.000000e+00	0.000000e+00	0.000000e+00	0.000000e+00	0.000000e+00	0.000000e+00	0.000000e+00	0.000000e+00	0.000000e+00	0.000000e+00	0.000000e+00	0.000000e+00	0.000000e+00	0.000000e+00	0.000000e+00	0.000000e+00	0.000000e+00	0.000000e+00	0.000000e+00	0.000000e+00	0.000000e+00	
2.507990e+00	0.000000e+00	0.000000e+00	0.000000e+00	0.000000e+00	0.000000e+00	0.000000e+00	0.000000e+00	0.000000e+00	0.000000e+00	0.000000e+00	0.000000e+00	0.000000e+00	0.000000e+00	0.000000e+00	0.000000e+00	0.000000e+00	0.000000e+00	0.000000e+00	0.000000e+00	0.000000e+00	0.000000e+00	0.000000e+00	0.000000e+00	0.000000e+00	1.219380e-10	7.399861e-09	2.870682e-07	7.287557e-06	1.222066e-04	1.363303e-03	1.017992e-02	5.137815e-02	1.794522e-01	4.548618e-01	8.946904e-01	1.462784e+00	2.102488e+00	2.764613e+00	3.415293e+00	4.033590e+00	4.607237e+00	5.129318e+00	5.596107e+00	6.005687e+00	6.356960e+00	6.648587e+00	6.877045e+00	7.032363e+00	7.099075e+00	7.102087e+00	7.097383e+00	7.094842e+00	7.093147e+00	7.091798e+00	7.090545e+00	7.089259e+00	7.087910e+00	7.086411e+00	7.084694e+00	7.082682e+00	7.080278e+00	7.077341e+00	7.073467e+00	7.060945e+00	6.570572e+00	6.306777e-01	8.617021e-04	1.001272e-06	1.160530e-09	0.000000e+00	0.000000e+00	0.000000e+00	0.000000e+00	0.000000e+00	0.000000e+00	0.000000e+00	0.000000e+00	0.000000e+00	0.000000e+00	0.000000e+00	0.000000e+00	0.000000e+00	0.000000e+00	0.000000e+00	0.000000e+00	0.000000e+00	0.000000e+00	0.000000e+00	0.000000e+00	0.000000e+00	0.000000e+00	0.000000e+00	0.000000e+00	0.000000e+00	0.000000e+00	0.000000e+00	0.000000e+00	0.000000e+00	0.000000e+00	0.000000e+00	0.000000e+00	
2.761986e+00	0.000000e+00	0.000000e+00	0.000000e+00	0.000000e+00	0.000000e+00	0.000000e+00	0.000000e+00	0.000000e+00	0.000000e+00	0.000000e+00	0.000000e+00	0.000000e+00	0.000000e+00	0.000000e+00	0.000000e+00	0.000000e+00	0.000000e+00	0.000000e+00	0.000000e+00	0.000000e+00	0.000000e+00	1.044266e-12	1.811463e-10	8.659545e-09	2.778858e-07	6.088602e-06	9.172580e-05	9.551784e-04	6.906659e-03	3.491459e-02	1.254600e-01	3.320165e-01	6.833683e-01	1.162961e+00	1.727013e+00	2.330634e+00	2.939804e+00	3.532072e+00	4.093578e+00	4.616078e+00	5.094824e+00	5.527203e+00	5.911859e+00	6.248072e+00	6.535148e+00	6.771455e+00	6.952249e+00	7.065959e+00	7.103755e+00	7.101587e+00	7.097909e+00	7.095885e+00	7.094513e+00	7.093420e+00	7.092399e+00	7.091382e+00	7.090331e+00	7.089181e+00	7.087890e+00	7.086417e+00	7.084717e+00	7.082699e+00	7.080255e+00	7.077259e+00	7.072517e+00	7.003509e+00	4.142333e+00	2.401208e-02	2.792393e-05	3.241235e-08	3.607191e-11	0.000000e+00	0.000000e+00	0.000000e+00	0.000000e+00	0.000000e+00	0.000000e+00	0.000000e+00	0.000000e+00	0.000000e+00	0.000000e+00	0.000000e+00	0.000000e+00	0.000000e+00	0.000000e+00	0.000000e+00	0.000000e+00	0.000000e+00	0.000000e+00	0.000000e+00	0.000000e+00	0.000000e+00	0.000000e+00	0.000000e+00	0.000000e+00	0.000000e+00	0.000000e+00	0.000000e+00	0.000000e+00	0.000000e+00	0.000000e+00	
3.000000e+00	0.000000e+00	0.000000e+00	0.000000e+00	0.000000e+00	0.000000e+00	0.000000e+00	0.000000e+00	0.000000e+00	0.000000e+00	0.000000e+00	0.000000e+00	0.000000e+00	0.000000e+00	0.000000e+00	0.000000e+00	0.000000e+00	0.000000e+00	0.000000e+00	0.000000e+00	0.000000e+00	1.419204e-10	5.935898e-09	1.718560e-07	3.506553e-06	5.071266e-05	5.220640e-04	3.839051e-03	2.025801e-02	7.752876e-02	2.205494e-01	4.865871e-01	8.783472e-01	1.366570e+00	1.911556e+00	2.478912e+00	3.044052e+00	3.590955e+00	4.109650e+00	4.594106e+00	5.040782e+00	5.447686e+00	5.813775e+00	6.138525e+00	6.421550e+00	6.662081e+00	6.857903e+00	7.002972e+00	7.085314e+00	7.104994e+00	7.101286e+00	7.098374e+00	7.096722e+00	7.095588e+00	7.094672e+00	7.093819e+00	7.092990e+00	7.092138e+00	7.091216e+00	7.090196e+00	7.089052e+00	7.087760e+00	7.086244e+00	7.084484e+00	7.082410e+00	7.079900e+00	7.076616e+00	7.060623e+00	6.317952e+00	3.321690e-01	4.148372e-04	4.801159e-07	5.555552e-10	0.000000e+00	0.000000e+00	0.000000e+00	0.000000e+00	0.000000e+00	0.000000e+00	0.000000e+00	0.000000e+00	0.000000e+00	0.000000e+00	0.000000e+00	0.000000e+00	0.000000e+00	0.000000e+00	0.000000e+00	0.000000e+00	0.000000e+00	0.000000e+00	0.000000e+00	0.000000e+00	0.000000e+00	0.000000e+00	0.000000e+00	0.000000e+00	0.000000e+00	0.000000e+00	0.000000e+00	0.000000e+00	0.000000e+00	
3.253999e+00	0.000000e+00	0.000000e+00	0.000000e+00	0.000000e+00	0.000000e+00	0.000000e+00	0.000000e+00	0.000000e+00	0.000000e+00	0.000000e+00	0.000000e+00	0.000000e+00	0.000000e+00	0.000000e+00	0.000000e+00	0.000000e+00	0.000000e+00	1.665123e-12	1.715669e-10	6.063156e-09	1.531948e-07	2.808444e-06	3.752500e-05	3.666581e-04	2.627036e-03	1.384768e-02	5.410722e-02	1.595632e-01	3.672015e-01	6.902137e-01	1.111719e+00	1.599327e+00	2.120911e+00	2.651611e+00	3.174343e+00	3.678037e+00	4.155737e+00	4.603170e+00	5.017784e+00	5.398123e+00	5.743418e+00	6.053299e+00	6.327548e+00	6.565793e+00	6.766955e+00	6.928012e+00	7.041589e+00	7.097129e+00	7.104910e+00	7.101129e+00	7.098842e+00	7.097501e+00	7.096566e+00	7.095797e+00	7.095088e+00	7.094409e+00	7.093714e+00	7.092969e+00	7.092155e+00	7.091258e+00	7.090251e+00	7.089087e+00	7.087777e+00	7.086269e+00	7.084505e+00	7.082410e+00	7.079854e+00	7.075217e+00	6.971051e+00	3.237814e+00	1.163825e-02	1.345840e-05	1.556192e-08	1.666980e-11	0.000000e+00	0.000000e+00	0.000000e+00	0.000000e+00	0.000000e+00	0.000000e+00	0.000000e+00	0.000000e+00	0.000000e+00	0.000000e+00	0.000000e+00	0.000000e+00	0.000000e+00	0.000000e+00	0.000000e+00	0.000000e+00	0.000000e+00	0.000000e+00	0.000000e+00	0.000000e+00	0.000000e+00	0.000000e+00	0.000000e+00	0.000000e+00	0.000000e+00	0.000000e+00	0.000000e+00	
3.507999e+00	0.000000e+00	0.000000e+00	0.000000e+00	0.000000e+00	0.000000e+00	0.000000e+00	0.000000e+00	0.000000e+00	0.000000e+00	0.000000e+00	0.000000e+00	0.000000e+00	0.000000e+00	0.000000e+00	0.000000e+00	2.165830e-12	1.908123e-10	5.852912e-09	1.317242e-07	2.204252e-06	2.752678e-05	2.572230e-04	1.802415e-03	9.494190e-03	3.779469e-02	1.152104e-01	2.760044e-01	5.399243e-01	9.007243e-01	1.333758e+00	1.810117e+00	2.305308e+00	2.801506e+00	3.286680e+00	3.753016e+00	4.195550e+00	4.611185e+00	4.998044e+00	5.355044e+00	5.681610e+00	5.977476e+00	6.242517e+00	6.476559e+00	6.679074e+00	6.848536e+00	6.980996e+00	7.068126e+00	7.103025e+00	7.104379e+00	7.101100e+00	7.099284e+00	7.098187e+00	7.097407e+00	7.096754e+00	7.096163e+00	7.095599e+00	7.095021e+00	7.094408e+00	7.093745e+00	7.093023e+00	7.092211e+00	7.091294e+00	7.090280e+00	7.089130e+00	7.087814e+00	7.086293e+00	7.084518e+00	7.082412e+00	7.079639e+00	7.063765e+00	6.285067e+00	3.062859e-01	3.786100e-04	4.366559e-07	5.031422e-10	0.000000e+00	0.000000e+00	0.000000e+00	0.000000e+00	0.000000e+00	0.000000e+00	0.000000e+00	0.000000e+00	0.000000e+00	0.000000e+00	0.000000e+00	0.000000e+00	0.000000e+00	0.000000e+00	0.000000e+00	0.000000e+00	0.000000e+00	0.000000e+00	0.000000e+00	0.000000e+00	0.000000e+00	0.000000e+00	0.000000e+00	0.000000e+00	0.000000e+00	0.000000e+00	
3.762000e+00	0.000000e+00	0.000000e+00	0.000000e+00	0.000000e+00	0.000000e+00	0.000000e+00	0.000000e+00	0.000000e+00	0.000000e+00	0.000000e+00	0.000000e+00	0.000000e+00	0.000000e+00	3.676554e-12	1.989381e-10	5.404060e-09	1.100864e-07	1.702722e-06	2.005707e-05	1.803227e-04	1.239478e-03	6.525833e-03	2.641736e-02	8.301529e-02	2.065974e-01	4.202838e-01	7.264133e-01	1.108060e+00	1.540314e+00	1.999714e+00	2.468048e+00	2.932486e+00	3.384424e+00	3.818234e+00	4.230299e+00	4.618332e+00	4.980928e+00	5.317269e+00	5.626919e+00	5.909684e+00	6.165495e+00	6.394281e+00	6.595791e+00	6.769245e+00	6.912563e+00	7.020840e+00	7.085570e+00	7.105436e+00	7.103833e+00	7.101158e+00	7.099702e+00	7.098798e+00	7.098139e+00	7.097583e+00	7.097086e+00	7.096611e+00	7.096126e+00	7.095613e+00	7.095064e+00	7.094469e+00	7.093798e+00	7.093061e+00	7.092251e+00	7.091345e+00	7.090323e+00	7.089165e+00	7.087849e+00	7.086311e+00	7.084507e+00	7.082353e+00	7.078174e+00	6.969548e+00	3.131149e+00	1.067155e-02	1.229563e-05	1.416897e-08	1.496406e-11	0.000000e+00	0.000000e+00	0.000000e+00	0.000000e+00	0.000000e+00	0.000000e+00	0.000000e+00	0.000000e+00	0.000000e+00	0.000000e+00	0.000000e+00	0.000000e+00	0.000000e+00	0.000000e+00	0.000000e+00	0.000000e+00	0.000000e+00	0.000000e+00	0.000000e+00	0.000000e+00	0.000000e+00	0.000000e+00	0.000000e+00	0.000000e+00	
4.000000e+00	0.000000e+00	0.000000e+00	0.000000e+00	0.000000e+00	0.000000e+00	0.000000e+00	0.000000e+00	0.000000e+00	0.000000e+00	0.000000e+00	0.000000e+00	1.685800e-12	1.288224e-10	3.294092e-09	6.391177e-08	9.571632e-07	1.109675e-05	9.977646e-05	6.968105e-04	3.784944e-03	1.603023e-02	5.327213e-02	1.409067e-01	3.041123e-01	5.537570e-01	8.817823e-01	1.268307e+00	1.691207e+00	2.131685e+00	2.575742e+00	3.013639e+00	3.438830e+00	3.846995e+00	4.235323e+00	4.602015e+00	4.945951e+00	5.266470e+00	5.563220e+00	5.836043e+00	6.084899e+00	6.309770e+00	6.510556e+00	6.686868e+00	6.837626e+00	6.960161e+00	7.048753e+00	7.095792e+00	7.106021e+00	7.103433e+00	7.101266e+00	7.100073e+00	7.099313e+00	7.098745e+00	7.098267e+00	7.097842e+00	7.097434e+00	7.097016e+00	7.096578e+00	7.096113e+00	7.095605e+00	7.095038e+00	7.094426e+00	7.093756e+00	7.093014e+00	7.092187e+00	7.091263e+00	7.090227e+00	7.089028e+00	7.087667e+00	7.086097e+00	7.084250e+00	7.081754e+00	7.059238e+00	5.902442e+00	1.551135e-01	1.839874e-04	2.115292e-07	2.421665e-10	0.000000e+00	0.000000e+00	0.000000e+00	0.000000e+00	0.000000e+00	0.000000e+00	0.000000e+00	0.000000e+00	0.000000e+00	0.000000e+00	0.000000e+00	0.000000e+00	0.000000e+00	0.000000e+00	0.000000e+00	0.000000e+00	0.000000e+00	0.000000e+00	0.000000e+00	0.000000e+00	0.000000e+00	0.000000e+00	0.000000e+00	
4.254005e+00	0.000000e+00	0.000000e+00	0.000000e+00	0.000000e+00	0.000000e+00	0.000000e+00	0.000000e+00	0.000000e+00	0.000000e+00	1.767177e-12	1.239932e-10	2.885952e-09	5.175346e-08	7.278898e-07	8.049710e-06	7.010828e-05	4.814547e-04	2.609838e-03	1.118727e-02	3.809466e-02	1.041566e-01	2.332498e-01	4.402247e-01	7.235436e-01	1.068522e+00	1.455576e+00	1.866489e+00	2.286917e+00	2.706501e+00	3.118085e+00	3.516843e+00	3.899558e+00	4.264114e+00	4.609141e+00	4.933779e+00	5.237517e+00	5.520081e+00	5.781355e+00	6.021320e+00	6.239989e+00	6.437334e+00	6.613169e+00	6.766916e+00	6.897111e+00	7.000406e+00	7.070491e+00	7.102067e+00	7.105840e+00	7.103143e+00	7.101419e+00	7.100447e+00	7.099810e+00	7.099323e+00	7.098916e+00	7.098553e+00	7.098203e+00	7.097845e+00	7.097471e+00	7.097076e+00	7.096639e+00	7.096161e+00	7.095650e+00	7.095093e+00	7.094481e+00	7.093806e+00	7.093063e+00	7.092232e+00	7.091286e+00	7.090236e+00	7.089044e+00	7.087679e+00	7.086097e+00	7.084203e+00	7.079520e+00	6.913240e+00	2.230228e+00	5.205814e-03	5.979965e-06	6.870093e-09	6.705688e-12	0.000000e+00	0.000000e+00	0.000000e+00	0.000000e+00	0.000000e+00	0.000000e+00	0.000000e+00	0.000000e+00	0.000000e+00	0.000000e+00	0.000000e+00	0.000000e+00	0.000000e+00	0.000000e+00	0.000000e+00	0.000000e+00	0.000000e+00	0.000000e+00	0.000000e+00	0.000000e+00	0.000000e+00	
4.508010e+00	0.000000e+00	0.000000e+00	0.000000e+00	0.000000e+00	0.000000e+00	0.000000e+00	0.000000e+00	1.744782e-12	1.149135e-10	2.464505e-09	4.122237e-08	5.483899e-07	5.816036e-06	4.924128e-05	3.331457e-04	1.802689e-03	7.811971e-03	2.720034e-02	7.670693e-02	1.779735e-01	3.480059e-01	5.906109e-01	8.962575e-01	1.248393e+00	1.629845e+00	2.026197e+00	2.426599e+00	2.823335e+00	3.211087e+00	3.586237e+00	3.946357e+00	4.289828e+00	4.615595e+00	4.922989e+00	5.211609e+00	5.481244e+00	5.731807e+00	5.963292e+00	6.175728e+00	6.369128e+00	6.543414e+00	6.698281e+00	6.832919e+00	6.945422e+00	7.031766e+00	7.085583e+00	7.105167e+00	7.105381e+00	7.102975e+00	7.101598e+00	7.100799e+00	7.100260e+00	7.099842e+00	7.099495e+00	7.099184e+00	7.098880e+00	7.098571e+00	7.098250e+00	7.097908e+00	7.097529e+00	7.097122e+00	7.096690e+00	7.096219e+00	7.095706e+00	7.095145e+00	7.094534e+00	7.093848e+00	7.093086e+00	7.092249e+00	7.091312e+00	7.090256e+00	7.089057e+00	7.087690e+00	7.086100e+00	7.083894e+00	7.060846e+00	5.854926e+00	1.434890e-01	1.694160e-04	1.943652e-07	2.218606e-10	0.000000e+00	0.000000e+00	0.000000e+00	0.000000e+00	0.000000e+00	0.000000e+00	0.000000e+00	0.000000e+00	0.000000e+00	0.000000e+00	0.000000e+00	0.000000e+00	0.000000e+00	0.000000e+00	0.000000e+00	0.000000e+00	0.000000e+00	0.000000e+00	0.000000e+00	0.000000e+00	
4.762018e+00	0.000000e+00	0.000000e+00	0.000000e+00	0.000000e+00	0.000000e+00	1.651699e-12	1.032005e-10	2.060094e-09	3.238592e-08	4.099656e-07	4.188444e-06	3.457607e-05	2.308273e-04	1.247083e-03	5.457857e-03	1.939492e-02	5.629455e-02	1.351077e-01	2.735315e-01	4.794495e-01	7.481775e-01	1.066538e+00	1.418847e+00	1.790924e+00	2.171578e+00	2.552600e+00	2.928197e+00	3.294360e+00	3.648344e+00	3.988287e+00	4.312938e+00	4.621471e+00	4.913362e+00	5.188295e+00	5.446105e+00	5.686726e+00	5.910162e+00	6.116450e+00	6.305624e+00	6.477666e+00	6.632424e+00	6.769446e+00	6.887646e+00	6.984634e+00	7.055798e+00	7.095496e+00	7.106363e+00	7.104909e+00	7.102900e+00	7.101793e+00	7.101131e+00	7.100671e+00	7.100313e+00	7.100016e+00	7.099746e+00	7.099482e+00	7.099214e+00	7.098935e+00	7.098634e+00	7.098304e+00	7.097955e+00	7.097584e+00	7.097182e+00	7.096746e+00	7.096274e+00	7.095759e+00	7.095183e+00	7.094557e+00	7.093874e+00	7.093117e+00	7.092274e+00	7.091333e+00	7.090283e+00	7.089065e+00	7.087674e+00	7.086035e+00	7.081543e+00	6.907924e+00	2.138663e+00	4.807701e-03	5.509777e-06	6.316884e-09	5.507583e-12	0.000000e+00	0.000000e+00	0.000000e+00	0.000000e+00	0.000000e+00	0.000000e+00	0.000000e+00	0.000000e+00	0.000000e+00	0.000000e+00	0.000000e+00	0.000000e+00	0.000000e+00	0.000000e+00	0.000000e+00	0.000000e+00	0.000000e+00	0.000000e+00	
5.000000e+00	0.000000e+00	0.000000e+00	0.000000e+00	0.000000e+00	6.139370e-11	1.200513e-09	1.839301e-08	2.291078e-07	2.326813e-06	1.928801e-05	1.306020e-04	7.227859e-04	3.271647e-03	1.213058e-02	3.698975e-02	9.358569e-02	1.995623e-01	3.667169e-01	5.958549e-01	8.780209e-01	1.199526e+00	1.546509e+00	1.907286e+00	2.272922e+00	2.636935e+00	2.994751e+00	3.343188e+00	3.680050e+00	4.003832e+00	4.313515e+00	4.608421e+00	4.888113e+00	5.152331e+00	5.400933e+00	5.633868e+00	5.851142e+00	6.052793e+00	6.238866e+00	6.409378e+00	6.564268e+00	6.703293e+00	6.825840e+00	6.930528e+00	7.014489e+00	7.072769e+00	7.101248e+00	7.106554e+00	7.104546e+00	7.102892e+00	7.101983e+00	7.101423e+00	7.101026e+00	7.100716e+00	7.100458e+00	7.100221e+00	7.099989e+00	7.099753e+00	7.099506e+00	7.099237e+00	7.098946e+00	7.098642e+00	7.098317e+00	7.097966e+00	7.097588e+00	7.097181e+00	7.096735e+00	7.096242e+00	7.095713e+00	7.095137e+00	7.094505e+00	7.093808e+00	7.093041e+00	7.092192e+00	7.091213e+00	7.090127e+00	7.088897e+00	7.087477e+00	7.085348e+00	7.051009e+00	5.309465e+00	7.141644e-02	8.280523e-05	9.479710e-08	1.072224e-10	0.000000e+00	0.000000e+00	0.000000e+00	0.000000e+00	0.000000e+00	0.000000e+00	0.000000e+00	0.000000e+00	0.000000e+00	0.000000e+00	0.000000e+00	0.000000e+00	0.000000e+00	0.000000e+00	0.000000e+00	0.000000e+00	0.000000e+00	
5.254010e+00	0.000000e+00	0.000000e+00	5.293373e-11	9.782130e-10	1.423500e-08	1.700629e-07	1.673130e-06	1.356880e-05	9.076805e-05	5.010985e-04	2.284242e-03	8.607256e-03	2.688744e-02	7.010083e-02	1.544768e-01	2.932187e-01	4.906829e-01	7.415740e-01	1.034596e+00	1.356894e+00	1.696896e+00	2.045377e+00	2.395450e+00	2.742158e+00	3.081995e+00	3.412510e+00	3.731995e+00	4.039270e+00	4.333531e+00	4.614238e+00	4.881043e+00	5.133736e+00	5.372207e+00	5.596417e+00	5.806377e+00	6.002126e+00	6.183714e+00	6.351175e+00	6.504496e+00	6.643550e+00	6.767986e+00	6.876989e+00	6.968827e+00	7.040136e+00	7.085973e+00	7.104704e+00	7.106306e+00	7.104262e+00	7.102932e+00	7.102190e+00	7.101718e+00	7.101377e+00	7.101112e+00	7.100889e+00	7.100681e+00	7.100477e+00	7.100270e+00	7.100051e+00	7.099811e+00	7.099557e+00	7.099291e+00	7.099007e+00	7.098701e+00	7.098374e+00	7.098022e+00	7.097634e+00	7.097212e+00	7.096763e+00	7.096277e+00	7.095746e+00	7.095167e+00	7.094539e+00	7.093838e+00	7.093048e+00	7.092187e+00	7.091223e+00	7.090135e+00	7.088897e+00	7.087416e+00	7.081729e+00	6.815683e+00	1.377247e+00	2.355419e-03	2.694657e-06	3.082304e-09	1.809764e-12	0.000000e+00	0.000000e+00	0.000000e+00	0.000000e+00	0.000000e+00	0.000000e+00	0.000000e+00	0.000000e+00	0.000000e+00	0.000000e+00	0.000000e+00	0.000000e+00	0.000000e+00	0.000000e+00	0.000000e+00	
5.508020e+00	4.472719e-11	7.859941e-10	1.091790e-08	1.255876e-07	1.200441e-06	9.543628e-06	6.314183e-05	3.478068e-04	1.595716e-03	6.102552e-03	1.949476e-02	5.228586e-02	1.189227e-01	2.330629e-01	4.017827e-01	6.232048e-01	8.886336e-01	1.186540e+00	1.505708e+00	1.836752e+00	2.172443e+00	2.507459e+00	2.837976e+00	3.161283e+00	3.475466e+00	3.779185e+00	4.071506e+00	4.351786e+00	4.619592e+00	4.874645e+00	5.116776e+00	5.345897e+00	5.561981e+00	5.765041e+00	5.955116e+00	6.132257e+00	6.296507e+00	6.447879e+00	6.586317e+00	6.711621e+00	6.823308e+00	6.920333e+00	7.000583e+00	7.060283e+00	7.095055e+00	7.106329e+00	7.105906e+00	7.104077e+00	7.103008e+00	7.102396e+00	7.101996e+00	7.101704e+00	7.101477e+00	7.101282e+00	7.101100e+00	7.100920e+00	7.100737e+00	7.100540e+00	7.100326e+00	7.100102e+00	7.099868e+00	7.099618e+00	7.099350e+00	7.099064e+00	7.098755e+00	7.098415e+00	7.098052e+00	7.097666e+00	7.097249e+00	7.096797e+00	7.096310e+00	7.095783e+00	7.095191e+00	7.094544e+00	7.093842e+00	7.093065e+00	7.092200e+00	7.091231e+00	7.090148e+00	7.088897e+00	7.086939e+00	7.051391e+00	5.246171e+00	6.628452e-02	7.669364e-05	8.768811e-08	9.897532e-11	0.000000e+00	0.000000e+00	0.000000e+00	0.000000e+00	0.000000e+00	0.000000e+00	0.000000e+00	0.000000e+00	0.000000e+00	0.000000e+00	0.000000e+00	0.000000e+00	0.000000e+00	0.000000e+00	
5.762032e+00	8.308800e-09	9.233546e-08	8.596912e-07	6.711748e-06	4.396135e-05	2.416623e-04	1.115300e-03	4.323801e-03	1.410224e-02	3.884311e-02	9.106822e-02	1.841554e-01	3.270736e-01	5.209767e-01	7.598556e-01	1.033786e+00	1.332156e+00	1.645579e+00	1.966558e+00	2.289436e+00	2.610078e+00	2.925511e+00	3.233612e+00	3.532876e+00	3.822239e+00	4.100954e+00	4.368504e+00	4.624538e+00	4.868831e+00	5.101247e+00	5.321715e+00	5.530217e+00	5.726768e+00	5.911404e+00	6.084177e+00	6.245134e+00	6.394303e+00	6.531669e+00	6.657122e+00	6.770377e+00	6.870800e+00	6.957086e+00	7.026728e+00	7.075725e+00	7.100918e+00	7.106865e+00	7.105513e+00	7.103970e+00	7.103107e+00	7.102599e+00	7.102258e+00	7.102009e+00	7.101813e+00	7.101643e+00	7.101483e+00	7.101324e+00	7.101159e+00	7.100981e+00	7.100790e+00	7.100593e+00	7.100385e+00	7.100163e+00	7.099927e+00	7.099675e+00	7.099401e+00	7.099101e+00	7.098786e+00	7.098450e+00	7.098089e+00	7.097700e+00	7.097285e+00	7.096833e+00	7.096328e+00	7.095788e+00	7.095205e+00	7.094564e+00	7.093858e+00	7.093079e+00	7.092226e+00	7.091232e+00	7.090127e+00	7.088817e+00	7.083136e+00	6.805708e+00	1.310024e+00	2.185783e-03	2.496688e-06	2.852398e-09	1.672353e-12	0.000000e+00	0.000000e+00	0.000000e+00	0.000000e+00	0.000000e+00	0.000000e+00	0.000000e+00	0.000000e+00	0.000000e+00	0.000000e+00	0.000000e+00	0.000000e+00	
6.000000e+00	4.796059e-07	3.765677e-06	2.497723e-05	1.400021e-04	6.633308e-04	2.657636e-03	9.012668e-03	2.593728e-02	6.370792e-02	1.349418e-01	2.502760e-01	4.141928e-01	6.239690e-01	8.717982e-01	1.147917e+00	1.442942e+00	1.748992e+00	2.059922e+00	2.371141e+00	2.679296e+00	2.981969e+00	3.277423e+00	3.564419e+00	3.842071e+00	4.109758e+00	4.367043e+00	4.613630e+00	4.849329e+00	5.074021e+00	5.287650e+00	5.490198e+00	5.681680e+00	5.862132e+00	6.031602e+00	6.190137e+00	6.337778e+00	6.474532e+00	6.600349e+00	6.715066e+00	6.818303e+00	6.909264e+00	6.986377e+00	7.046787e+00	7.086554e+00	7.104232e+00	7.106841e+00	7.105208e+00	7.103926e+00	7.103215e+00	7.102785e+00	7.102492e+00	7.102277e+00	7.102106e+00	7.101956e+00	7.101813e+00	7.101670e+00	7.101521e+00	7.101358e+00	7.101187e+00	7.101010e+00	7.100823e+00	7.100624e+00	7.100413e+00	7.100187e+00	7.099939e+00	7.099673e+00	7.099394e+00	7.099098e+00	7.098779e+00	7.098439e+00	7.098077e+00	7.097679e+00	7.097242e+00	7.096780e+00	7.096281e+00	7.095738e+00	7.095144e+00	7.094499e+00	7.093790e+00	7.092973e+00	7.092089e+00	7.091100e+00	7.089969e+00	7.087904e+00	7.033825e+00	4.525899e+00	3.279269e-02	3.762731e-05	4.295445e-08	4.756039e-11	0.000000e+00	0.000000e+00	0.000000e+00	0.000000e+00	0.000000e+00	0.000000e+00	0.000000e+00	0.000000e+00	0.000000e+00	0.000000e+00	0.000000e+00	
6.254014e+00	1.742773e-05	9.743462e-05	4.635808e-04	1.877578e-03	6.477860e-03	1.907427e-02	4.814510e-02	1.050406e-01	2.006751e-01	3.414128e-01	5.270357e-01	7.517991e-01	1.007120e+00	1.284037e+00	1.574634e+00	1.872534e+00	2.172865e+00	2.472012e+00	2.767335e+00	3.056919e+00	3.339384e+00	3.613735e+00	3.879258e+00	4.135448e+00	4.381948e+00	4.618519e+00	4.845001e+00	5.061300e+00	5.267371e+00	5.463201e+00	5.648808e+00	5.824224e+00	5.989495e+00	6.144669e+00	6.289787e+00	6.424874e+00	6.549912e+00	6.664809e+00	6.769334e+00	6.862993e+00	6.944796e+00	7.012863e+00	7.064047e+00	7.094868e+00	7.106138e+00	7.106566e+00	7.104962e+00	7.103923e+00	7.103341e+00	7.102979e+00	7.102730e+00	7.102546e+00	7.102398e+00	7.102265e+00	7.102138e+00	7.102011e+00	7.101874e+00	7.101727e+00	7.101574e+00	7.101416e+00	7.101248e+00	7.101070e+00	7.100882e+00	7.100678e+00	7.100455e+00	7.100220e+00	7.099974e+00	7.099711e+00	7.099431e+00	7.099134e+00	7.098817e+00	7.098466e+00	7.098089e+00	7.097692e+00	7.097265e+00	7.096802e+00	7.096302e+00	7.095765e+00	7.095164e+00	7.094495e+00	7.093777e+00	7.092982e+00	7.092096e+00	7.091099e+00	7.089880e+00	7.082025e+00	6.659124e+00	7.669479e-01	1.074201e-03	1.225551e-06	1.397183e-09	0.000000e+00	0.000000e+00	0.000000e+00	0.000000e+00	0.000000e+00	0.000000e+00	0.000000e+00	0.000000e+00	0.000000e+00	0.000000e+00	
6.508029e+00	3.241466e-04	1.326084e-03	4.648915e-03	1.398559e-02	3.622479e-02	8.132145e-02	1.599540e-01	2.797860e-01	4.428032e-01	6.453535e-01	8.802296e-01	1.139089e+00	1.414115e+00	1.698772e+00	1.987937e+00	2.277741e+00	2.565323e+00	2.848587e+00	3.126006e+00	3.396471e+00	3.659178e+00	3.913547e+00	4.159165e+00	4.395739e+00	4.623071e+00	4.841031e+00	5.049541e+00	5.248566e+00	5.438098e+00	5.618155e+00	5.788767e+00	5.949978e+00	6.101834e+00	6.244377e+00	6.377640e+00	6.501626e+00	6.616287e+00	6.721486e+00	6.816913e+00	6.901943e+00	6.975367e+00	7.034998e+00	7.077546e+00	7.100471e+00	7.106952e+00	7.106220e+00	7.104794e+00	7.103954e+00	7.103473e+00	7.103168e+00	7.102956e+00	7.102798e+00	7.102669e+00	7.102552e+00	7.102439e+00	7.102324e+00	7.102198e+00	7.102066e+00	7.101929e+00	7.101787e+00	7.101636e+00	7.101476e+00	7.101306e+00	7.101121e+00	7.100920e+00	7.100711e+00	7.100492e+00	7.100258e+00	7.100011e+00	7.099750e+00	7.099467e+00	7.099156e+00	7.098829e+00	7.098484e+00	7.098113e+00	7.097715e+00	7.097289e+00	7.096832e+00	7.096315e+00	7.095759e+00	7.095163e+00	7.094509e+00	7.093787e+00	7.092988e+00	7.092113e+00	7.091092e+00	7.089123e+00	7.032951e+00	4.448512e+00	3.052714e-02	3.499457e-05	3.991514e-08	4.403527e-11	0.000000e+00	0.000000e+00	0.000000e+00	0.000000e+00	0.000000e+00	0.000000e+00	0.000000e+00	0.000000e+00	
6.762045e+00	3.331830e-03	1.022666e-02	2.714432e-02	6.263075e-02	1.267544e-01	2.279372e-01	3.699971e-01	5.513134e-01	7.661993e-01	1.007120e+00	1.266508e+00	1.537752e+00	1.815520e+00	2.095705e+00	2.375226e+00	2.651801e+00	2.923756e+00	3.189863e+00	3.449222e+00	3.701181e+00	3.945263e+00	4.181129e+00	4.408536e+00	4.627321e+00	4.837376e+00	5.038639e+00	5.231081e+00	5.414698e+00	5.589507e+00	5.755539e+00	5.912832e+00	6.061432e+00	6.201381e+00	6.332714e+00	6.455448e+00	6.569564e+00	6.674983e+00	6.771510e+00	6.858748e+00	6.935922e+00	7.001585e+00	7.053271e+00	7.087785e+00	7.103986e+00	7.107128e+00	7.105895e+00	7.104690e+00	7.104009e+00	7.103610e+00	7.103351e+00	7.103171e+00	7.103036e+00	7.102923e+00	7.102819e+00	7.102718e+00	7.102612e+00	7.102498e+00	7.102378e+00	7.102255e+00	7.102127e+00	7.101990e+00	7.101846e+00	7.101691e+00	7.101522e+00	7.101342e+00	7.101155e+00	7.100958e+00	7.100750e+00	7.100530e+00	7.100297e+00	7.100042e+00	7.099767e+00	7.099481e+00	7.099178e+00	7.098854e+00	7.098507e+00	7.098141e+00	7.097742e+00	7.097296e+00	7.096827e+00	7.096323e+00	7.095775e+00	7.095175e+00	7.094521e+00	7.093814e+00	7.092985e+00	7.092087e+00	7.090985e+00	7.082969e+00	6.642854e+00	7.247582e-01	1.000290e-03	1.140027e-06	1.298657e-09	0.000000e+00	0.000000e+00	0.000000e+00	0.000000e+00	0.000000e+00	0.000000e+00	0.000000e+00	
7.000000e+00	1.833690e-02	4.410794e-02	9.308715e-02	1.742242e-01	2.932569e-01	4.509735e-01	6.436441e-01	8.648422e-01	1.107362e+00	1.364498e+00	1.630618e+00	1.901268e+00	2.173048e+00	2.443408e+00	2.710458e+00	2.972802e+00	3.229414e+00	3.479536e+00	3.722615e+00	3.958245e+00	4.186135e+00	4.406079e+00	4.617933e+00	4.821607e+00	5.017045e+00	5.204223e+00	5.383139e+00	5.553809e+00	5.716260e+00	5.870530e+00	6.016661e+00	6.154694e+00	6.284666e+00	6.406603e+00	6.520505e+00	6.626331e+00	6.723964e+00	6.813154e+00	6.893408e+00	6.963794e+00	7.022631e+00	7.067258e+00	7.094853e+00	7.105893e+00	7.106996e+00	7.105645e+00	7.104639e+00	7.104076e+00	7.103739e+00	7.103518e+00	7.103363e+00	7.103246e+00	7.103146e+00	7.103053e+00	7.102961e+00	7.102863e+00	7.102758e+00	7.102650e+00	7.102538e+00	7.102421e+00	7.102296e+00	7.102164e+00	7.102022e+00	7.101866e+00	7.101703e+00	7.101534e+00	7.101355e+00	7.101167e+00	7.100969e+00	7.100757e+00	7.100526e+00	7.100279e+00	7.100025e+00	7.099755e+00	7.099467e+00	7.099162e+00	7.098839e+00	7.098482e+00	7.098093e+00	7.097687e+00	7.097252e+00	7.096780e+00	7.096269e+00	7.095720e+00	7.095118e+00	7.094426e+00	7.093692e+00	7.092879e+00	7.091952e+00	7.089652e+00	7.003515e+00	3.588129e+00	1.508125e-02	1.721444e-05	1.961142e-08	2.091472e-11	0.000000e+00	0.000000e+00	0.000000e+00	0.000000e+00	0.000000e+00	
7.254017e+00	7.271598e-02	1.398560e-01	2.416066e-01	3.803981e-01	5.541641e-01	7.576664e-01	9.843095e-01	1.227558e+00	1.481704e+00	1.742108e+00	2.005164e+00	2.268135e+00	2.528968e+00	2.786140e+00	3.038518e+00	3.285264e+00	3.525758e+00	3.759542e+00	3.986281e+00	4.205732e+00	4.417722e+00	4.622134e+00	4.818890e+00	5.007946e+00	5.189282e+00	5.362900e+00	5.528815e+00	5.687053e+00	5.837648e+00	5.980641e+00	6.116070e+00	6.243975e+00	6.364382e+00	6.477305e+00	6.582726e+00	6.680576e+00	6.770695e+00	6.852762e+00	6.926170e+00	6.989800e+00	7.041730e+00	7.079210e+00	7.100166e+00	7.106915e+00	7.106724e+00	7.105442e+00	7.104622e+00	7.104160e+00	7.103877e+00	7.103691e+00	7.103560e+00	7.103458e+00	7.103370e+00	7.103287e+00	7.103203e+00	7.103113e+00	7.103017e+00	7.102919e+00	7.102818e+00	7.102711e+00	7.102598e+00	7.102478e+00	7.102346e+00	7.102204e+00	7.102057e+00	7.101903e+00	7.101742e+00	7.101572e+00	7.101394e+00	7.101201e+00	7.100991e+00	7.100773e+00	7.100546e+00	7.100305e+00	7.100050e+00	7.099782e+00	7.099496e+00	7.099177e+00	7.098839e+00	7.098488e+00	7.098110e+00	7.097704e+00	7.097268e+00	7.096806e+00	7.096283e+00	7.095709e+00	7.095102e+00	7.094435e+00	7.093698e+00	7.092879e+00	7.091814e+00	7.080124e+00	6.415992e+00	3.934149e-01	4.927403e-04	5.610550e-07	6.377153e-10	0.000000e+00	0.000000e+00	0.000000e+00	0.000000e+00	
7.508036e+00	1.979034e-01	3.191281e-01	4.748219e-01	6.610287e-01	8.719088e-01	1.101222e+00	1.343260e+00	1.593244e+00	1.847378e+00	2.102738e+00	2.357113e+00	2.608843e+00	2.856689e+00	3.099727e+00	3.337269e+00	3.568801e+00	3.793944e+00	4.012418e+00	4.224021e+00	4.428608e+00	4.626080e+00	4.816373e+00	4.999450e+00	5.175297e+00	5.343917e+00	5.505323e+00	5.659542e+00	5.806606e+00	5.946551e+00	6.079415e+00	6.205236e+00	6.324044e+00	6.435858e+00	6.540676e+00	6.638460e+00	6.729109e+00	6.812415e+00	6.887977e+00	6.955057e+00	7.012338e+00	7.057681e+00	7.088442e+00	7.103645e+00	7.107274e+00	7.106428e+00	7.105300e+00	7.104634e+00	7.104253e+00	7.104016e+00	7.103858e+00	7.103746e+00	7.103658e+00	7.103580e+00	7.103506e+00	7.103429e+00	7.103345e+00	7.103259e+00	7.103170e+00	7.103078e+00	7.102980e+00	7.102877e+00	7.102766e+00	7.102644e+00	7.102515e+00	7.102381e+00	7.102242e+00	7.102096e+00	7.101942e+00	7.101780e+00	7.101603e+00	7.101413e+00	7.101218e+00	7.101014e+00	7.100798e+00	7.100571e+00	7.100334e+00	7.100076e+00	7.099791e+00	7.099497e+00	7.099188e+00	7.098858e+00	7.098504e+00	7.098130e+00	7.097730e+00	7.097274e+00	7.096792e+00	7.096280e+00	7.095722e+00	7.095111e+00	7.094441e+00	7.093721e+00	7.092860e+00	7.090601e+00	7.001084e+00	3.503170e+00	1.407445e-02	1.605949e-05	1.828424e-08	1.927896e-11	0.000000e+00	0.000000e+00	
7.762055e+00	4.048025e-01	5.742074e-01	7.695045e-01	9.848748e-01	1.214700e+00	1.454110e+00	1.699144e+00	1.946701e+00	2.194407e+00	2.440466e+00	2.683528e+00	2.922579e+00	3.156860e+00	3.385800e+00	3.608975e+00	3.826067e+00	4.036842e+00	4.241130e+00	4.438808e+00	4.629794e+00	4.814035e+00	4.991500e+00	5.162179e+00	5.326075e+00	5.483203e+00	5.633587e+00	5.777257e+00	5.914247e+00	6.044594e+00	6.168333e+00	6.285495e+00	6.396104e+00	6.500167e+00	6.597667e+00	6.688542e+00	6.772656e+00	6.849745e+00	6.919319e+00	6.980492e+00	7.031743e+00	7.070786e+00	7.095324e+00	7.105743e+00	7.107260e+00	7.106162e+00	7.105210e+00	7.104667e+00	7.104351e+00	7.104153e+00	7.104020e+00	7.103924e+00	7.103848e+00	7.103779e+00	7.103712e+00	7.103640e+00	7.103563e+00	7.103485e+00	7.103405e+00	7.103320e+00	7.103231e+00	7.103136e+00	7.103033e+00	7.102920e+00	7.102802e+00	7.102681e+00	7.102554e+00	7.102420e+00	7.102281e+00	7.102132e+00	7.101969e+00	7.101797e+00	7.101622e+00	7.101438e+00	7.101244e+00	7.101041e+00	7.100828e+00	7.100592e+00	7.100339e+00	7.100080e+00	7.099807e+00	7.099515e+00	7.099206e+00	7.098882e+00	7.098526e+00	7.098129e+00	7.097719e+00	7.097280e+00	7.096805e+00	7.096290e+00	7.095734e+00	7.095138e+00	7.094433e+00	7.093689e+00	7.092704e+00	7.080663e+00	6.391081e+00	3.702583e-01	4.600284e-04	5.234544e-07	5.944653e-10	0.000000e+00	
8.000000e+00	6.579079e-01	8.578477e-01	1.074427e+00	1.302652e+00	1.538329e+00	1.778100e+00	2.019356e+00	2.260104e+00	2.498831e+00	2.734399e+00	2.965947e+00	3.192828e+00	3.414554e+00	3.630759e+00	3.841169e+00	4.045581e+00	4.243846e+00	4.435859e+00	4.621545e+00	4.800860e+00	4.973777e+00	5.140287e+00	5.300394e+00	5.454112e+00	5.601463e+00	5.742475e+00	5.877180e+00	6.005613e+00	6.127806e+00	6.243793e+00	6.353599e+00	6.457239e+00	6.554708e+00	6.645974e+00	6.730950e+00	6.809464e+00	6.881191e+00	6.945546e+00	7.001493e+00	7.047330e+00	7.080727e+00	7.099971e+00	7.106815e+00	7.107083e+00	7.105959e+00	7.105163e+00	7.104713e+00	7.104448e+00	7.104279e+00	7.104166e+00	7.104084e+00	7.104016e+00	7.103955e+00	7.103893e+00	7.103826e+00	7.103755e+00	7.103684e+00	7.103610e+00	7.103532e+00	7.103450e+00	7.103362e+00	7.103265e+00	7.103160e+00	7.103052e+00	7.102941e+00	7.102824e+00	7.102702e+00	7.102573e+00	7.102434e+00	7.102284e+00	7.102128e+00	7.101968e+00	7.101800e+00	7.101624e+00	7.101441e+00	7.101245e+00	7.101028e+00	7.100802e+00	7.100570e+00	7.100324e+00	7.100064e+00	7.099790e+00	7.099502e+00	7.099179e+00	7.098832e+00	7.098473e+00	7.098090e+00	7.097677e+00	7.097232e+00	7.096762e+00	7.096241e+00	7.095647e+00	7.095029e+00	7.094348e+00	7.093566e+00	7.090663e+00	6.953140e+00	2.597600e+00	6.954742e-03	7.915493e-06	9.003265e-09	
8.254020e+00	9.649943e-01	1.182214e+00	1.408322e+00	1.639814e+00	1.873926e+00	2.108522e+00	2.341970e+00	2.573031e+00	2.800767e+00	3.024466e+00	3.243591e+00	3.457732e+00	3.666583e+00	3.869913e+00	4.067551e+00	4.259369e+00	4.445279e+00	4.625219e+00	4.799150e+00	4.967052e+00	5.128917e+00	5.284751e+00	5.434567e+00	5.578386e+00	5.716235e+00	5.848142e+00	5.974141e+00	6.094264e+00	6.208542e+00	6.317001e+00	6.419661e+00	6.516526e+00	6.607579e+00	6.692768e+00	6.771978e+00	6.844991e+00	6.911413e+00	6.970539e+00	7.021170e+00	7.061435e+00	7.089111e+00	7.103372e+00	7.107325e+00	7.106831e+00	7.105795e+00	7.105143e+00	7.104774e+00	7.104553e+00	7.104412e+00	7.104317e+00	7.104246e+00	7.104187e+00	7.104132e+00	7.104074e+00	7.104013e+00	7.103949e+00	7.103884e+00	7.103816e+00	7.103745e+00	7.103669e+00	7.103586e+00	7.103496e+00	7.103400e+00	7.103301e+00	7.103199e+00	7.103092e+00	7.102980e+00	7.102861e+00	7.102732e+00	7.102594e+00	7.102453e+00	7.102307e+00	7.102154e+00	7.101995e+00	7.101829e+00	7.101648e+00	7.101451e+00	7.101249e+00	7.101041e+00	7.100821e+00	7.100589e+00	7.100347e+00	7.100088e+00	7.099797e+00	7.099495e+00	7.099181e+00	7.098846e+00	7.098486e+00	7.098104e+00	7.097702e+00	7.097241e+00	7.096745e+00	7.096225e+00	7.095657e+00	7.095035e+00	7.094347e+00	7.093347e+00	7.075266e+00	6.051073e+00	1.914730e-01	2.270262e-04	
8.508041e+00	1.286528e+00	1.509594e+00	1.736407e+00	1.964692e+00	2.192694e+00	2.419073e+00	2.642806e+00	2.863116e+00	3.079412e+00	3.291243e+00	3.498266e+00	3.700223e+00	3.896918e+00	4.088204e+00	4.273976e+00	4.454156e+00	4.628694e+00	4.797555e+00	4.960724e+00	5.118196e+00	5.269976e+00	5.416078e+00	5.556522e+00	5.691332e+00	5.820535e+00	5.944163e+00	6.062246e+00	6.174814e+00	6.281894e+00	6.383506e+00	6.479663e+00	6.570358e+00	6.655560e+00	6.735195e+00	6.809116e+00	6.877054e+00	6.938532e+00	6.992720e+00	7.038249e+00	7.073139e+00	7.095474e+00	7.105518e+00	7.107432e+00	7.106581e+00	7.105680e+00	7.105148e+00	7.104845e+00	7.104660e+00	7.104543e+00	7.104462e+00	7.104402e+00	7.104350e+00	7.104299e+00	7.104246e+00	7.104189e+00	7.104131e+00	7.104072e+00	7.104010e+00	7.103944e+00	7.103874e+00	7.103796e+00	7.103712e+00	7.103624e+00	7.103533e+00	7.103439e+00	7.103340e+00	7.103238e+00	7.103127e+00	7.103006e+00	7.102880e+00	7.102752e+00	7.102619e+00	7.102479e+00	7.102335e+00	7.102183e+00	7.102015e+00	7.101837e+00	7.101655e+00	7.101467e+00	7.101269e+00	7.101062e+00	7.100846e+00	7.100609e+00	7.100348e+00	7.100083e+00	7.099806e+00	7.099510e+00	7.099195e+00	7.098865e+00	7.098510e+00	7.098104e+00	7.097684e+00	7.097239e+00	7.096757e+00	7.096232e+00	7.095663e+00	7.095063e+00	7.094312e+00	7.091400e+00	6.948561e+00	2.516046e+00	
8.762063e+00	1.606428e+00	1.828255e+00	2.050661e+00	2.272199e+00	2.491763e+00	2.708505e+00	2.921778e+00	3.131087e+00	3.336054e+00	3.536388e+00	3.731871e+00	3.922335e+00	4.107658e+00	4.287746e+00	4.462537e+00	4.631985e+00	4.796064e+00	4.954760e+00	5.108070e+00	5.256000e+00	5.398563e+00	5.535778e+00	5.667669e+00	5.794260e+00	5.915581e+00	6.031660e+00	6.142526e+00	6.248206e+00	6.348721e+00	6.444088e+00	6.534308e+00	6.619364e+00	6.699210e+00	6.773747e+00	6.842792e+00	6.906017e+00	6.962853e+00	7.012335e+00	7.052933e+00	7.082655e+00	7.100111e+00	7.106745e+00	7.107324e+00	7.106365e+00	7.105606e+00	7.105172e+00	7.104921e+00	7.104768e+00	7.104670e+00	7.104602e+00	7.104550e+00	7.104504e+00	7.104457e+00	7.104408e+00	7.104356e+00	7.104304e+00	7.104249e+00	7.104192e+00	7.104132e+00	7.104066e+00	7.103993e+00	7.103914e+00	7.103833e+00	7.103750e+00	7.103663e+00	7.103572e+00	7.103477e+00	7.103373e+00	7.103261e+00	7.103146e+00	7.103028e+00	7.102906e+00	7.102779e+00	7.102647e+00	7.102506e+00	7.102350e+00	7.102189e+00	7.102025e+00	7.101855e+00	7.101675e+00	7.101489e+00	7.101293e+00	7.101075e+00	7.100843e+00	7.100608e+00	7.100361e+00	7.100098e+00	7.099821e+00	7.099532e+00	7.099212e+00	7.098857e+00	7.098496e+00	7.098111e+00	7.097695e+00	7.097247e+00	7.096770e+00	7.096259e+00	7.095652e+00	7.095025e+00	7.094073e+00	7.075382e+00	
9.000000e+00	1.896398e+00	2.113367e+00	2.329118e+00	2.542705e+00	2.753402e+00	2.960653e+00	3.164028e+00	3.363199e+00	3.557915e+00	3.747982e+00	3.933256e+00	4.113626e+00	4.289012e+00	4.459357e+00	4.624622e+00	4.784784e+00	4.939831e+00	5.089761e+00	5.234579e+00	5.374298e+00	5.508936e+00	5.638515e+00	5.763057e+00	5.882591e+00	5.997143e+00	6.106742e+00	6.211412e+00	6.311177e+00	6.406055e+00	6.496054e+00	6.581169e+00	6.661370e+00	6.736595e+00	6.806718e+00	6.871520e+00	6.930610e+00	6.983324e+00	7.028562e+00	7.064675e+00	7.089775e+00	7.103160e+00	7.107317e+00	7.107136e+00	7.106202e+00	7.105567e+00	7.105207e+00	7.104997e+00	7.104869e+00	7.104786e+00	7.104728e+00	7.104682e+00	7.104641e+00	7.104598e+00	7.104552e+00	7.104505e+00	7.104456e+00	7.104407e+00	7.104354e+00	7.104297e+00	7.104234e+00	7.104166e+00	7.104093e+00	7.104018e+00	7.103940e+00	7.103860e+00	7.103775e+00	7.103686e+00	7.103588e+00	7.103484e+00	7.103378e+00	7.103269e+00	7.103156e+00	7.103039e+00	7.102917e+00	7.102784e+00	7.102640e+00	7.102493e+00	7.102343e+00	7.102187e+00	7.102023e+00	7.101855e+00	7.101673e+00	7.101471e+00	7.101263e+00	7.101051e+00	7.100828e+00	7.100592e+00	7.100345e+00	7.100086e+00	7.099793e+00	7.099481e+00	7.099163e+00	7.098823e+00	7.098459e+00	7.098069e+00	7.097662e+00	7.097203e+00	7.096690e+00	7.096161e+00	7.095583e+00	7.094900e+00	
9.254023e+00	2.191195e+00	2.400855e+00	2.608159e+00	2.812498e+00	3.013404e+00	3.210515e+00	3.403552e+00	3.592300e+00	3.776596e+00	3.956314e+00	4.131361e+00	4.301668e+00	4.467185e+00	4.627880e+00	4.783734e+00	4.934736e+00	5.080886e+00	5.222191e+00	5.358661e+00	5.490315e+00	5.617172e+00	5.739255e+00	5.856589e+00	5.969200e+00	6.077113e+00	6.180355e+00	6.278948e+00	6.372910e+00	6.462254e+00	6.546981e+00	6.627076e+00	6.702496e+00	6.773159e+00	6.838910e+00	6.899480e+00	6.954407e+00	7.002915e+00	7.043762e+00	7.075222e+00	7.095676e+00	7.105318e+00	7.107530e+00	7.106912e+00	7.106071e+00	7.105550e+00	7.105256e+00	7.105082e+00	7.104976e+00	7.104907e+00	7.104858e+00	7.104818e+00	7.104780e+00	7.104741e+00	7.104698e+00	7.104655e+00	7.104611e+00	7.104566e+00	7.104517e+00	7.104463e+00	7.104404e+00	7.104340e+00	7.104272e+00	7.104203e+00	7.104132e+00	7.104057e+00	7.103979e+00	7.103894e+00	7.103802e+00	7.103706e+00	7.103609e+00	7.103509e+00	7.103405e+00	7.103297e+00	7.103183e+00	7.103058e+00	7.102926e+00	7.102793e+00	7.102656e+00	7.102513e+00	7.102365e+00	7.102211e+00	7.102041e+00	7.101858e+00	7.101672e+00	7.101480e+00	7.101279e+00	7.101067e+00	7.100849e+00	7.100612e+00	7.100347e+00	7.100074e+00	7.099793e+00	7.099494e+00	7.099174e+00	7.098837e+00	7.098484e+00	7.098073e+00	7.097641e+00	7.097190e+00	7.096700e+00	7.096167e+00	
9.508046e+00	2.468784e+00	2.670073e+00	2.868360e+00	3.063249e+00	3.254434e+00	3.441677e+00	3.624795e+00	3.803646e+00	3.978123e+00	4.148146e+00	4.313655e+00	4.474609e+00	4.630979e+00	4.782749e+00	4.929912e+00	5.072469e+00	5.210425e+00	5.343792e+00	5.472586e+00	5.596826e+00	5.716534e+00	5.831732e+00	5.942446e+00	6.048700e+00	6.150518e+00	6.247922e+00	6.340932e+00	6.429563e+00	6.513820e+00	6.593697e+00	6.669168e+00	6.740177e+00	6.806616e+00	6.868299e+00	6.924903e+00	6.975883e+00	7.020344e+00	7.056917e+00	7.083877e+00	7.100057e+00	7.106616e+00	7.107502e+00	7.106704e+00	7.105980e+00	7.105554e+00	7.105312e+00	7.105169e+00	7.105081e+00	7.105024e+00	7.104983e+00	7.104948e+00	7.104913e+00	7.104876e+00	7.104838e+00	7.104799e+00	7.104759e+00	7.104716e+00	7.104671e+00	7.104620e+00	7.104564e+00	7.104504e+00	7.104442e+00	7.104378e+00	7.104312e+00	7.104242e+00	7.104169e+00	7.104089e+00	7.104003e+00	7.103914e+00	7.103824e+00	7.103732e+00	7.103636e+00	7.103537e+00	7.103430e+00	7.103313e+00	7.103192e+00	7.103070e+00	7.102944e+00	7.102814e+00	7.102679e+00	7.102536e+00	7.102378e+00	7.102211e+00	7.102043e+00	7.101870e+00	7.101687e+00	7.101498e+00	7.101301e+00	7.101082e+00	7.100844e+00	7.100604e+00	7.100354e+00	7.100087e+00	7.099805e+00	7.099513e+00	7.099195e+00	7.098831e+00	7.098462e+00	7.098072e+00	7.097651e+00	7.097196e+00	
9.762069e+00	2.728703e+00	2.921231e+00	3.110413e+00	3.295988e+00	3.477752e+00	3.655548e+00	3.829255e+00	3.998780e+00	4.164054e+00	4.325025e+00	4.481658e+00	4.633930e+00	4.781826e+00	4.925340e+00	5.064475e+00	5.199236e+00	5.329635e+00	5.455687e+00	5.577409e+00	5.694823e+00	5.807949e+00	5.916812e+00	6.021433e+00	6.121837e+00	6.218045e+00	6.310077e+00	6.397949e+00	6.481669e+00	6.561237e+00	6.636640e+00	6.707839e+00	6.774761e+00	6.837275e+00	6.895154e+00	6.948016e+00	6.995225e+00	7.035764e+00	7.068163e+00	7.090813e+00	7.103166e+00	7.107305e+00	7.107354e+00	7.106529e+00	7.105921e+00	7.105574e+00	7.105375e+00	7.105258e+00	7.105185e+00	7.105138e+00	7.105102e+00	7.105071e+00	7.105039e+00	7.105005e+00	7.104970e+00	7.104935e+00	7.104898e+00	7.104859e+00	7.104816e+00	7.104769e+00	7.104716e+00	7.104660e+00	7.104602e+00	7.104543e+00	7.104481e+00	7.104417e+00	7.104347e+00	7.104271e+00	7.104191e+00	7.104109e+00	7.104026e+00	7.103941e+00	7.103853e+00	7.103760e+00	7.103658e+00	7.103549e+00	7.103439e+00	7.103327e+00	7.103211e+00	7.103091e+00	7.102968e+00	7.102834e+00	7.102687e+00	7.102536e+00	7.102384e+00	7.102225e+00	7.102060e+00	7.101889e+00	7.101709e+00	7.101506e+00	7.101293e+00	7.101079e+00	7.100855e+00	7.100617e+00	7.100368e+00	7.100110e+00	7.099818e+00	7.099500e+00	7.099180e+00	7.098839e+00	7.098473e+00	7.098080e+00	
1.000000e+01	2.956460e+00	3.140775e+00	3.321590e+00	3.498726e+00	3.672044e+00	3.841436e+00	4.006821e+00	4.168136e+00	4.325337e+00	4.478391e+00	4.627277e+00	4.771984e+00	4.912506e+00	5.048846e+00	5.181009e+00	5.309007e+00	5.432854e+00	5.552565e+00	5.668161e+00	5.779662e+00	5.887089e+00	5.990465e+00	6.089811e+00	6.185150e+00	6.276500e+00	6.363879e+00	6.447297e+00	6.526760e+00	6.602261e+00	6.673778e+00	6.741260e+00	6.804616e+00	6.863690e+00	6.918214e+00	6.967742e+00	7.011547e+00	7.048499e+00	7.077081e+00	7.095913e+00	7.105146e+00	7.107578e+00	7.107175e+00	7.106400e+00	7.105891e+00	7.105603e+00	7.105438e+00	7.105341e+00	7.105281e+00	7.105241e+00	7.105210e+00	7.105182e+00	7.105152e+00	7.105121e+00	7.105089e+00	7.105057e+00	7.105023e+00	7.104986e+00	7.104946e+00	7.104900e+00	7.104850e+00	7.104798e+00	7.104744e+00	7.104689e+00	7.104631e+00	7.104571e+00	7.104504e+00	7.104432e+00	7.104357e+00	7.104282e+00	7.104204e+00	7.104125e+00	7.104042e+00	7.103954e+00	7.103858e+00	7.103756e+00	7.103655e+00	7.103551e+00	7.103444e+00	7.103333e+00	7.103218e+00	7.103091e+00	7.102954e+00	7.102817e+00	7.102677e+00	7.102532e+00	7.102380e+00	7.102225e+00	7.102056e+00	7.101868e+00	7.101677e+00	7.101483e+00	7.101279e+00	7.101064e+00	7.100842e+00	7.100607e+00	7.100338e+00	7.100058e+00	7.099774e+00	7.099471e+00	7.099147e+00	7.098803e+00	
