%!PS-Adobe-3.0 EPSF-3.0
%%DocumentNeededResources: font Helvetica
%%+ font Helvetica-Bold
%%+ font Helvetica-Oblique
%%+ font Helvetica-BoldOblique
%%+ font Symbol
%%Title: R Graphics Output
%%Creator: R Software
%%Pages: (atend)
%%BoundingBox: 0 0 504 432
%%EndComments
%%BeginProlog
/bp  { gs sRGB gs } def
% begin .ps.prolog
/gs  { gsave } bind def
/gr  { grestore } bind def
/ep  { showpage gr gr } bind def
/m   { moveto } bind def
/l  { rlineto } bind def
/np  { newpath } bind def
/cp  { closepath } bind def
/f   { fill } bind def
/o   { stroke } bind def
/c   { newpath 0 360 arc } bind def
/r   { 4 2 roll moveto 1 copy 3 -1 roll exch 0 exch rlineto 0 rlineto -1 mul 0 exch rlineto closepath } bind def
/p1  { stroke } bind def
/p2  { gsave bg fill grestore newpath } bind def
/p3  { gsave bg fill grestore stroke } bind def
/p6  { gsave bg eofill grestore newpath } bind def
/p7  { gsave bg eofill grestore stroke } bind def
/t   { 5 -2 roll moveto gsave rotate
       1 index stringwidth pop
       mul neg 0 rmoveto show grestore } bind def
/ta  { 4 -2 roll moveto gsave rotate show } bind def
/tb  { 2 -1 roll 0 rmoveto show } bind def
/cl  { grestore gsave newpath 3 index 3 index moveto 1 index
       4 -1 roll lineto  exch 1 index lineto lineto
       closepath clip newpath } bind def
/rgb { setrgbcolor } bind def
/s   { scalefont setfont } bind def
% end   .ps.prolog
/sRGB { [ /CIEBasedABC
          << /DecodeLMN
               [ { dup 0.03928 le
                        {12.92321 div}
                        {0.055 add 1.055 div 2.4 exp }
                     ifelse
                 } bind dup dup
               ]
             /MatrixLMN [0.412457 0.212673 0.019334
                         0.357576 0.715152 0.119192
                         0.180437 0.072175 0.950301]
             /WhitePoint [0.9505 1.0 1.0890]
           >>
         ] setcolorspace } bind def
/srgb { setcolor } bind def
%%IncludeResource: font Helvetica
/Helvetica findfont
dup length dict begin
  {1 index /FID ne {def} {pop pop} ifelse} forall
  /Encoding ISOLatin1Encoding def
  currentdict
  end
/Font1 exch definefont pop
%%IncludeResource: font Helvetica-Bold
/Helvetica-Bold findfont
dup length dict begin
  {1 index /FID ne {def} {pop pop} ifelse} forall
  /Encoding ISOLatin1Encoding def
  currentdict
  end
/Font2 exch definefont pop
%%IncludeResource: font Helvetica-Oblique
/Helvetica-Oblique findfont
dup length dict begin
  {1 index /FID ne {def} {pop pop} ifelse} forall
  /Encoding ISOLatin1Encoding def
  currentdict
  end
/Font3 exch definefont pop
%%IncludeResource: font Helvetica-BoldOblique
/Helvetica-BoldOblique findfont
dup length dict begin
  {1 index /FID ne {def} {pop pop} ifelse} forall
  /Encoding ISOLatin1Encoding def
  currentdict
  end
/Font4 exch definefont pop
%%IncludeResource: font Symbol
/Symbol findfont
dup length dict begin
  {1 index /FID ne {def} {pop pop} ifelse} forall
  currentdict
  end
/Font5 exch definefont pop
%%EndProlog
%%Page: 1 1
bp
59.04 73.44 473.76 372.96 cl
/bg { 0.7451 0.7451 0.7451 srgb } def
170.40 -1718708352.08 28.80 3437416827.53 r p2
208.80 -1718708352.08 28.80 3437416827.53 r p2
247.20 -1718708352.08 28.80 3437416827.53 r p2
285.60 -1718708352.08 28.80 3437416827.53 r p2
324.00 -1718708352.08 28.80 3437416827.53 r p2
0 0 1 srgb
1.50 setlinewidth
[] 0 setdash
1 setlinecap
1 setlinejoin
10.00 setmiterlimit
np
74.40 346.58 m
1.92 9.08 l
1.92 4.38 l
1.92 1.83 l
1.92 -0.53 l
1.92 -1.77 l
1.92 -1.94 l
1.92 -1.37 l
1.92 -0.53 l
1.92 0.10 l
1.92 0.30 l
1.92 0.03 l
1.92 -0.42 l
1.92 -0.82 l
1.92 -1.03 l
1.92 -1.13 l
1.92 -1.09 l
1.92 -1.02 l
1.92 -1.01 l
1.92 -1.09 l
1.92 -1.17 l
1.92 -1.24 l
1.92 -1.25 l
1.92 -1.23 l
1.92 -1.20 l
1.92 -1.14 l
1.92 -1.08 l
1.92 -1.00 l
1.92 -0.89 l
1.92 -0.76 l
1.92 -0.61 l
1.92 -0.44 l
1.92 -0.26 l
1.92 -0.08 l
1.92 0.10 l
1.92 0.25 l
1.92 0.40 l
1.92 0.50 l
1.92 0.55 l
1.92 0.58 l
1.92 0.53 l
1.92 0.43 l
1.92 0.26 l
1.92 0.02 l
1.92 -0.33 l
1.92 -0.82 l
1.92 -1.64 l
1.92 -3.09 l
1.92 -6.03 l
1.92 -12.73 l
1.92 -67.69 l
1.92 -11.66 l
1.92 -8.69 l
1.92 -4.59 l
1.92 -2.69 l
1.92 -1.89 l
1.92 -1.43 l
1.92 -1.15 l
1.92 -0.98 l
1.92 -0.86 l
1.92 -0.81 l
1.92 -0.76 l
1.92 -0.75 l
1.92 -0.72 l
1.92 -0.67 l
1.92 -0.52 l
1.92 -0.40 l
1.92 -0.21 l
1.92 -0.18 l
1.92 -0.32 l
1.92 -1.80 l
1.92 -2.02 l
1.92 -1.94 l
1.92 -1.75 l
1.92 -1.57 l
1.92 -1.41 l
1.92 -1.30 l
1.92 -1.20 l
1.92 -1.12 l
1.92 -1.03 l
1.92 -0.94 l
1.92 -0.84 l
1.92 -0.75 l
1.92 -0.69 l
1.92 -0.63 l
1.92 -0.60 l
1.92 -3.37 l
1.92 -2.93 l
1.92 -1.91 l
1.92 -0.88 l
1.92 -1.26 l
1.92 -1.01 l
1.92 -0.86 l
1.92 -0.77 l
1.92 -0.74 l
1.92 -0.75 l
1.92 -0.77 l
1.92 -0.79 l
1.92 -0.81 l
1.92 -0.83 l
266.40 170.12 lineto
1.92 -0.81 l
1.92 -0.79 l
1.92 -0.77 l
1.92 -0.74 l
1.92 -0.71 l
1.92 -1.65 l
1.92 -1.59 l
1.92 -1.36 l
1.92 -1.06 l
1.92 -0.68 l
1.92 -0.33 l
1.92 -0.38 l
1.92 -0.43 l
1.92 -0.47 l
1.92 -0.52 l
1.92 -0.54 l
1.92 -0.57 l
1.92 -0.59 l
1.92 -0.60 l
1.92 -0.61 l
1.92 -0.62 l
1.92 -0.61 l
1.92 -0.61 l
1.92 -0.61 l
1.92 -0.58 l
1.92 -0.57 l
1.92 -0.45 l
1.92 -0.44 l
1.92 -0.36 l
1.92 0 l
1.92 -0.27 l
1.92 -0.44 l
1.92 -0.55 l
1.92 -0.59 l
1.92 -0.60 l
1.92 -0.55 l
1.92 -0.49 l
1.92 -0.39 l
1.92 -0.30 l
1.92 -0.19 l
1.92 -0.10 l
1.92 0 l
1.92 0.06 l
1.92 0.11 l
1.92 0.12 l
1.92 -3.84 l
1.92 -5.34 l
1.92 -5.69 l
1.92 -5.51 l
1.92 -5.11 l
1.92 -4.65 l
1.92 -4.18 l
1.92 -3.75 l
1.92 -3.34 l
1.92 -2.98 l
1.92 -2.66 l
1.92 -2.38 l
1.92 -2.14 l
1.92 -1.91 l
1.92 -1.71 l
1.92 -1.53 l
1.92 -1.35 l
1.92 -1.17 l
1.92 -0.98 l
1.92 -0.73 l
1.92 -0.41 l
1.92 0.03 l
1.92 0.60 l
1.92 1.27 l
1.92 1.97 l
1.92 2.65 l
1.92 3.25 l
1.92 3.91 l
1.92 4.73 l
1.92 5.84 l
1.92 7.35 l
1.92 9.30 l
1.92 11.07 l
1.92 10.64 l
1.92 7.04 l
1.92 3.08 l
1.92 0.93 l
1.92 0.05 l
1.92 -0.36 l
1.92 -0.46 l
1.92 -0.31 l
1.92 -0.13 l
1.92 -0.02 l
1.92 -0.04 l
1.92 -0.21 l
1.92 -0.44 l
1.92 -0.66 l
1.92 -0.78 l
1.92 -0.76 l
1.92 -0.64 l
1.92 -0.51 l
1.92 -0.48 l
1.92 -0.74 l
1.92 -1.47 l
458.40 147.25 lineto
o
0.00 0.00 504.00 432.00 cl
0 0 0 srgb
0.75 setlinewidth
[] 0 setdash
1 setlinecap
1 setlinejoin
10.00 setmiterlimit
np
74.40 73.44 m
384.00 0 l
o
np
74.40 73.44 m
0 -7.20 l
o
np
170.40 73.44 m
0 -7.20 l
o
np
266.40 73.44 m
0 -7.20 l
o
np
362.40 73.44 m
0 -7.20 l
o
np
458.40 73.44 m
0 -7.20 l
o
/Font1 findfont 12 s
74.40 47.52 (4) .5 0 t
170.40 47.52 (5) .5 0 t
266.40 47.52 (6) .5 0 t
362.40 47.52 (7) .5 0 t
458.40 47.52 (8) .5 0 t
np
59.04 147.62 m
0 171.87 l
o
np
59.04 147.62 m
-7.20 0 l
o
np
59.04 233.56 m
-7.20 0 l
o
np
59.04 319.49 m
-7.20 0 l
o
41.76 147.62 (0.05) .5 90 t
41.76 233.56 (0.10) .5 90 t
41.76 319.49 (0.15) .5 90 t
np
59.04 73.44 m
414.72 0 l
0 299.52 l
-414.72 0 l
0 -299.52 l
o
0.00 0.00 504.00 432.00 cl
/Font1 findfont 12 s
0 0 0 srgb
266.40 18.72 (x [m]) .5 0 t
12.96 223.20 (h [m]) .5 90 t
59.04 73.44 473.76 372.96 cl
/bg { 0 0 0 srgb } def
170.40 359.60 4.05 c p2
184.80 204.06 4.05 c p2
204.00 176.17 4.05 c p2
223.20 190.12 4.05 c p2
242.40 188.87 4.05 c p2
261.60 180.86 4.05 c p2
280.80 187.32 4.05 c p2
300.00 174.17 4.05 c p2
319.20 222.49 4.05 c p2
338.40 157.14 4.05 c p2
352.80 125.21 4.05 c p2
84.00 310.74 4.05 c p2
112.80 345.91 4.05 c p2
141.60 353.94 4.05 c p2
383.52 106.80 4.05 c p2
429.60 155.98 4.05 c p2
0 0 1 srgb
0.75 setlinewidth
[] 0 setdash
1 setlinecap
1 setlinejoin
10.00 setmiterlimit
170.40 247.49 4.05 c p1
184.80 214.41 4.05 c p1
204.00 208.53 4.05 c p1
223.20 194.10 4.05 c p1
242.40 180.41 4.05 c p1
261.60 171.77 4.05 c p1
280.80 161.70 4.05 c p1
300.00 156.13 4.05 c p1
319.20 150.43 4.05 c p1
338.40 146.19 4.05 c p1
352.80 145.89 4.05 c p1
84.00 359.57 4.05 c p1
112.80 347.38 4.05 c p1
141.60 336.55 4.05 c p1
383.52 89.17 4.05 c p1
429.60 157.42 4.05 c p1
0 0 0 srgb
324.00 336.68 140.22 -51.84 r p1
np
336.96 319.40 m
25.92 0 l
o
0 0 1 srgb
np
336.96 302.12 m
25.92 0 l
o
/Font1 findfont 14 s
0 0 0 srgb
375.84 314.38 (Exper) 0 ta
0.210 (imental) tb gr
375.84 297.10 (Sim) 0 ta
-0.140 (ulated) tb gr
ep
%%Trailer
%%Pages: 1
%%EOF
