<?xml version="1.0" encoding="UTF-8" standalone="no"?>
<!-- Created with Inkscape (http://www.inkscape.org/) -->

<svg
   width="166.60837mm"
   height="150.86038mm"
   viewBox="0 0 166.60836 150.86038"
   version="1.1"
   id="svg5"
   inkscape:version="1.1.2 (0a00cf5339, 2022-02-04)"
   sodipodi:docname="serghei_training_1node_gpu.svg"
   xmlns:inkscape="http://www.inkscape.org/namespaces/inkscape"
   xmlns:sodipodi="http://sodipodi.sourceforge.net/DTD/sodipodi-0.dtd"
   xmlns="http://www.w3.org/2000/svg"
   xmlns:svg="http://www.w3.org/2000/svg">
  <sodipodi:namedview
     id="namedview7"
     pagecolor="#ffffff"
     bordercolor="#666666"
     borderopacity="1.0"
     inkscape:pageshadow="2"
     inkscape:pageopacity="0.0"
     inkscape:pagecheckerboard="0"
     inkscape:document-units="mm"
     showgrid="false"
     fit-margin-top="0"
     fit-margin-left="0"
     fit-margin-right="0"
     fit-margin-bottom="0"
     inkscape:zoom="1.0494603"
     inkscape:cx="332.07545"
     inkscape:cy="248.69926"
     inkscape:window-width="1920"
     inkscape:window-height="1011"
     inkscape:window-x="0"
     inkscape:window-y="32"
     inkscape:window-maximized="1"
     inkscape:current-layer="layer2" />
  <defs
     id="defs2">
    <marker
       style="overflow:visible"
       id="Arrow1Mend"
       refX="0"
       refY="0"
       orient="auto"
       inkscape:stockid="Arrow1Mend"
       inkscape:isstock="true">
      <path
         transform="matrix(-0.4,0,0,-0.4,-4,0)"
         style="fill:context-stroke;fill-rule:evenodd;stroke:context-stroke;stroke-width:1pt"
         d="M 0,0 5,-5 -12.5,0 5,5 Z"
         id="path33073" />
    </marker>
    <marker
       style="overflow:visible"
       id="Arrow1Lstart"
       refX="0"
       refY="0"
       orient="auto"
       inkscape:stockid="Arrow1Lstart"
       inkscape:isstock="true">
      <path
         transform="matrix(0.8,0,0,0.8,10,0)"
         style="fill:context-stroke;fill-rule:evenodd;stroke:context-stroke;stroke-width:1pt"
         d="M 0,0 5,-5 -12.5,0 5,5 Z"
         id="path33064" />
    </marker>
  </defs>
  <g
     inkscape:label="Layer 1"
     inkscape:groupmode="layer"
     id="layer1"
     transform="translate(-19.879778,-30.54661)">
    <rect
       style="fill:#cccccc;stroke:#ffffff;stroke-width:0.264999;stroke-linecap:round"
       id="rect846"
       width="121.52813"
       height="57.962032"
       x="41.79776"
       y="121.96828" />
    <text
       xml:space="preserve"
       style="font-size:10.5833px;line-height:1.25;font-family:sans-serif;letter-spacing:0px;stroke-width:0.264583"
       x="86.91861"
       y="176.12029"
       id="text1510"><tspan
         sodipodi:role="line"
         id="tspan1508"
         style="stroke-width:0.264583"
         x="86.91861"
         y="176.12029">Solver</tspan></text>
    <rect
       style="fill:#ffffff;stroke:#0a0a0a;stroke-width:0.264999;stroke-linecap:round;stroke-opacity:1"
       id="rect7062"
       width="71.775665"
       height="75.441017"
       x="25.964298"
       y="34.301765" />
    <text
       xml:space="preserve"
       style="font-size:10.5833px;line-height:1.25;font-family:sans-serif;letter-spacing:0px;stroke-width:0.264583"
       x="48.46582"
       y="44.444088"
       id="text7946"><tspan
         sodipodi:role="line"
         id="tspan7944"
         style="stroke-width:0.264583"
         x="48.46582"
         y="44.444088">Node</tspan></text>
    <rect
       style="fill:#ffd42a;stroke:#0a0a0a;stroke-width:0.264999;stroke-linecap:round;stroke-opacity:1"
       id="rect8434"
       width="21.50597"
       height="12.111924"
       x="36.584225"
       y="73.205902" />
    <text
       xml:space="preserve"
       style="font-size:4.97653px;line-height:1.25;font-family:sans-serif;letter-spacing:0px;stroke-width:0.264583"
       x="39.865589"
       y="80.827812"
       id="text9746"><tspan
         sodipodi:role="line"
         id="tspan9744"
         style="stroke-width:0.264583"
         x="39.865589"
         y="80.827812">GPU 0</tspan></text>
    <rect
       style="fill:#ffd42a;stroke:#0a0a0a;stroke-width:0.264999;stroke-linecap:round;stroke-opacity:1"
       id="rect10590"
       width="21.50597"
       height="12.111924"
       x="36.584225"
       y="91.667824" />
    <text
       xml:space="preserve"
       style="font-size:4.97653px;line-height:1.25;font-family:sans-serif;letter-spacing:0px;stroke-width:0.264583"
       x="39.865589"
       y="99.289742"
       id="text10594"><tspan
         sodipodi:role="line"
         id="tspan10592"
         style="stroke-width:0.264583"
         x="39.865589"
         y="99.289742">GPU 2</tspan></text>
    <rect
       style="fill:#ffd42a;stroke:#0a0a0a;stroke-width:0.264999;stroke-linecap:round;stroke-opacity:1"
       id="rect10596"
       width="21.50597"
       height="12.111924"
       x="64.630081"
       y="73.205902" />
    <text
       xml:space="preserve"
       style="font-size:4.97653px;line-height:1.25;font-family:sans-serif;letter-spacing:0px;stroke-width:0.264583"
       x="67.911446"
       y="80.827812"
       id="text10600"><tspan
         sodipodi:role="line"
         id="tspan10598"
         style="stroke-width:0.264583"
         x="67.911446"
         y="80.827812">GPU 1</tspan></text>
    <rect
       style="fill:#ffd42a;stroke:#0a0a0a;stroke-width:0.264999;stroke-linecap:round;stroke-opacity:1"
       id="rect10602"
       width="21.50597"
       height="12.111924"
       x="64.630081"
       y="91.667824" />
    <text
       xml:space="preserve"
       style="font-size:4.97653px;line-height:1.25;font-family:sans-serif;letter-spacing:0px;stroke-width:0.264583"
       x="67.911446"
       y="99.289742"
       id="text10606"><tspan
         sodipodi:role="line"
         id="tspan10604"
         style="stroke-width:0.264583"
         x="67.911446"
         y="99.289742">GPU 3</tspan></text>
    <rect
       style="fill:#00ff00;stroke:#0a0a0a;stroke-width:0.264999;stroke-linecap:round;stroke-opacity:1"
       id="rect20824"
       width="3.7350011"
       height="3.7350011"
       x="32.623806"
       y="49.088306" />
    <rect
       style="fill:#00ff00;stroke:#0a0a0a;stroke-width:0.264999;stroke-linecap:round;stroke-opacity:1"
       id="rect20924"
       width="3.7350011"
       height="3.7350011"
       x="36.358807"
       y="49.088306" />
    <rect
       style="fill:#00ff00;stroke:#0a0a0a;stroke-width:0.264999;stroke-linecap:round;stroke-opacity:1"
       id="rect20926"
       width="3.7350011"
       height="3.7350011"
       x="40.093807"
       y="49.088306" />
    <rect
       style="fill:#00ff00;stroke:#0a0a0a;stroke-width:0.264999;stroke-linecap:round;stroke-opacity:1"
       id="rect20928"
       width="3.7350011"
       height="3.7350011"
       x="43.828808"
       y="49.088306" />
    <rect
       style="fill:#00ff00;stroke:#0a0a0a;stroke-width:0.264999;stroke-linecap:round;stroke-opacity:1"
       id="rect20930"
       width="3.7350011"
       height="3.7350011"
       x="47.563808"
       y="49.088306" />
    <rect
       style="fill:#00ff00;stroke:#0a0a0a;stroke-width:0.264999;stroke-linecap:round;stroke-opacity:1"
       id="rect20932"
       width="3.7350011"
       height="3.7350011"
       x="51.298809"
       y="49.088306" />
    <rect
       style="fill:#00ff00;stroke:#0a0a0a;stroke-width:0.264999;stroke-linecap:round;stroke-opacity:1"
       id="rect20934"
       width="3.7350011"
       height="3.7350011"
       x="55.03381"
       y="49.088306" />
    <rect
       style="fill:#00ff00;stroke:#0a0a0a;stroke-width:0.264999;stroke-linecap:round;stroke-opacity:1"
       id="rect20936"
       width="3.7350011"
       height="3.7350011"
       x="58.76881"
       y="49.088306" />
    <rect
       style="fill:#00ff00;stroke:#0a0a0a;stroke-width:0.264999;stroke-linecap:round;stroke-opacity:1"
       id="rect20938"
       width="3.7350011"
       height="3.7350011"
       x="62.503807"
       y="49.088306" />
    <rect
       style="fill:#00ff00;stroke:#0a0a0a;stroke-width:0.264999;stroke-linecap:round;stroke-opacity:1"
       id="rect20940"
       width="3.7350011"
       height="3.7350011"
       x="66.238808"
       y="49.088306" />
    <rect
       style="fill:#00ff00;stroke:#0a0a0a;stroke-width:0.264999;stroke-linecap:round;stroke-opacity:1"
       id="rect20942"
       width="3.7350011"
       height="3.7350011"
       x="69.973808"
       y="49.088306" />
    <rect
       style="fill:#00ff00;stroke:#0a0a0a;stroke-width:0.264999;stroke-linecap:round;stroke-opacity:1"
       id="rect20944"
       width="3.7350011"
       height="3.7350011"
       x="73.708809"
       y="49.088306" />
    <rect
       style="fill:#00ff00;stroke:#0a0a0a;stroke-width:0.264999;stroke-linecap:round;stroke-opacity:1"
       id="rect20946"
       width="3.7350011"
       height="3.7350011"
       x="77.44381"
       y="49.088306" />
    <rect
       style="fill:#00ff00;stroke:#0a0a0a;stroke-width:0.264999;stroke-linecap:round;stroke-opacity:1"
       id="rect20948"
       width="3.7350011"
       height="3.7350011"
       x="81.17881"
       y="49.088306" />
    <rect
       style="fill:#00ff00;stroke:#0a0a0a;stroke-width:0.264999;stroke-linecap:round;stroke-opacity:1"
       id="rect20950"
       width="3.7350011"
       height="3.7350011"
       x="84.913811"
       y="49.088306" />
    <rect
       style="fill:#00ff00;stroke:#0a0a0a;stroke-width:0.264999;stroke-linecap:round;stroke-opacity:1"
       id="rect20952"
       width="3.7350011"
       height="3.7350011"
       x="88.648811"
       y="49.088306" />
    <rect
       style="fill:#00ff00;stroke:#0a0a0a;stroke-width:0.264999;stroke-linecap:round;stroke-opacity:1"
       id="rect20954"
       width="3.7350011"
       height="3.7350011"
       x="32.623806"
       y="52.823307" />
    <rect
       style="fill:#00ff00;stroke:#0a0a0a;stroke-width:0.264999;stroke-linecap:round;stroke-opacity:1"
       id="rect20956"
       width="3.7350011"
       height="3.7350011"
       x="36.358807"
       y="52.823307" />
    <rect
       style="fill:#00ff00;stroke:#0a0a0a;stroke-width:0.264999;stroke-linecap:round;stroke-opacity:1"
       id="rect20958"
       width="3.7350011"
       height="3.7350011"
       x="40.093807"
       y="52.823307" />
    <rect
       style="fill:#00ff00;stroke:#0a0a0a;stroke-width:0.264999;stroke-linecap:round;stroke-opacity:1"
       id="rect20960"
       width="3.7350011"
       height="3.7350011"
       x="43.828808"
       y="52.823307" />
    <rect
       style="fill:#00ff00;stroke:#0a0a0a;stroke-width:0.264999;stroke-linecap:round;stroke-opacity:1"
       id="rect20962"
       width="3.7350011"
       height="3.7350011"
       x="47.563808"
       y="52.823307" />
    <rect
       style="fill:#00ff00;stroke:#0a0a0a;stroke-width:0.264999;stroke-linecap:round;stroke-opacity:1"
       id="rect20964"
       width="3.7350011"
       height="3.7350011"
       x="51.298809"
       y="52.823307" />
    <rect
       style="fill:#00ff00;stroke:#0a0a0a;stroke-width:0.264999;stroke-linecap:round;stroke-opacity:1"
       id="rect20966"
       width="3.7350011"
       height="3.7350011"
       x="55.03381"
       y="52.823307" />
    <rect
       style="fill:#00ff00;stroke:#0a0a0a;stroke-width:0.264999;stroke-linecap:round;stroke-opacity:1"
       id="rect20968"
       width="3.7350011"
       height="3.7350011"
       x="58.76881"
       y="52.823307" />
    <rect
       style="fill:#00ff00;stroke:#0a0a0a;stroke-width:0.264999;stroke-linecap:round;stroke-opacity:1"
       id="rect20970"
       width="3.7350011"
       height="3.7350011"
       x="62.503807"
       y="52.823307" />
    <rect
       style="fill:#00ff00;stroke:#0a0a0a;stroke-width:0.264999;stroke-linecap:round;stroke-opacity:1"
       id="rect20972"
       width="3.7350011"
       height="3.7350011"
       x="66.238808"
       y="52.823307" />
    <rect
       style="fill:#00ff00;stroke:#0a0a0a;stroke-width:0.264999;stroke-linecap:round;stroke-opacity:1"
       id="rect20974"
       width="3.7350011"
       height="3.7350011"
       x="69.973808"
       y="52.823307" />
    <rect
       style="fill:#00ff00;stroke:#0a0a0a;stroke-width:0.264999;stroke-linecap:round;stroke-opacity:1"
       id="rect20976"
       width="3.7350011"
       height="3.7350011"
       x="73.708809"
       y="52.823307" />
    <rect
       style="fill:#00ff00;stroke:#0a0a0a;stroke-width:0.264999;stroke-linecap:round;stroke-opacity:1"
       id="rect20978"
       width="3.7350011"
       height="3.7350011"
       x="77.44381"
       y="52.823307" />
    <rect
       style="fill:#00ff00;stroke:#0a0a0a;stroke-width:0.264999;stroke-linecap:round;stroke-opacity:1"
       id="rect20980"
       width="3.7350011"
       height="3.7350011"
       x="81.17881"
       y="52.823307" />
    <rect
       style="fill:#00ff00;stroke:#0a0a0a;stroke-width:0.264999;stroke-linecap:round;stroke-opacity:1"
       id="rect20982"
       width="3.7350011"
       height="3.7350011"
       x="84.913811"
       y="52.823307" />
    <rect
       style="fill:#00ff00;stroke:#0a0a0a;stroke-width:0.264999;stroke-linecap:round;stroke-opacity:1"
       id="rect20984"
       width="3.7350011"
       height="3.7350011"
       x="88.648811"
       y="52.823307" />
    <rect
       style="fill:#00ff00;stroke:#0a0a0a;stroke-width:0.264999;stroke-linecap:round;stroke-opacity:1"
       id="rect20986"
       width="3.7350011"
       height="3.7350011"
       x="32.623806"
       y="56.558308" />
    <rect
       style="fill:#00ff00;stroke:#0a0a0a;stroke-width:0.264999;stroke-linecap:round;stroke-opacity:1"
       id="rect20988"
       width="3.7350011"
       height="3.7350011"
       x="36.358807"
       y="56.558308" />
    <rect
       style="fill:#00ff00;stroke:#0a0a0a;stroke-width:0.264999;stroke-linecap:round;stroke-opacity:1"
       id="rect20990"
       width="3.7350011"
       height="3.7350011"
       x="40.093807"
       y="56.558308" />
    <rect
       style="fill:#00ff00;stroke:#0a0a0a;stroke-width:0.264999;stroke-linecap:round;stroke-opacity:1"
       id="rect20992"
       width="3.7350011"
       height="3.7350011"
       x="43.828808"
       y="56.558308" />
    <rect
       style="fill:#00ff00;stroke:#0a0a0a;stroke-width:0.264999;stroke-linecap:round;stroke-opacity:1"
       id="rect20994"
       width="3.7350011"
       height="3.7350011"
       x="47.563808"
       y="56.558308" />
    <rect
       style="fill:#00ff00;stroke:#0a0a0a;stroke-width:0.264999;stroke-linecap:round;stroke-opacity:1"
       id="rect20996"
       width="3.7350011"
       height="3.7350011"
       x="51.298809"
       y="56.558308" />
    <rect
       style="fill:#00ff00;stroke:#0a0a0a;stroke-width:0.264999;stroke-linecap:round;stroke-opacity:1"
       id="rect20998"
       width="3.7350011"
       height="3.7350011"
       x="55.03381"
       y="56.558308" />
    <rect
       style="fill:#00ff00;stroke:#0a0a0a;stroke-width:0.264999;stroke-linecap:round;stroke-opacity:1"
       id="rect21000"
       width="3.7350011"
       height="3.7350011"
       x="58.76881"
       y="56.558308" />
    <rect
       style="fill:#00ff00;stroke:#0a0a0a;stroke-width:0.264999;stroke-linecap:round;stroke-opacity:1"
       id="rect21002"
       width="3.7350011"
       height="3.7350011"
       x="62.503807"
       y="56.558308" />
    <rect
       style="fill:#00ff00;stroke:#0a0a0a;stroke-width:0.264999;stroke-linecap:round;stroke-opacity:1"
       id="rect21004"
       width="3.7350011"
       height="3.7350011"
       x="66.238808"
       y="56.558308" />
    <rect
       style="fill:#00ff00;stroke:#0a0a0a;stroke-width:0.264999;stroke-linecap:round;stroke-opacity:1"
       id="rect21006"
       width="3.7350011"
       height="3.7350011"
       x="69.973808"
       y="56.558308" />
    <rect
       style="fill:#00ff00;stroke:#0a0a0a;stroke-width:0.264999;stroke-linecap:round;stroke-opacity:1"
       id="rect21008"
       width="3.7350011"
       height="3.7350011"
       x="73.708809"
       y="56.558308" />
    <rect
       style="fill:#00ff00;stroke:#0a0a0a;stroke-width:0.264999;stroke-linecap:round;stroke-opacity:1"
       id="rect21010"
       width="3.7350011"
       height="3.7350011"
       x="77.44381"
       y="56.558308" />
    <rect
       style="fill:#00ff00;stroke:#0a0a0a;stroke-width:0.264999;stroke-linecap:round;stroke-opacity:1"
       id="rect21012"
       width="3.7350011"
       height="3.7350011"
       x="81.17881"
       y="56.558308" />
    <rect
       style="fill:#00ff00;stroke:#0a0a0a;stroke-width:0.264999;stroke-linecap:round;stroke-opacity:1"
       id="rect21014"
       width="3.7350011"
       height="3.7350011"
       x="84.913811"
       y="56.558308" />
    <rect
       style="fill:#00ff00;stroke:#0a0a0a;stroke-width:0.264999;stroke-linecap:round;stroke-opacity:1"
       id="rect21016"
       width="3.7350011"
       height="3.7350011"
       x="88.648811"
       y="56.558308" />
    <rect
       style="fill:#00ff00;stroke:#0a0a0a;stroke-width:0.264999;stroke-linecap:round;stroke-opacity:1"
       id="rect21018"
       width="3.7350011"
       height="3.7350011"
       x="32.623806"
       y="60.293304" />
    <rect
       style="fill:#00ff00;stroke:#0a0a0a;stroke-width:0.264999;stroke-linecap:round;stroke-opacity:1"
       id="rect21020"
       width="3.7350011"
       height="3.7350011"
       x="36.358807"
       y="60.293304" />
    <rect
       style="fill:#00ff00;stroke:#0a0a0a;stroke-width:0.264999;stroke-linecap:round;stroke-opacity:1"
       id="rect21022"
       width="3.7350011"
       height="3.7350011"
       x="40.093807"
       y="60.293304" />
    <rect
       style="fill:#00ff00;stroke:#0a0a0a;stroke-width:0.264999;stroke-linecap:round;stroke-opacity:1"
       id="rect21024"
       width="3.7350011"
       height="3.7350011"
       x="43.828808"
       y="60.293304" />
    <rect
       style="fill:#00ff00;stroke:#0a0a0a;stroke-width:0.264999;stroke-linecap:round;stroke-opacity:1"
       id="rect21026"
       width="3.7350011"
       height="3.7350011"
       x="47.563808"
       y="60.293304" />
    <rect
       style="fill:#00ff00;stroke:#0a0a0a;stroke-width:0.264999;stroke-linecap:round;stroke-opacity:1"
       id="rect21028"
       width="3.7350011"
       height="3.7350011"
       x="51.298809"
       y="60.293304" />
    <rect
       style="fill:#00ff00;stroke:#0a0a0a;stroke-width:0.264999;stroke-linecap:round;stroke-opacity:1"
       id="rect21030"
       width="3.7350011"
       height="3.7350011"
       x="55.03381"
       y="60.293304" />
    <rect
       style="fill:#00ff00;stroke:#0a0a0a;stroke-width:0.264999;stroke-linecap:round;stroke-opacity:1"
       id="rect21032"
       width="3.7350011"
       height="3.7350011"
       x="58.76881"
       y="60.293304" />
    <rect
       style="fill:#00ff00;stroke:#0a0a0a;stroke-width:0.264999;stroke-linecap:round;stroke-opacity:1"
       id="rect21034"
       width="3.7350011"
       height="3.7350011"
       x="62.503807"
       y="60.293304" />
    <rect
       style="fill:#00ff00;stroke:#0a0a0a;stroke-width:0.264999;stroke-linecap:round;stroke-opacity:1"
       id="rect21036"
       width="3.7350011"
       height="3.7350011"
       x="66.238808"
       y="60.293304" />
    <rect
       style="fill:#00ff00;stroke:#0a0a0a;stroke-width:0.264999;stroke-linecap:round;stroke-opacity:1"
       id="rect21038"
       width="3.7350011"
       height="3.7350011"
       x="69.973808"
       y="60.293304" />
    <rect
       style="fill:#00ff00;stroke:#0a0a0a;stroke-width:0.264999;stroke-linecap:round;stroke-opacity:1"
       id="rect21040"
       width="3.7350011"
       height="3.7350011"
       x="73.708809"
       y="60.293304" />
    <rect
       style="fill:#00ff00;stroke:#0a0a0a;stroke-width:0.264999;stroke-linecap:round;stroke-opacity:1"
       id="rect21042"
       width="3.7350011"
       height="3.7350011"
       x="77.44381"
       y="60.293304" />
    <rect
       style="fill:#00ff00;stroke:#0a0a0a;stroke-width:0.264999;stroke-linecap:round;stroke-opacity:1"
       id="rect21044"
       width="3.7350011"
       height="3.7350011"
       x="81.17881"
       y="60.293304" />
    <rect
       style="fill:#00ff00;stroke:#0a0a0a;stroke-width:0.264999;stroke-linecap:round;stroke-opacity:1"
       id="rect21046"
       width="3.7350011"
       height="3.7350011"
       x="84.913811"
       y="60.293304" />
    <rect
       style="fill:#00ff00;stroke:#0a0a0a;stroke-width:0.264999;stroke-linecap:round;stroke-opacity:1"
       id="rect21048"
       width="3.7350011"
       height="3.7350011"
       x="88.648811"
       y="60.293304" />
    <text
       xml:space="preserve"
       style="font-size:4.97653px;line-height:1.25;font-family:sans-serif;letter-spacing:0px;stroke-width:0.264583"
       x="54.582825"
       y="69.125328"
       id="text21132"><tspan
         sodipodi:role="line"
         id="tspan21130"
         style="stroke-width:0.264583"
         x="54.582825"
         y="69.125328">CPUs</tspan></text>
    <rect
       style="fill:#ffffff;stroke:#0a0a0a;stroke-width:0.264999;stroke-linecap:round;stroke-opacity:1"
       id="rect26719"
       width="71.775665"
       height="75.441017"
       x="109.72656"
       y="34.301498" />
    <text
       xml:space="preserve"
       style="font-size:10.5833px;line-height:1.25;font-family:sans-serif;letter-spacing:0px;stroke-width:0.264583"
       x="132.22809"
       y="44.443821"
       id="text26723"><tspan
         sodipodi:role="line"
         id="tspan26721"
         style="stroke-width:0.264583"
         x="132.22809"
         y="44.443821">Node</tspan></text>
    <rect
       style="fill:#ffd42a;stroke:#0a0a0a;stroke-width:0.264999;stroke-linecap:round;stroke-opacity:1"
       id="rect26725"
       width="21.50597"
       height="12.111924"
       x="120.34649"
       y="73.205635" />
    <text
       xml:space="preserve"
       style="font-size:4.97653px;line-height:1.25;font-family:sans-serif;letter-spacing:0px;stroke-width:0.264583"
       x="123.62785"
       y="80.827545"
       id="text26729"><tspan
         sodipodi:role="line"
         id="tspan26727"
         style="stroke-width:0.264583"
         x="123.62785"
         y="80.827545">GPU 0</tspan></text>
    <rect
       style="fill:#ffd42a;stroke:#0a0a0a;stroke-width:0.264999;stroke-linecap:round;stroke-opacity:1"
       id="rect26731"
       width="21.50597"
       height="12.111924"
       x="120.34649"
       y="91.667557" />
    <text
       xml:space="preserve"
       style="font-size:4.97653px;line-height:1.25;font-family:sans-serif;letter-spacing:0px;stroke-width:0.264583"
       x="123.62785"
       y="99.289474"
       id="text26735"><tspan
         sodipodi:role="line"
         id="tspan26733"
         style="stroke-width:0.264583"
         x="123.62785"
         y="99.289474">GPU 2</tspan></text>
    <rect
       style="fill:#ffd42a;stroke:#0a0a0a;stroke-width:0.264999;stroke-linecap:round;stroke-opacity:1"
       id="rect26737"
       width="21.50597"
       height="12.111924"
       x="148.39235"
       y="73.205635" />
    <text
       xml:space="preserve"
       style="font-size:4.97653px;line-height:1.25;font-family:sans-serif;letter-spacing:0px;stroke-width:0.264583"
       x="151.67372"
       y="80.827545"
       id="text26741"><tspan
         sodipodi:role="line"
         id="tspan26739"
         style="stroke-width:0.264583"
         x="151.67372"
         y="80.827545">GPU 1</tspan></text>
    <rect
       style="fill:#ffd42a;stroke:#0a0a0a;stroke-width:0.264999;stroke-linecap:round;stroke-opacity:1"
       id="rect26743"
       width="21.50597"
       height="12.111924"
       x="148.39235"
       y="91.667557" />
    <text
       xml:space="preserve"
       style="font-size:4.97653px;line-height:1.25;font-family:sans-serif;letter-spacing:0px;stroke-width:0.264583"
       x="151.67372"
       y="99.289474"
       id="text26747"><tspan
         sodipodi:role="line"
         id="tspan26745"
         style="stroke-width:0.264583"
         x="151.67372"
         y="99.289474">GPU 3</tspan></text>
    <rect
       style="fill:#00ff00;stroke:#0a0a0a;stroke-width:0.264999;stroke-linecap:round;stroke-opacity:1"
       id="rect26749"
       width="3.7350011"
       height="3.7350011"
       x="116.38607"
       y="49.088039" />
    <rect
       style="fill:#00ff00;stroke:#0a0a0a;stroke-width:0.264999;stroke-linecap:round;stroke-opacity:1"
       id="rect26751"
       width="3.7350011"
       height="3.7350011"
       x="120.12107"
       y="49.088039" />
    <rect
       style="fill:#00ff00;stroke:#0a0a0a;stroke-width:0.264999;stroke-linecap:round;stroke-opacity:1"
       id="rect26753"
       width="3.7350011"
       height="3.7350011"
       x="123.85607"
       y="49.088039" />
    <rect
       style="fill:#00ff00;stroke:#0a0a0a;stroke-width:0.264999;stroke-linecap:round;stroke-opacity:1"
       id="rect26755"
       width="3.7350011"
       height="3.7350011"
       x="127.59107"
       y="49.088039" />
    <rect
       style="fill:#00ff00;stroke:#0a0a0a;stroke-width:0.264999;stroke-linecap:round;stroke-opacity:1"
       id="rect26757"
       width="3.7350011"
       height="3.7350011"
       x="131.32608"
       y="49.088039" />
    <rect
       style="fill:#00ff00;stroke:#0a0a0a;stroke-width:0.264999;stroke-linecap:round;stroke-opacity:1"
       id="rect26759"
       width="3.7350011"
       height="3.7350011"
       x="135.06108"
       y="49.088039" />
    <rect
       style="fill:#00ff00;stroke:#0a0a0a;stroke-width:0.264999;stroke-linecap:round;stroke-opacity:1"
       id="rect26761"
       width="3.7350011"
       height="3.7350011"
       x="138.79608"
       y="49.088039" />
    <rect
       style="fill:#00ff00;stroke:#0a0a0a;stroke-width:0.264999;stroke-linecap:round;stroke-opacity:1"
       id="rect26763"
       width="3.7350011"
       height="3.7350011"
       x="142.53108"
       y="49.088039" />
    <rect
       style="fill:#00ff00;stroke:#0a0a0a;stroke-width:0.264999;stroke-linecap:round;stroke-opacity:1"
       id="rect26765"
       width="3.7350011"
       height="3.7350011"
       x="146.26608"
       y="49.088039" />
    <rect
       style="fill:#00ff00;stroke:#0a0a0a;stroke-width:0.264999;stroke-linecap:round;stroke-opacity:1"
       id="rect26767"
       width="3.7350011"
       height="3.7350011"
       x="150.00108"
       y="49.088039" />
    <rect
       style="fill:#00ff00;stroke:#0a0a0a;stroke-width:0.264999;stroke-linecap:round;stroke-opacity:1"
       id="rect26769"
       width="3.7350011"
       height="3.7350011"
       x="153.73608"
       y="49.088039" />
    <rect
       style="fill:#00ff00;stroke:#0a0a0a;stroke-width:0.264999;stroke-linecap:round;stroke-opacity:1"
       id="rect26771"
       width="3.7350011"
       height="3.7350011"
       x="157.47108"
       y="49.088039" />
    <rect
       style="fill:#00ff00;stroke:#0a0a0a;stroke-width:0.264999;stroke-linecap:round;stroke-opacity:1"
       id="rect26773"
       width="3.7350011"
       height="3.7350011"
       x="161.20609"
       y="49.088039" />
    <rect
       style="fill:#00ff00;stroke:#0a0a0a;stroke-width:0.264999;stroke-linecap:round;stroke-opacity:1"
       id="rect26775"
       width="3.7350011"
       height="3.7350011"
       x="164.94109"
       y="49.088039" />
    <rect
       style="fill:#00ff00;stroke:#0a0a0a;stroke-width:0.264999;stroke-linecap:round;stroke-opacity:1"
       id="rect26777"
       width="3.7350011"
       height="3.7350011"
       x="168.67609"
       y="49.088039" />
    <rect
       style="fill:#00ff00;stroke:#0a0a0a;stroke-width:0.264999;stroke-linecap:round;stroke-opacity:1"
       id="rect26779"
       width="3.7350011"
       height="3.7350011"
       x="172.41109"
       y="49.088039" />
    <rect
       style="fill:#00ff00;stroke:#0a0a0a;stroke-width:0.264999;stroke-linecap:round;stroke-opacity:1"
       id="rect26781"
       width="3.7350011"
       height="3.7350011"
       x="116.38607"
       y="52.82304" />
    <rect
       style="fill:#00ff00;stroke:#0a0a0a;stroke-width:0.264999;stroke-linecap:round;stroke-opacity:1"
       id="rect26783"
       width="3.7350011"
       height="3.7350011"
       x="120.12107"
       y="52.82304" />
    <rect
       style="fill:#00ff00;stroke:#0a0a0a;stroke-width:0.264999;stroke-linecap:round;stroke-opacity:1"
       id="rect26785"
       width="3.7350011"
       height="3.7350011"
       x="123.85607"
       y="52.82304" />
    <rect
       style="fill:#00ff00;stroke:#0a0a0a;stroke-width:0.264999;stroke-linecap:round;stroke-opacity:1"
       id="rect26787"
       width="3.7350011"
       height="3.7350011"
       x="127.59107"
       y="52.82304" />
    <rect
       style="fill:#00ff00;stroke:#0a0a0a;stroke-width:0.264999;stroke-linecap:round;stroke-opacity:1"
       id="rect26789"
       width="3.7350011"
       height="3.7350011"
       x="131.32608"
       y="52.82304" />
    <rect
       style="fill:#00ff00;stroke:#0a0a0a;stroke-width:0.264999;stroke-linecap:round;stroke-opacity:1"
       id="rect26791"
       width="3.7350011"
       height="3.7350011"
       x="135.06108"
       y="52.82304" />
    <rect
       style="fill:#00ff00;stroke:#0a0a0a;stroke-width:0.264999;stroke-linecap:round;stroke-opacity:1"
       id="rect26793"
       width="3.7350011"
       height="3.7350011"
       x="138.79608"
       y="52.82304" />
    <rect
       style="fill:#00ff00;stroke:#0a0a0a;stroke-width:0.264999;stroke-linecap:round;stroke-opacity:1"
       id="rect26795"
       width="3.7350011"
       height="3.7350011"
       x="142.53108"
       y="52.82304" />
    <rect
       style="fill:#00ff00;stroke:#0a0a0a;stroke-width:0.264999;stroke-linecap:round;stroke-opacity:1"
       id="rect26797"
       width="3.7350011"
       height="3.7350011"
       x="146.26608"
       y="52.82304" />
    <rect
       style="fill:#00ff00;stroke:#0a0a0a;stroke-width:0.264999;stroke-linecap:round;stroke-opacity:1"
       id="rect26799"
       width="3.7350011"
       height="3.7350011"
       x="150.00108"
       y="52.82304" />
    <rect
       style="fill:#00ff00;stroke:#0a0a0a;stroke-width:0.264999;stroke-linecap:round;stroke-opacity:1"
       id="rect26801"
       width="3.7350011"
       height="3.7350011"
       x="153.73608"
       y="52.82304" />
    <rect
       style="fill:#00ff00;stroke:#0a0a0a;stroke-width:0.264999;stroke-linecap:round;stroke-opacity:1"
       id="rect26803"
       width="3.7350011"
       height="3.7350011"
       x="157.47108"
       y="52.82304" />
    <rect
       style="fill:#00ff00;stroke:#0a0a0a;stroke-width:0.264999;stroke-linecap:round;stroke-opacity:1"
       id="rect26805"
       width="3.7350011"
       height="3.7350011"
       x="161.20609"
       y="52.82304" />
    <rect
       style="fill:#00ff00;stroke:#0a0a0a;stroke-width:0.264999;stroke-linecap:round;stroke-opacity:1"
       id="rect26807"
       width="3.7350011"
       height="3.7350011"
       x="164.94109"
       y="52.82304" />
    <rect
       style="fill:#00ff00;stroke:#0a0a0a;stroke-width:0.264999;stroke-linecap:round;stroke-opacity:1"
       id="rect26809"
       width="3.7350011"
       height="3.7350011"
       x="168.67609"
       y="52.82304" />
    <rect
       style="fill:#00ff00;stroke:#0a0a0a;stroke-width:0.264999;stroke-linecap:round;stroke-opacity:1"
       id="rect26811"
       width="3.7350011"
       height="3.7350011"
       x="172.41109"
       y="52.82304" />
    <rect
       style="fill:#00ff00;stroke:#0a0a0a;stroke-width:0.264999;stroke-linecap:round;stroke-opacity:1"
       id="rect26813"
       width="3.7350011"
       height="3.7350011"
       x="116.38607"
       y="56.558041" />
    <rect
       style="fill:#00ff00;stroke:#0a0a0a;stroke-width:0.264999;stroke-linecap:round;stroke-opacity:1"
       id="rect26815"
       width="3.7350011"
       height="3.7350011"
       x="120.12107"
       y="56.558041" />
    <rect
       style="fill:#00ff00;stroke:#0a0a0a;stroke-width:0.264999;stroke-linecap:round;stroke-opacity:1"
       id="rect26817"
       width="3.7350011"
       height="3.7350011"
       x="123.85607"
       y="56.558041" />
    <rect
       style="fill:#00ff00;stroke:#0a0a0a;stroke-width:0.264999;stroke-linecap:round;stroke-opacity:1"
       id="rect26819"
       width="3.7350011"
       height="3.7350011"
       x="127.59107"
       y="56.558041" />
    <rect
       style="fill:#00ff00;stroke:#0a0a0a;stroke-width:0.264999;stroke-linecap:round;stroke-opacity:1"
       id="rect26821"
       width="3.7350011"
       height="3.7350011"
       x="131.32608"
       y="56.558041" />
    <rect
       style="fill:#00ff00;stroke:#0a0a0a;stroke-width:0.264999;stroke-linecap:round;stroke-opacity:1"
       id="rect26823"
       width="3.7350011"
       height="3.7350011"
       x="135.06108"
       y="56.558041" />
    <rect
       style="fill:#00ff00;stroke:#0a0a0a;stroke-width:0.264999;stroke-linecap:round;stroke-opacity:1"
       id="rect26825"
       width="3.7350011"
       height="3.7350011"
       x="138.79608"
       y="56.558041" />
    <rect
       style="fill:#00ff00;stroke:#0a0a0a;stroke-width:0.264999;stroke-linecap:round;stroke-opacity:1"
       id="rect26827"
       width="3.7350011"
       height="3.7350011"
       x="142.53108"
       y="56.558041" />
    <rect
       style="fill:#00ff00;stroke:#0a0a0a;stroke-width:0.264999;stroke-linecap:round;stroke-opacity:1"
       id="rect26829"
       width="3.7350011"
       height="3.7350011"
       x="146.26608"
       y="56.558041" />
    <rect
       style="fill:#00ff00;stroke:#0a0a0a;stroke-width:0.264999;stroke-linecap:round;stroke-opacity:1"
       id="rect26831"
       width="3.7350011"
       height="3.7350011"
       x="150.00108"
       y="56.558041" />
    <rect
       style="fill:#00ff00;stroke:#0a0a0a;stroke-width:0.264999;stroke-linecap:round;stroke-opacity:1"
       id="rect26833"
       width="3.7350011"
       height="3.7350011"
       x="153.73608"
       y="56.558041" />
    <rect
       style="fill:#00ff00;stroke:#0a0a0a;stroke-width:0.264999;stroke-linecap:round;stroke-opacity:1"
       id="rect26835"
       width="3.7350011"
       height="3.7350011"
       x="157.47108"
       y="56.558041" />
    <rect
       style="fill:#00ff00;stroke:#0a0a0a;stroke-width:0.264999;stroke-linecap:round;stroke-opacity:1"
       id="rect26837"
       width="3.7350011"
       height="3.7350011"
       x="161.20609"
       y="56.558041" />
    <rect
       style="fill:#00ff00;stroke:#0a0a0a;stroke-width:0.264999;stroke-linecap:round;stroke-opacity:1"
       id="rect26839"
       width="3.7350011"
       height="3.7350011"
       x="164.94109"
       y="56.558041" />
    <rect
       style="fill:#00ff00;stroke:#0a0a0a;stroke-width:0.264999;stroke-linecap:round;stroke-opacity:1"
       id="rect26841"
       width="3.7350011"
       height="3.7350011"
       x="168.67609"
       y="56.558041" />
    <rect
       style="fill:#00ff00;stroke:#0a0a0a;stroke-width:0.264999;stroke-linecap:round;stroke-opacity:1"
       id="rect26843"
       width="3.7350011"
       height="3.7350011"
       x="172.41109"
       y="56.558041" />
    <rect
       style="fill:#00ff00;stroke:#0a0a0a;stroke-width:0.264999;stroke-linecap:round;stroke-opacity:1"
       id="rect26845"
       width="3.7350011"
       height="3.7350011"
       x="116.38607"
       y="60.293037" />
    <rect
       style="fill:#00ff00;stroke:#0a0a0a;stroke-width:0.264999;stroke-linecap:round;stroke-opacity:1"
       id="rect26847"
       width="3.7350011"
       height="3.7350011"
       x="120.12107"
       y="60.293037" />
    <rect
       style="fill:#00ff00;stroke:#0a0a0a;stroke-width:0.264999;stroke-linecap:round;stroke-opacity:1"
       id="rect26849"
       width="3.7350011"
       height="3.7350011"
       x="123.85607"
       y="60.293037" />
    <rect
       style="fill:#00ff00;stroke:#0a0a0a;stroke-width:0.264999;stroke-linecap:round;stroke-opacity:1"
       id="rect26851"
       width="3.7350011"
       height="3.7350011"
       x="127.59107"
       y="60.293037" />
    <rect
       style="fill:#00ff00;stroke:#0a0a0a;stroke-width:0.264999;stroke-linecap:round;stroke-opacity:1"
       id="rect26853"
       width="3.7350011"
       height="3.7350011"
       x="131.32608"
       y="60.293037" />
    <rect
       style="fill:#00ff00;stroke:#0a0a0a;stroke-width:0.264999;stroke-linecap:round;stroke-opacity:1"
       id="rect26855"
       width="3.7350011"
       height="3.7350011"
       x="135.06108"
       y="60.293037" />
    <rect
       style="fill:#00ff00;stroke:#0a0a0a;stroke-width:0.264999;stroke-linecap:round;stroke-opacity:1"
       id="rect26857"
       width="3.7350011"
       height="3.7350011"
       x="138.79608"
       y="60.293037" />
    <rect
       style="fill:#00ff00;stroke:#0a0a0a;stroke-width:0.264999;stroke-linecap:round;stroke-opacity:1"
       id="rect26859"
       width="3.7350011"
       height="3.7350011"
       x="142.53108"
       y="60.293037" />
    <rect
       style="fill:#00ff00;stroke:#0a0a0a;stroke-width:0.264999;stroke-linecap:round;stroke-opacity:1"
       id="rect26861"
       width="3.7350011"
       height="3.7350011"
       x="146.26608"
       y="60.293037" />
    <rect
       style="fill:#00ff00;stroke:#0a0a0a;stroke-width:0.264999;stroke-linecap:round;stroke-opacity:1"
       id="rect26863"
       width="3.7350011"
       height="3.7350011"
       x="150.00108"
       y="60.293037" />
    <rect
       style="fill:#00ff00;stroke:#0a0a0a;stroke-width:0.264999;stroke-linecap:round;stroke-opacity:1"
       id="rect26865"
       width="3.7350011"
       height="3.7350011"
       x="153.73608"
       y="60.293037" />
    <rect
       style="fill:#00ff00;stroke:#0a0a0a;stroke-width:0.264999;stroke-linecap:round;stroke-opacity:1"
       id="rect26867"
       width="3.7350011"
       height="3.7350011"
       x="157.47108"
       y="60.293037" />
    <rect
       style="fill:#00ff00;stroke:#0a0a0a;stroke-width:0.264999;stroke-linecap:round;stroke-opacity:1"
       id="rect26869"
       width="3.7350011"
       height="3.7350011"
       x="161.20609"
       y="60.293037" />
    <rect
       style="fill:#00ff00;stroke:#0a0a0a;stroke-width:0.264999;stroke-linecap:round;stroke-opacity:1"
       id="rect26871"
       width="3.7350011"
       height="3.7350011"
       x="164.94109"
       y="60.293037" />
    <rect
       style="fill:#00ff00;stroke:#0a0a0a;stroke-width:0.264999;stroke-linecap:round;stroke-opacity:1"
       id="rect26873"
       width="3.7350011"
       height="3.7350011"
       x="168.67609"
       y="60.293037" />
    <rect
       style="fill:#00ff00;stroke:#0a0a0a;stroke-width:0.264999;stroke-linecap:round;stroke-opacity:1"
       id="rect26875"
       width="3.7350011"
       height="3.7350011"
       x="172.41109"
       y="60.293037" />
    <text
       xml:space="preserve"
       style="font-size:4.97653px;line-height:1.25;font-family:sans-serif;letter-spacing:0px;stroke-width:0.264583"
       x="138.34509"
       y="69.125076"
       id="text26879"><tspan
         sodipodi:role="line"
         id="tspan26877"
         style="stroke-width:0.264583"
         x="138.34509"
         y="69.125076">CPUs</tspan></text>
    <rect
       style="fill:#ff0000;stroke:#0a0a0a;stroke-width:0.264999;stroke-linecap:round;stroke-opacity:1"
       id="rect26903"
       width="49.502174"
       height="24.951302"
       x="48.467556"
       y="134.82918" />
    <text
       xml:space="preserve"
       style="font-size:6.47997px;line-height:1.25;font-family:sans-serif;letter-spacing:0px;stroke-width:0.264583"
       x="51.82399"
       y="148.81398"
       id="text28924"><tspan
         sodipodi:role="line"
         id="tspan28922"
         style="stroke-width:0.264583"
         x="51.82399"
         y="148.81398">Subdomain 0</tspan></text>
    <rect
       style="fill:#ff0000;stroke:#0a0a0a;stroke-width:0.264999;stroke-linecap:round;stroke-opacity:1"
       id="rect29854"
       width="49.502174"
       height="24.951302"
       x="107.49474"
       y="134.82918" />
    <text
       xml:space="preserve"
       style="font-size:6.47997px;line-height:1.25;font-family:sans-serif;letter-spacing:0px;stroke-width:0.264583"
       x="110.85117"
       y="148.81398"
       id="text29858"><tspan
         sodipodi:role="line"
         id="tspan29856"
         style="stroke-width:0.264583"
         x="110.85117"
         y="148.81398">Subdomain 1</tspan></text>
  </g>
  <g
     inkscape:groupmode="layer"
     id="layer2"
     inkscape:label="Layer 2"
     transform="translate(-4.0881104,-1.3754727)">
    <path
       style="fill:none;stroke:#000ce3;stroke-width:1;stroke-linecap:butt;stroke-linejoin:miter;stroke-miterlimit:4;stroke-dasharray:none;stroke-opacity:1;marker-end:url(#Arrow1Mend)"
       d="M 32.675888,105.65804 C 2.8948155,88.249502 8.062859,67.858834 20.792557,56.146688"
       id="path32883"
       sodipodi:nodetypes="cc" />
    <path
       style="fill:none;stroke:#000ce3;stroke-width:1;stroke-linecap:butt;stroke-linejoin:miter;stroke-miterlimit:4;stroke-dasharray:none;stroke-opacity:1;marker-end:url(#Arrow1Mend)"
       d="M 105.72247,104.89629 C 101.43256,84.736442 92.508761,67.727305 70.211248,50.061115"
       id="path35135"
       sodipodi:nodetypes="cc" />
    <text
       xml:space="preserve"
       style="font-size:7.37055px;line-height:1.25;font-family:sans-serif;letter-spacing:0px;fill:#000ce3;fill-opacity:1;stroke-width:0.264583"
       x="16.517143"
       y="89.525894"
       id="text2817"><tspan
         sodipodi:role="line"
         id="tspan2815"
         style="fill:#000ce3;fill-opacity:1;stroke-width:0.264583"
         x="16.517143"
         y="89.525894">task 0</tspan></text>
    <text
       xml:space="preserve"
       style="font-size:7.37055px;line-height:1.25;font-family:sans-serif;letter-spacing:0px;fill:#000ce3;fill-opacity:1;stroke-width:0.264583"
       x="74.16909"
       y="89.589996"
       id="text2817-3"><tspan
         sodipodi:role="line"
         id="tspan2815-6"
         style="fill:#000ce3;fill-opacity:1;stroke-width:0.264583"
         x="74.16909"
         y="89.589996">task 1</tspan></text>
  </g>
</svg>
